M48
; DRILL file {KiCad (5.1.0)-1} date 11/12/2019 17:06:20
; FORMAT={3:3/ absolute / metric / keep zeros}
; #@! TF.CreationDate,2019-12-11T17:06:20+01:00
; #@! TF.GenerationSoftware,Kicad,Pcbnew,(5.1.0)-1
FMAT,2
METRIC
T1C0.400
T2C3.000
%
G90
G05
T1
X112180Y-081560
X115420Y-081250
T2
X102600Y-084000
X130900Y-084000
T0
M30
