EESchema Schematic File Version 4
EELAYER 30 0
EELAYER END
$Descr A4 11693 8268
encoding utf-8
Sheet 1 1
Title "SATA to USB C"
Date ""
Rev "1.0"
Comp "3DCRAN"
Comment1 "Diskio Pi"
Comment2 ""
Comment3 ""
Comment4 ""
$EndDescr
Wire Wire Line
	4250 4850 4250 5150
Wire Wire Line
	4250 5150 3950 5150
$Comp
L Device:R R3
U 1 1 5ED1C82D
P 3800 5150
F 0 "R3" V 3700 5150 50  0000 C CNN
F 1 "100k" V 3900 5150 50  0000 C CNN
F 2 "Resistors_SMD:R_0805" V 3730 5150 50  0001 C CNN
F 3 "~" H 3800 5150 50  0001 C CNN
	1    3800 5150
	0    1    1    0   
$EndComp
Wire Wire Line
	4750 4850 4750 5500
Text GLabel 4350 5500 3    50   Input ~ 0
P_SPI_DI
Text GLabel 4450 5500 3    50   Input ~ 0
P_SPI_CK
Text GLabel 4650 5500 3    50   Input ~ 0
P_SPI_DO
Wire Wire Line
	4650 5500 4650 4850
Wire Wire Line
	4450 5500 4450 4850
Wire Wire Line
	4350 4850 4350 5500
Text GLabel 4550 5950 3    50   Input ~ 0
VCCK
Wire Wire Line
	4550 5950 4550 4850
Wire Wire Line
	4950 5500 4950 4850
NoConn ~ 5050 4850
Text GLabel 5150 5500 3    50   Input ~ 0
VCCK
Text GLabel 5250 5500 3    50   Input ~ 0
VBUS_DET
Text GLabel 5800 5100 2    50   Input ~ 0
USB_P5V0
Wire Wire Line
	5350 4850 5350 5100
Wire Wire Line
	5350 5100 5800 5100
Wire Wire Line
	5250 4850 5250 5500
Text GLabel 6350 4400 2    50   Input ~ 0
D_N
Wire Wire Line
	5750 4400 6350 4400
Wire Wire Line
	5750 4300 6750 4300
Text GLabel 6750 4200 1    50   Input ~ 0
VCCO
Wire Wire Line
	6750 4300 6750 4200
Wire Wire Line
	6750 4300 6750 4400
Connection ~ 6750 4300
$Comp
L Device:C C12
U 1 1 5ED2F918
P 6750 4550
F 0 "C12" H 6865 4596 50  0000 L CNN
F 1 "1uF" H 6865 4505 50  0000 L CNN
F 2 "Capacitors_SMD:C_0805" H 6788 4400 50  0001 C CNN
F 3 "~" H 6750 4550 50  0001 C CNN
	1    6750 4550
	1    0    0    -1  
$EndComp
Wire Wire Line
	5750 3900 6050 3900
Wire Wire Line
	6050 3600 5750 3600
Wire Wire Line
	6050 3300 5750 3300
Connection ~ 6050 3600
Connection ~ 6050 3300
Text GLabel 6050 3200 1    50   Input ~ 0
AVDDL
Wire Wire Line
	5750 3500 6150 3500
Text GLabel 6150 3500 2    50   Input ~ 0
SSRX_N
Wire Wire Line
	5750 3700 6150 3700
Wire Wire Line
	5750 3800 6150 3800
Text GLabel 6150 3700 2    50   Input ~ 0
SSTX_P
Text GLabel 6150 3800 2    50   Input ~ 0
SSTX_N
Wire Wire Line
	5750 4200 6350 4200
Text GLabel 6350 4200 2    50   Input ~ 0
D_P
$Comp
L Device:Crystal_GND24 Y1
U 1 1 5ED2B04D
P 6150 1850
F 0 "Y1" V 6196 2094 50  0000 L CNN
F 1 "Crystal_GND24" V 5900 1500 50  0000 L CNN
F 2 "crystal:1041612" H 6150 1850 50  0001 C CNN
F 3 "~" H 6150 1850 50  0001 C CNN
	1    6150 1850
	0    1    -1   0   
$EndComp
Wire Wire Line
	6350 1850 6350 2250
Wire Wire Line
	6350 2250 5950 2250
Wire Wire Line
	5950 2250 5950 1850
Wire Wire Line
	6150 2000 6150 2450
$Comp
L SATAtoUSB3-rescue:GND-Power #PWR0101
U 1 1 5ED52EE3
P 5200 2700
F 0 "#PWR0101" H 5200 2450 50  0001 C CNN
F 1 "GND" H 5200 2527 50  0000 C CNN
F 2 "" H 5000 2850 50  0001 C CNN
F 3 "" H 5000 2850 50  0001 C CNN
	1    5200 2700
	1    0    0    1   
$EndComp
Text GLabel 4900 1450 1    50   Input ~ 0
AVDDL
Wire Wire Line
	4600 1550 4900 1550
Connection ~ 4900 1550
Wire Wire Line
	4900 1550 4900 1450
Wire Wire Line
	4400 2800 4400 2150
Text GLabel 4800 2150 1    50   Input ~ 0
SRX_P
Text GLabel 4700 2150 1    50   Input ~ 0
SRX_N
Text GLabel 4500 2150 1    50   Input ~ 0
STX_N
Text GLabel 4400 2150 1    50   Input ~ 0
STX_P
Wire Wire Line
	5800 1700 5800 1500
Connection ~ 5800 1700
Wire Wire Line
	5800 1700 6150 1700
Wire Wire Line
	5800 2450 5800 2650
Connection ~ 5800 2450
Wire Wire Line
	5800 2450 6150 2450
Wire Wire Line
	5000 1700 5800 1700
Wire Wire Line
	5100 2450 5800 2450
$Comp
L Device:C_Small C11
U 1 1 5ED649F7
P 5800 2750
F 0 "C11" H 5892 2796 50  0000 L CNN
F 1 "20pF" H 5892 2705 50  0000 L CNN
F 2 "Capacitors_SMD:C_0805" H 5800 2750 50  0001 C CNN
F 3 "~" H 5800 2750 50  0001 C CNN
	1    5800 2750
	1    0    0    -1  
$EndComp
$Comp
L Device:C_Small C10
U 1 1 5ED65EDA
P 5800 1400
F 0 "C10" H 5892 1446 50  0000 L CNN
F 1 "20pF" H 5892 1355 50  0000 L CNN
F 2 "Capacitors_SMD:C_0805" H 5800 1400 50  0001 C CNN
F 3 "~" H 5800 1400 50  0001 C CNN
	1    5800 1400
	1    0    0    -1  
$EndComp
Wire Wire Line
	4200 2800 4200 2500
$Comp
L Device:R_Small R4
U 1 1 5ED6E614
P 4200 2400
F 0 "R4" H 4259 2446 50  0000 L CNN
F 1 "12k" H 4259 2355 50  0000 L CNN
F 2 "Resistors_SMD:R_0805" H 4200 2400 50  0001 C CNN
F 3 "~" H 4200 2400 50  0001 C CNN
	1    4200 2400
	1    0    0    -1  
$EndComp
Wire Wire Line
	4200 2300 4200 1550
Wire Wire Line
	2900 1350 2900 1700
Text GLabel 2900 1350 1    50   Input ~ 0
LED-ACT
$Comp
L Device:LED D1
U 1 1 5ED70EBA
P 2900 2000
F 0 "D1" V 2939 2078 50  0000 L CNN
F 1 "LED" V 2848 2078 50  0000 L CNN
F 2 "LEDs:LED_1206" H 2900 2000 50  0001 C CNN
F 3 "~" H 2900 2000 50  0001 C CNN
	1    2900 2000
	0    1    -1   0   
$EndComp
$Comp
L Device:R_Small R2
U 1 1 5ED73057
P 2900 2500
F 0 "R2" H 2959 2546 50  0000 L CNN
F 1 "1k" H 2959 2455 50  0000 L CNN
F 2 "Resistors_SMD:R_0805" H 2900 2500 50  0001 C CNN
F 3 "~" H 2900 2500 50  0001 C CNN
	1    2900 2500
	1    0    0    -1  
$EndComp
$Comp
L Device:C_Small C6
U 1 1 5ED75876
P 2300 2300
F 0 "C6" H 2392 2346 50  0000 L CNN
F 1 "0,1uF" H 2392 2255 50  0000 L CNN
F 2 "Capacitors_SMD:C_0805" H 2300 2300 50  0001 C CNN
F 3 "~" H 2300 2300 50  0001 C CNN
	1    2300 2300
	1    0    0    -1  
$EndComp
Wire Wire Line
	1850 2400 1850 2600
$Comp
L Device:C_Small C4
U 1 1 5ED7794E
P 1850 2300
F 0 "C4" H 1942 2346 50  0000 L CNN
F 1 "0,1uF" H 1942 2255 50  0000 L CNN
F 2 "Capacitors_SMD:C_0805" H 1850 2300 50  0001 C CNN
F 3 "~" H 1850 2300 50  0001 C CNN
	1    1850 2300
	1    0    0    -1  
$EndComp
Wire Wire Line
	1400 2400 1400 2600
$Comp
L Device:C_Small C2
U 1 1 5ED7A410
P 1400 2300
F 0 "C2" H 1492 2346 50  0000 L CNN
F 1 "0,1uF" H 1492 2255 50  0000 L CNN
F 2 "Capacitors_SMD:C_0805" H 1400 2300 50  0001 C CNN
F 3 "~" H 1400 2300 50  0001 C CNN
	1    1400 2300
	1    0    0    -1  
$EndComp
Wire Wire Line
	1400 1300 1400 1500
$Comp
L Device:C_Small C1
U 1 1 5ED7BDBE
P 1400 1200
F 0 "C1" H 1492 1246 50  0000 L CNN
F 1 "0,1uF" H 1492 1155 50  0000 L CNN
F 2 "Capacitors_SMD:C_0805" H 1400 1200 50  0001 C CNN
F 3 "~" H 1400 1200 50  0001 C CNN
	1    1400 1200
	1    0    0    -1  
$EndComp
Wire Wire Line
	1850 1300 1850 1500
$Comp
L Device:C_Small C3
U 1 1 5ED7D1A5
P 1850 1200
F 0 "C3" H 1942 1246 50  0000 L CNN
F 1 "0,1uF" H 1942 1155 50  0000 L CNN
F 2 "Capacitors_SMD:C_0805" H 1850 1200 50  0001 C CNN
F 3 "~" H 1850 1200 50  0001 C CNN
	1    1850 1200
	1    0    0    -1  
$EndComp
Text GLabel 1400 1100 1    50   Input ~ 0
AVDDL
Text GLabel 1850 1100 1    50   Input ~ 0
AVDDL
Text GLabel 1400 2200 1    50   Input ~ 0
VCCO
Text GLabel 1850 2200 1    50   Input ~ 0
VCCO
Text GLabel 2300 2200 1    50   Input ~ 0
VCCK
NoConn ~ 3700 3300
Wire Wire Line
	3700 3400 2500 3400
$Comp
L Device:C_Small C7
U 1 1 5ED85CC1
P 2500 3500
F 0 "C7" H 2592 3546 50  0000 L CNN
F 1 "1uF" H 2592 3455 50  0000 L CNN
F 2 "Capacitors_SMD:C_0805" H 2500 3500 50  0001 C CNN
F 3 "~" H 2500 3500 50  0001 C CNN
	1    2500 3500
	1    0    0    -1  
$EndComp
$Comp
L Device:R_Small R1
U 1 1 5ED863DD
P 2500 3300
F 0 "R1" H 2559 3346 50  0000 L CNN
F 1 "330k" H 2559 3255 50  0000 L CNN
F 2 "Resistors_SMD:R_0805" H 2500 3300 50  0001 C CNN
F 3 "~" H 2500 3300 50  0001 C CNN
	1    2500 3300
	1    0    0    -1  
$EndComp
Connection ~ 2500 3400
Text GLabel 2500 3200 1    50   Input ~ 0
VCCO
Wire Wire Line
	2300 2400 2300 2600
$Comp
L power:GND #PWR0102
U 1 1 5ED8EE31
P 2300 2600
F 0 "#PWR0102" H 2300 2350 50  0001 C CNN
F 1 "GND" H 2305 2427 50  0000 C CNN
F 2 "" H 2300 2600 50  0001 C CNN
F 3 "" H 2300 2600 50  0001 C CNN
	1    2300 2600
	1    0    0    -1  
$EndComp
$Comp
L power:GND #PWR0103
U 1 1 5ED911BF
P 1850 2600
F 0 "#PWR0103" H 1850 2350 50  0001 C CNN
F 1 "GND" H 1855 2427 50  0000 C CNN
F 2 "" H 1850 2600 50  0001 C CNN
F 3 "" H 1850 2600 50  0001 C CNN
	1    1850 2600
	1    0    0    -1  
$EndComp
$Comp
L power:GND #PWR0104
U 1 1 5ED92535
P 1400 2600
F 0 "#PWR0104" H 1400 2350 50  0001 C CNN
F 1 "GND" H 1405 2427 50  0000 C CNN
F 2 "" H 1400 2600 50  0001 C CNN
F 3 "" H 1400 2600 50  0001 C CNN
	1    1400 2600
	1    0    0    -1  
$EndComp
$Comp
L power:GND #PWR0105
U 1 1 5ED95CD7
P 1400 1500
F 0 "#PWR0105" H 1400 1250 50  0001 C CNN
F 1 "GND" H 1405 1327 50  0000 C CNN
F 2 "" H 1400 1500 50  0001 C CNN
F 3 "" H 1400 1500 50  0001 C CNN
	1    1400 1500
	1    0    0    -1  
$EndComp
$Comp
L power:GND #PWR0106
U 1 1 5ED97090
P 1850 1500
F 0 "#PWR0106" H 1850 1250 50  0001 C CNN
F 1 "GND" H 1855 1327 50  0000 C CNN
F 2 "" H 1850 1500 50  0001 C CNN
F 3 "" H 1850 1500 50  0001 C CNN
	1    1850 1500
	1    0    0    -1  
$EndComp
$Comp
L power:GND #PWR0107
U 1 1 5ED9AC3F
P 2900 2750
F 0 "#PWR0107" H 2900 2500 50  0001 C CNN
F 1 "GND" H 2905 2577 50  0000 C CNN
F 2 "" H 2900 2750 50  0001 C CNN
F 3 "" H 2900 2750 50  0001 C CNN
	1    2900 2750
	1    0    0    -1  
$EndComp
$Comp
L power:GND #PWR0108
U 1 1 5ED9E031
P 4200 1550
F 0 "#PWR0108" H 4200 1300 50  0001 C CNN
F 1 "GND" H 4205 1377 50  0000 C CNN
F 2 "" H 4200 1550 50  0001 C CNN
F 3 "" H 4200 1550 50  0001 C CNN
	1    4200 1550
	1    0    0    1   
$EndComp
Wire Wire Line
	6050 3300 6050 3200
Wire Wire Line
	5200 2700 5200 2800
Wire Wire Line
	5100 2800 5100 2450
Wire Wire Line
	5000 1700 5000 2800
Wire Wire Line
	4900 2800 4900 1550
Wire Wire Line
	4800 2800 4800 2150
Wire Wire Line
	4700 2800 4700 2150
Wire Wire Line
	4600 2800 4600 1550
Wire Wire Line
	4500 2800 4500 2150
Wire Wire Line
	6050 3600 6050 3300
Wire Wire Line
	6050 3900 6050 3600
$Comp
L JMS578:JMS578QFN48 U2
U 1 1 5ED1382A
P 4750 3000
F 0 "U2" H 4950 2600 50  0000 L CNN
F 1 "JMS578QFN48" H 4500 2200 50  0000 L CNN
F 2 "SATAtoUSB3:JMS578" H 4750 3275 50  0001 C CNN
F 3 "" H 4750 3275 50  0001 C CNN
	1    4750 3000
	1    0    0    -1  
$EndComp
$Comp
L power:GND #PWR0109
U 1 1 5EDA5DE2
P 5800 2850
F 0 "#PWR0109" H 5800 2600 50  0001 C CNN
F 1 "GND" H 5805 2677 50  0000 C CNN
F 2 "" H 5800 2850 50  0001 C CNN
F 3 "" H 5800 2850 50  0001 C CNN
	1    5800 2850
	1    0    0    -1  
$EndComp
$Comp
L power:GND #PWR0110
U 1 1 5EDA96CF
P 6750 4700
F 0 "#PWR0110" H 6750 4450 50  0001 C CNN
F 1 "GND" H 6755 4527 50  0000 C CNN
F 2 "" H 6750 4700 50  0001 C CNN
F 3 "" H 6750 4700 50  0001 C CNN
	1    6750 4700
	1    0    0    -1  
$EndComp
$Comp
L power:GND #PWR0111
U 1 1 5EDAE619
P 3650 5150
F 0 "#PWR0111" H 3650 4900 50  0001 C CNN
F 1 "GND" V 3655 5022 50  0000 R CNN
F 2 "" H 3650 5150 50  0001 C CNN
F 3 "" H 3650 5150 50  0001 C CNN
	1    3650 5150
	0    1    1    0   
$EndComp
$Comp
L power:GND #PWR0112
U 1 1 5EDB34EE
P 2500 3600
F 0 "#PWR0112" H 2500 3350 50  0001 C CNN
F 1 "GND" H 2505 3427 50  0000 C CNN
F 2 "" H 2500 3600 50  0001 C CNN
F 3 "" H 2500 3600 50  0001 C CNN
	1    2500 3600
	1    0    0    -1  
$EndComp
$Comp
L power:GND #PWR0113
U 1 1 5EDBA1FC
P 5800 1300
F 0 "#PWR0113" H 5800 1050 50  0001 C CNN
F 1 "GND" H 5805 1127 50  0000 C CNN
F 2 "" H 5800 1300 50  0001 C CNN
F 3 "" H 5800 1300 50  0001 C CNN
	1    5800 1300
	1    0    0    1   
$EndComp
Text GLabel 3700 3500 0    50   Input ~ 0
VCCO
Text GLabel 3700 3600 0    50   Input ~ 0
VCCK
NoConn ~ 3700 3700
Wire Wire Line
	3700 3800 3600 3800
Wire Wire Line
	3600 3800 3600 3900
Wire Wire Line
	3600 3900 3700 3900
Wire Wire Line
	3600 3900 3600 4600
Wire Wire Line
	3600 4600 3700 4600
Connection ~ 3600 3900
Wire Wire Line
	3600 4600 3600 4750
Connection ~ 3600 4600
$Comp
L power:GND #PWR0114
U 1 1 5EDC8EE0
P 3600 4750
F 0 "#PWR0114" H 3600 4500 50  0001 C CNN
F 1 "GND" H 3605 4577 50  0000 C CNN
F 2 "" H 3600 4750 50  0001 C CNN
F 3 "" H 3600 4750 50  0001 C CNN
	1    3600 4750
	1    0    0    -1  
$EndComp
Wire Wire Line
	3700 4000 3200 4000
$Comp
L pspice:INDUCTOR L1
U 1 1 5EDCC997
P 2950 4000
F 0 "L1" H 2950 4215 50  0000 C CNN
F 1 "4,7 uH" H 2950 4124 50  0000 C CNN
F 2 "Inductors:Inductor_Taiyo-Yuden_NR-40xx" H 2950 4000 50  0001 C CNN
F 3 "~" H 2950 4000 50  0001 C CNN
	1    2950 4000
	1    0    0    -1  
$EndComp
Wire Wire Line
	2700 4000 2250 4000
Wire Wire Line
	2250 4000 2250 4100
Connection ~ 2250 4000
Wire Wire Line
	2250 4000 2000 4000
$Comp
L Device:C_Small C5
U 1 1 5EDD00DC
P 2250 4200
F 0 "C5" H 2342 4246 50  0000 L CNN
F 1 "10uF" H 2342 4155 50  0000 L CNN
F 2 "Capacitors_SMD:C_0805" H 2250 4200 50  0001 C CNN
F 3 "~" H 2250 4200 50  0001 C CNN
	1    2250 4200
	1    0    0    -1  
$EndComp
$Comp
L power:GND #PWR0115
U 1 1 5EDD21B1
P 2250 4300
F 0 "#PWR0115" H 2250 4050 50  0001 C CNN
F 1 "GND" H 2255 4127 50  0000 C CNN
F 2 "" H 2250 4300 50  0001 C CNN
F 3 "" H 2250 4300 50  0001 C CNN
	1    2250 4300
	1    0    0    -1  
$EndComp
Text GLabel 2000 4000 0    50   Input ~ 0
1V2
$Comp
L Device:C_Small C8
U 1 1 5EDD82DB
P 3150 4200
F 0 "C8" H 2950 4150 50  0000 L CNN
F 1 "10uF" H 3200 4150 50  0000 L CNN
F 2 "Capacitors_SMD:C_0805" H 3150 4200 50  0001 C CNN
F 3 "~" H 3150 4200 50  0001 C CNN
	1    3150 4200
	1    0    0    -1  
$EndComp
$Comp
L power:GND #PWR0116
U 1 1 5EDD9776
P 3150 4300
F 0 "#PWR0116" H 3150 4050 50  0001 C CNN
F 1 "GND" H 3155 4127 50  0000 C CNN
F 2 "" H 3150 4300 50  0001 C CNN
F 3 "" H 3150 4300 50  0001 C CNN
	1    3150 4300
	1    0    0    -1  
$EndComp
Wire Wire Line
	3150 4100 3000 4100
Connection ~ 3150 4100
Text GLabel 3000 4100 0    50   Input ~ 0
USB_P5V0
NoConn ~ 3700 4400
Wire Wire Line
	2000 6450 1650 6450
Wire Wire Line
	2000 6600 1650 6600
Wire Wire Line
	2000 6750 1650 6750
Wire Wire Line
	2000 6900 1700 6900
Wire Wire Line
	1700 6900 1700 7200
$Comp
L power:GND #PWR0117
U 1 1 5EDF49E5
P 1700 7200
F 0 "#PWR0117" H 1700 6950 50  0001 C CNN
F 1 "GND" H 1705 7027 50  0000 C CNN
F 2 "" H 1700 7200 50  0001 C CNN
F 3 "" H 1700 7200 50  0001 C CNN
	1    1700 7200
	1    0    0    -1  
$EndComp
$Comp
L power:GND #PWR0118
U 1 1 5EDF6A09
P 4000 7250
F 0 "#PWR0118" H 4000 7000 50  0001 C CNN
F 1 "GND" H 4005 7077 50  0000 C CNN
F 2 "" H 4000 7250 50  0001 C CNN
F 3 "" H 4000 7250 50  0001 C CNN
	1    4000 7250
	1    0    0    -1  
$EndComp
Wire Wire Line
	3000 6450 4000 6450
Wire Wire Line
	4000 6450 4000 6600
Wire Wire Line
	3000 6600 4000 6600
Wire Wire Line
	4000 6450 4000 6350
Connection ~ 4000 6450
Text GLabel 4000 6350 1    50   Input ~ 0
VCCO
Wire Wire Line
	4000 6600 4000 6800
Connection ~ 4000 6600
$Comp
L Device:C_Small C9
U 1 1 5EE03B20
P 4000 6900
F 0 "C9" H 4092 6946 50  0000 L CNN
F 1 "0,1uF" H 4092 6855 50  0000 L CNN
F 2 "Capacitors_SMD:C_0805" H 4000 6900 50  0001 C CNN
F 3 "~" H 4000 6900 50  0001 C CNN
	1    4000 6900
	1    0    0    -1  
$EndComp
Wire Wire Line
	4000 7000 4000 7250
Wire Wire Line
	3000 6750 3450 6750
Wire Wire Line
	3000 6900 3450 6900
Text GLabel 3450 6750 2    50   Input ~ 0
P_SPI_CK
Text GLabel 3450 6900 2    50   Input ~ 0
P_SPI_DO
Text GLabel 1650 6750 0    50   Input ~ 0
VCCO
Text GLabel 1650 6600 0    50   Input ~ 0
P_SPI_DI
Text GLabel 1650 6450 0    50   Input ~ 0
P_SPI_CZ
Wire Wire Line
	9100 3950 8750 3950
Wire Wire Line
	8750 3950 8300 3950
Connection ~ 8750 3950
Wire Wire Line
	8300 3950 8200 3950
Connection ~ 8300 3950
$Comp
L Device:C_Small C22
U 1 1 5ED35ED1
P 8750 3600
F 0 "C22" H 8550 3600 50  0000 L CNN
F 1 "10uF" H 8850 3600 50  0000 L CNN
F 2 "Capacitors_SMD:C_0805" H 8750 3600 50  0001 C CNN
F 3 "~" H 8750 3600 50  0001 C CNN
	1    8750 3600
	1    0    0    -1  
$EndComp
$Comp
L power:GND #PWR0119
U 1 1 5ED38999
P 8750 3500
F 0 "#PWR0119" H 8750 3250 50  0001 C CNN
F 1 "GND" H 8755 3327 50  0000 C CNN
F 2 "" H 8750 3500 50  0001 C CNN
F 3 "" H 8750 3500 50  0001 C CNN
	1    8750 3500
	1    0    0    1   
$EndComp
Text GLabel 8300 3600 1    50   Input ~ 0
USB_P5V0
$Comp
L Device:R_Small R6
U 1 1 5ED3B898
P 8100 3950
F 0 "R6" V 7904 3950 50  0000 C CNN
F 1 "100k" V 7995 3950 50  0000 C CNN
F 2 "Resistors_SMD:R_0805" H 8100 3950 50  0001 C CNN
F 3 "~" H 8100 3950 50  0001 C CNN
	1    8100 3950
	0    1    1    0   
$EndComp
$Comp
L Device:R_Small R5
U 1 1 5ED417F9
P 7900 3600
F 0 "R5" H 7959 3646 50  0000 L CNN
F 1 "150k" H 7959 3555 50  0000 L CNN
F 2 "Resistors_SMD:R_0805" H 7900 3600 50  0001 C CNN
F 3 "~" H 7900 3600 50  0001 C CNN
	1    7900 3600
	1    0    0    -1  
$EndComp
Wire Wire Line
	8750 3700 8750 3950
$Comp
L power:GND #PWR0120
U 1 1 5ED4F540
P 7900 3500
F 0 "#PWR0120" H 7900 3250 50  0001 C CNN
F 1 "GND" H 7905 3327 50  0000 C CNN
F 2 "" H 7900 3500 50  0001 C CNN
F 3 "" H 7900 3500 50  0001 C CNN
	1    7900 3500
	1    0    0    1   
$EndComp
Text GLabel 7700 3950 0    50   Input ~ 0
VBUS_DET
Wire Wire Line
	9400 4200 7700 4200
Wire Wire Line
	7700 4300 9400 4300
Text GLabel 7700 4200 0    50   Input ~ 0
D_N
Text GLabel 7700 4300 0    50   Input ~ 0
D_N
Wire Wire Line
	9400 4400 7700 4400
Wire Wire Line
	9400 4500 7700 4500
Text GLabel 7700 4400 0    50   Input ~ 0
D_P
Text GLabel 7700 4500 0    50   Input ~ 0
D_P
Wire Wire Line
	9400 4800 7700 4800
Wire Wire Line
	9400 5400 7700 5400
Wire Wire Line
	9400 4700 7700 4700
Wire Wire Line
	9400 5300 7700 5300
Text GLabel 7700 5300 0    50   Input ~ 0
SSRX_N
Text GLabel 7700 4700 0    50   Input ~ 0
SSRX_N
Wire Wire Line
	8850 5000 9400 5000
Wire Wire Line
	9400 5600 8850 5600
Text GLabel 8850 5000 0    50   Input ~ 0
TX_N
Text GLabel 8850 5600 0    50   Input ~ 0
TX_N
Text GLabel 8400 6000 2    50   Input ~ 0
TX_N
Wire Wire Line
	8050 6000 8400 6000
$Comp
L Device:C_Small C17
U 1 1 5ED9BD91
P 7950 6000
F 0 "C17" V 7721 6000 50  0000 C CNN
F 1 "0,1uF" V 7812 6000 50  0000 C CNN
F 2 "Capacitors_SMD:C_0805" H 7950 6000 50  0001 C CNN
F 3 "~" H 7950 6000 50  0001 C CNN
	1    7950 6000
	0    1    1    0   
$EndComp
Wire Wire Line
	7850 6000 7450 6000
Text GLabel 7450 6000 0    50   Input ~ 0
SSTX_N
Wire Wire Line
	9400 5100 8450 5100
Wire Wire Line
	9400 5700 8450 5700
Text GLabel 8450 5100 0    50   Input ~ 0
TX_P
Text GLabel 8450 5700 0    50   Input ~ 0
TX_P
Text GLabel 8400 6350 2    50   Input ~ 0
TX_P
Wire Wire Line
	8400 6350 8050 6350
$Comp
L Device:C_Small C18
U 1 1 5EDAB4D6
P 7950 6350
F 0 "C18" V 7721 6350 50  0000 C CNN
F 1 "0,1uF" V 7812 6350 50  0000 C CNN
F 2 "Capacitors_SMD:C_0805" H 7950 6350 50  0001 C CNN
F 3 "~" H 7950 6350 50  0001 C CNN
	1    7950 6350
	0    1    1    0   
$EndComp
Wire Wire Line
	7850 6350 7450 6350
Text GLabel 7450 6350 0    50   Input ~ 0
SSTX_P
NoConn ~ 9400 3900
NoConn ~ 9400 4000
NoConn ~ 9400 5900
NoConn ~ 9400 6000
$Comp
L SATA_877011001:CON_SATA_877011001 J4
U 1 1 5EDE3097
P 10050 1700
F 0 "J4" H 10378 1671 50  0000 L CNN
F 1 "CON_SATA_877011001" H 10378 1580 50  0000 L CNN
F 2 "SATAtoUSB3:Molex_SATA_877011001" H 9800 1700 50  0001 C CNN
F 3 "~" H 9800 1700 50  0000 C CNN
	1    10050 1700
	1    0    0    -1  
$EndComp
Wire Wire Line
	8300 3950 8300 3600
Wire Wire Line
	7900 3700 7900 3950
Wire Wire Line
	7900 3950 8000 3950
Wire Wire Line
	9600 950  9450 950 
Wire Wire Line
	9450 950  9450 1150
Wire Wire Line
	9450 1150 9600 1150
Wire Wire Line
	9450 1150 9450 1550
Wire Wire Line
	9450 1550 9600 1550
Connection ~ 9450 1150
Wire Wire Line
	9450 1550 9450 1650
Wire Wire Line
	9450 1650 9600 1650
Connection ~ 9450 1550
Wire Wire Line
	9450 1650 9450 1750
Wire Wire Line
	9450 1750 9600 1750
Connection ~ 9450 1650
Wire Wire Line
	9450 1750 9450 2400
Wire Wire Line
	9450 2400 9600 2400
Connection ~ 9450 1750
Wire Wire Line
	9450 2400 9450 2700
Wire Wire Line
	9450 2700 9600 2700
Connection ~ 9450 2400
Wire Wire Line
	9450 2700 9450 3000
Wire Wire Line
	9450 3000 9600 3000
Connection ~ 9450 2700
Wire Wire Line
	9450 3000 9450 3200
Connection ~ 9450 3000
Wire Wire Line
	6350 2250 6350 2300
Connection ~ 6350 2250
$Comp
L power:GND #PWR0121
U 1 1 5EE57810
P 6350 2300
F 0 "#PWR0121" H 6350 2050 50  0001 C CNN
F 1 "GND" H 6355 2127 50  0000 C CNN
F 2 "" H 6350 2300 50  0001 C CNN
F 3 "" H 6350 2300 50  0001 C CNN
	1    6350 2300
	1    0    0    -1  
$EndComp
$Comp
L power:GND #PWR0122
U 1 1 5EE5D22E
P 9450 3200
F 0 "#PWR0122" H 9450 2950 50  0001 C CNN
F 1 "GND" H 9455 3027 50  0000 C CNN
F 2 "" H 9450 3200 50  0001 C CNN
F 3 "" H 9450 3200 50  0001 C CNN
	1    9450 3200
	1    0    0    -1  
$EndComp
Wire Wire Line
	9100 3950 9100 3700
Wire Wire Line
	9100 3700 9400 3700
Wire Wire Line
	7700 3950 7900 3950
Connection ~ 7900 3950
Wire Wire Line
	9600 2900 9150 2900
Wire Wire Line
	9600 2800 9150 2800
$Comp
L Device:C_Small C20
U 1 1 5ED32944
P 8150 2900
F 0 "C20" V 8100 2800 50  0000 C CNN
F 1 "10nF" V 8100 3050 50  0000 C CNN
F 2 "Capacitors_SMD:C_0805" H 8150 2900 50  0001 C CNN
F 3 "~" H 8150 2900 50  0001 C CNN
	1    8150 2900
	0    1    1    0   
$EndComp
$Comp
L Device:C_Small C16
U 1 1 5ED34431
P 7750 2800
F 0 "C16" V 7700 2700 50  0000 C CNN
F 1 "10nF" V 7700 2950 50  0000 C CNN
F 2 "Capacitors_SMD:C_0805" H 7750 2800 50  0001 C CNN
F 3 "~" H 7750 2800 50  0001 C CNN
	1    7750 2800
	0    1    1    0   
$EndComp
Wire Wire Line
	7650 2800 7150 2800
Wire Wire Line
	7150 2900 8050 2900
Text GLabel 7150 2900 0    50   Input ~ 0
STX_P
Text GLabel 7150 2800 0    50   Input ~ 0
STX_N
Wire Wire Line
	9600 2600 8650 2600
$Comp
L Device:C_Small C19
U 1 1 5ED4924C
P 8150 2600
F 0 "C19" V 8100 2500 50  0000 C CNN
F 1 "10nF" V 8100 2750 50  0000 C CNN
F 2 "Capacitors_SMD:C_0805" H 8150 2600 50  0001 C CNN
F 3 "~" H 8150 2600 50  0001 C CNN
	1    8150 2600
	0    1    1    0   
$EndComp
Wire Wire Line
	9600 2500 8650 2500
$Comp
L Device:C_Small C15
U 1 1 5ED52AF7
P 7750 2500
F 0 "C15" V 7700 2400 50  0000 C CNN
F 1 "10nF" V 7700 2650 50  0000 C CNN
F 2 "Capacitors_SMD:C_0805" H 7750 2500 50  0001 C CNN
F 3 "~" H 7750 2500 50  0001 C CNN
	1    7750 2500
	0    1    1    0   
$EndComp
Wire Wire Line
	7650 2500 7150 2500
Wire Wire Line
	7150 2600 8050 2600
Text GLabel 7150 2500 0    50   Input ~ 0
SRX_P
Text GLabel 7150 2600 0    50   Input ~ 0
SRX_N
NoConn ~ 9600 1850
NoConn ~ 9600 1950
NoConn ~ 9600 2050
NoConn ~ 9600 650 
NoConn ~ 9600 750 
NoConn ~ 9600 850 
Wire Wire Line
	9600 1050 8900 1050
$Comp
L Device:R_Small R7
U 1 1 5ED849DC
P 8800 1050
F 0 "R7" V 8604 1050 50  0000 C CNN
F 1 "10k" V 8695 1050 50  0000 C CNN
F 2 "Resistors_SMD:R_0805" H 8800 1050 50  0001 C CNN
F 3 "~" H 8800 1050 50  0001 C CNN
	1    8800 1050
	0    1    1    0   
$EndComp
Wire Wire Line
	8700 1050 8400 1050
$Comp
L power:GND #PWR0123
U 1 1 5ED8D13F
P 8400 1050
F 0 "#PWR0123" H 8400 800 50  0001 C CNN
F 1 "GND" H 8405 877 50  0000 C CNN
F 2 "" H 8400 1050 50  0001 C CNN
F 3 "" H 8400 1050 50  0001 C CNN
	1    8400 1050
	0    1    -1   0   
$EndComp
Wire Wire Line
	9600 1250 8200 1250
Wire Wire Line
	8200 1350 9600 1350
Wire Wire Line
	9600 1450 8200 1450
Wire Wire Line
	8200 1450 8200 1350
Connection ~ 8200 1350
Wire Wire Line
	8200 1350 8200 1250
Wire Wire Line
	8200 1450 8200 1550
Connection ~ 8200 1450
$Comp
L Device:C_Small C21
U 1 1 5EDC5200
P 8200 1650
F 0 "C21" H 8292 1696 50  0000 L CNN
F 1 "10uF" H 8292 1605 50  0000 L CNN
F 2 "Capacitors_SMD:C_0805" H 8200 1650 50  0001 C CNN
F 3 "~" H 8200 1650 50  0001 C CNN
	1    8200 1650
	1    0    0    -1  
$EndComp
$Comp
L power:GND #PWR0124
U 1 1 5EDCC56E
P 8200 1750
F 0 "#PWR0124" H 8200 1500 50  0001 C CNN
F 1 "GND" H 8205 1577 50  0000 C CNN
F 2 "" H 8200 1750 50  0001 C CNN
F 3 "" H 8200 1750 50  0001 C CNN
	1    8200 1750
	1    0    0    -1  
$EndComp
Wire Wire Line
	8200 1250 7700 1250
Wire Wire Line
	7700 1250 7700 1450
Connection ~ 8200 1250
Wire Wire Line
	7700 1250 7200 1250
Wire Wire Line
	7200 1250 7200 1450
Connection ~ 7700 1250
$Comp
L Device:C_Small C14
U 1 1 5EDDED23
P 7700 1550
F 0 "C14" H 7792 1596 50  0000 L CNN
F 1 "100uF" H 7792 1505 50  0000 L CNN
F 2 "Capacitors_SMD:C_1206" H 7700 1550 50  0001 C CNN
F 3 "~" H 7700 1550 50  0001 C CNN
	1    7700 1550
	1    0    0    -1  
$EndComp
$Comp
L power:GND #PWR0125
U 1 1 5EDDED29
P 7700 1650
F 0 "#PWR0125" H 7700 1400 50  0001 C CNN
F 1 "GND" H 7705 1477 50  0000 C CNN
F 2 "" H 7700 1650 50  0001 C CNN
F 3 "" H 7700 1650 50  0001 C CNN
	1    7700 1650
	1    0    0    -1  
$EndComp
$Comp
L Device:C_Small C13
U 1 1 5EDE488A
P 7200 1550
F 0 "C13" H 7292 1596 50  0000 L CNN
F 1 "100uF" H 7292 1505 50  0000 L CNN
F 2 "Capacitors_SMD:C_1206" H 7200 1550 50  0001 C CNN
F 3 "~" H 7200 1550 50  0001 C CNN
	1    7200 1550
	1    0    0    -1  
$EndComp
$Comp
L power:GND #PWR0126
U 1 1 5EDE4890
P 7200 1650
F 0 "#PWR0126" H 7200 1400 50  0001 C CNN
F 1 "GND" H 7205 1477 50  0000 C CNN
F 2 "" H 7200 1650 50  0001 C CNN
F 3 "" H 7200 1650 50  0001 C CNN
	1    7200 1650
	1    0    0    -1  
$EndComp
$Comp
L power:GND #PWR0127
U 1 1 5EDC0BBF
P 10300 6300
F 0 "#PWR0127" H 10300 6050 50  0001 C CNN
F 1 "GND" H 10305 6127 50  0000 C CNN
F 2 "" H 10300 6300 50  0001 C CNN
F 3 "" H 10300 6300 50  0001 C CNN
	1    10300 6300
	1    0    0    -1  
$EndComp
$Comp
L power:GND #PWR0128
U 1 1 5EDEE486
P 10000 6300
F 0 "#PWR0128" H 10000 6050 50  0001 C CNN
F 1 "GND" H 10005 6127 50  0000 C CNN
F 2 "" H 10000 6300 50  0001 C CNN
F 3 "" H 10000 6300 50  0001 C CNN
	1    10000 6300
	1    0    0    -1  
$EndComp
$Comp
L MX25:MX25L512EMI10G U1
U 1 1 5ED10E3D
P 2500 6550
F 0 "U1" H 2500 6915 50  0000 C CNN
F 1 "MX25L512EMI10G" H 2500 6824 50  0000 C CNN
F 2 "Housings_SOIC:SOIC-8_3.9x4.9mm_Pitch1.27mm" H 2500 6850 50  0001 C CNN
F 3 "" H 2500 6850 50  0001 C CNN
	1    2500 6550
	1    0    0    -1  
$EndComp
$Comp
L SATAtoUSB3-rescue:USB_C_Receptacle-Connector J3
U 1 1 5EE0EFE1
P 10000 4700
F 0 "J3" H 9570 4489 50  0000 R CNN
F 1 "USB_C_Receptacle" H 9570 4398 50  0000 R CNN
F 2 "USBC_2012670005:2012670005" H 10150 4700 50  0001 C CNN
F 3 "https://www.usb.org/sites/default/files/documents/usb_type-c.zip" H 10150 4700 50  0001 C CNN
	1    10000 4700
	-1   0    0    -1  
$EndComp
Text GLabel 6150 3400 2    50   Input ~ 0
SSRX_P
Text GLabel 7700 4800 0    50   Input ~ 0
SSRX_P
Text GLabel 7700 5400 0    50   Input ~ 0
SSRX_P
Wire Wire Line
	5750 3400 6150 3400
Wire Wire Line
	7200 1250 7200 1100
Connection ~ 7200 1250
Text GLabel 7200 1100 1    50   Input ~ 0
USB_P5V0
$Comp
L Connector_Generic:Conn_01x02 J2
U 1 1 5ED9BF65
P 3400 2250
F 0 "J2" H 3350 2400 50  0000 L CNN
F 1 "Conn_01x02" V 3550 1950 50  0000 L CNN
F 2 "Pin_Headers:Pin_Header_Straight_1x02_Pitch2.54mm" H 3400 2250 50  0001 C CNN
F 3 "~" H 3400 2250 50  0001 C CNN
	1    3400 2250
	1    0    0    1   
$EndComp
Wire Wire Line
	3200 1700 2900 1700
Connection ~ 2900 1700
Wire Wire Line
	2900 1700 2900 1850
Wire Wire Line
	2900 2750 2900 2700
Wire Wire Line
	2900 2150 2900 2400
Wire Wire Line
	2900 2700 3200 2700
Connection ~ 2900 2700
Wire Wire Line
	2900 2700 2900 2600
Wire Wire Line
	3200 2250 3200 2700
Wire Wire Line
	3200 1700 3200 2150
$Comp
L Connector_Generic:Conn_01x02 J1
U 1 1 5EDF478E
P 2150 5200
F 0 "J1" H 2100 5350 50  0000 L CNN
F 1 "Conn_01x02" V 2300 4900 50  0000 L CNN
F 2 "Pin_Headers:Pin_Header_Straight_1x02_Pitch2.54mm" H 2150 5200 50  0001 C CNN
F 3 "~" H 2150 5200 50  0001 C CNN
	1    2150 5200
	0    1    -1   0   
$EndComp
Wire Wire Line
	2150 5400 2150 5600
Wire Wire Line
	2150 5600 2550 5600
$Comp
L power:GND #PWR0129
U 1 1 5EE0989A
P 2550 5600
F 0 "#PWR0129" H 2550 5350 50  0001 C CNN
F 1 "GND" H 2555 5427 50  0000 C CNN
F 2 "" H 2550 5600 50  0001 C CNN
F 3 "" H 2550 5600 50  0001 C CNN
	1    2550 5600
	0    -1   -1   0   
$EndComp
Text GLabel 1750 5600 0    50   Input ~ 0
USB_P5V0
Wire Wire Line
	2050 5400 2050 5600
Wire Wire Line
	2050 5600 1750 5600
Wire Wire Line
	3150 4100 3700 4100
Wire Wire Line
	5150 4850 5150 5500
Text GLabel 4950 5500 3    50   Input ~ 0
LED-ACT
Wire Wire Line
	4850 5950 4850 4850
Text GLabel 4850 5950 3    50   Input ~ 0
VCCO
Text GLabel 4750 5500 3    50   Input ~ 0
P_SPI_CZ
Text GLabel 3500 4300 3    50   Input ~ 0
VCCO
Wire Wire Line
	3700 4200 3500 4200
Wire Wire Line
	3500 4200 3500 4300
Text GLabel 1550 4500 2    50   Input ~ 0
1V2
Wire Wire Line
	1550 4500 1200 4500
Wire Wire Line
	1200 4500 1200 4900
Text GLabel 1200 4900 3    50   Input ~ 0
VCCK
Text GLabel 1200 4100 1    50   Input ~ 0
AVDDL
Wire Wire Line
	1200 4500 1200 4100
Connection ~ 1200 4500
Wire Wire Line
	8650 2500 8650 2350
Connection ~ 8650 2500
Wire Wire Line
	8650 2500 7850 2500
Text GLabel 8650 2350 0    50   Input ~ 0
SRX2_P
Wire Wire Line
	8650 2600 8650 2700
Connection ~ 8650 2600
Wire Wire Line
	8650 2600 8250 2600
Text GLabel 8650 2700 0    50   Input ~ 0
SRX2_N
Wire Wire Line
	9150 2800 9150 2700
Connection ~ 9150 2800
Wire Wire Line
	9150 2800 7850 2800
Wire Wire Line
	9150 2900 9150 3000
Connection ~ 9150 2900
Wire Wire Line
	9150 2900 8250 2900
Text GLabel 9150 3000 0    50   Input ~ 0
STX2_P
Text GLabel 9150 2700 0    50   Input ~ 0
STX2_N
$EndSCHEMATC
