"Id";"Designator";"Package";"Quantity";"Designation";"Supplier and ref";
1;"U1";"SOIC-8_3.9x4.9mm_Pitch1.27mm";1;"MX25L512EMI10G";;;
2;"U2";"JMS578";1;"JMS578QFN48";;;
3;"J1,J2";"Pin_Header_Straight_1x02_Pitch2.54mm";2;"Conn_01x02";;;
4;"C14,C13";"C_1206";2;"100uF";;;
5;"J4";"Molex_SATA_877011001";1;"CON_SATA_877011001";;;
6;"Y1";"1041612";1;"Crystal_GND24";;;
7;"R7";"R_0805";1;"10k";;;
8;"R6,R3";"R_0805";2;"100k";;;
9;"R5";"R_0805";1;"150k";;;
10;"R4";"R_0805";1;"12k";;;
11;"R2";"R_0805";1;"1k";;;
12;"R1";"R_0805";1;"330k";;;
13;"L1";"Inductor_Taiyo-Yuden_NR-40xx";1;"4,7 uH";;;
14;"D1";"LED_1206";1;"LED";;;
15;"C22,C21,C8,C5";"C_0805";4;"10uF";;;
16;"C20,C19,C16,C15";"C_0805";4;"10nF";;;
17;"C18,C17,C9,C6,C4,C3,C2,C1";"C_0805";8;"0,1uF";;;
18;"C12,C7";"C_0805";2;"1uF";;;
19;"C11,C10";"C_0805";2;"20pF";;;
20;"J3";"2012670005";1;"USB_C_Receptacle";;;
