(module MOLEX-5051102091 locked (layer F.Cu) (tedit 5D691530)
  (descr "LED 0805 smd package")
  (tags "LED 0805 SMD")
  (attr smd)
  (fp_text reference MOLEX-5051 (at 0.3 2.55) (layer F.SilkS)
    (effects (font (size 1 1) (thickness 0.15)))
  )
  (fp_text value MOLEX-5051102091 (at -0.58 1.7) (layer F.Fab)
    (effects (font (size 1 1) (thickness 0.15)))
  )
  (fp_line (start -7.5 -0.5) (end 7.5 -0.5) (layer F.SilkS) (width 0.15))
  (fp_line (start -7.5 4.65) (end 7.5 4.65) (layer F.SilkS) (width 0.15))
  (fp_line (start 7.5 -0.5) (end 7.5 4.65) (layer F.SilkS) (width 0.15))
  (fp_line (start -7.5 -0.5) (end -7.5 4.65) (layer F.SilkS) (width 0.15))
  (pad 20 smd rect (at 4.5 0 180) (size 0.3 1) (layers F.Cu F.Paste F.Mask))
  (pad 16 smd rect (at 2.5 0 180) (size 0.3 1) (layers F.Cu F.Paste F.Mask))
  (pad 17 smd rect (at 3 0 180) (size 0.3 1) (layers F.Cu F.Paste F.Mask))
  (pad 18 smd rect (at 3.5 0 180) (size 0.3 1) (layers F.Cu F.Paste F.Mask))
  (pad 19 smd rect (at 4 0 180) (size 0.3 1) (layers F.Cu F.Paste F.Mask))
  (pad 15 smd rect (at 2 0 180) (size 0.3 1) (layers F.Cu F.Paste F.Mask))
  (pad 14 smd rect (at 1.5 0 180) (size 0.3 1) (layers F.Cu F.Paste F.Mask))
  (pad 13 smd rect (at 1 0 180) (size 0.3 1) (layers F.Cu F.Paste F.Mask))
  (pad 12 smd rect (at 0.5 0 180) (size 0.3 1) (layers F.Cu F.Paste F.Mask))
  (pad 11 smd rect (at 0 0 180) (size 0.3 1) (layers F.Cu F.Paste F.Mask))
  (pad 1 smd rect (at -5 0 180) (size 0.3 1) (layers F.Cu F.Paste F.Mask))
  (pad 2 smd rect (at -4.5 0 180) (size 0.3 1) (layers F.Cu F.Paste F.Mask))
  (pad 3 smd rect (at -4 0 180) (size 0.3 1) (layers F.Cu F.Paste F.Mask))
  (pad 4 smd rect (at -3.5 0 180) (size 0.3 1) (layers F.Cu F.Paste F.Mask))
  (pad 5 smd rect (at -3 0 180) (size 0.3 1) (layers F.Cu F.Paste F.Mask))
  (pad 10 smd rect (at -0.5 0 180) (size 0.3 1) (layers F.Cu F.Paste F.Mask))
  (pad 9 smd rect (at -1 0 180) (size 0.3 1) (layers F.Cu F.Paste F.Mask))
  (pad 8 smd rect (at -1.5 0 180) (size 0.3 1) (layers F.Cu F.Paste F.Mask))
  (pad 7 smd rect (at -2 0 180) (size 0.3 1) (layers F.Cu F.Paste F.Mask))
  (pad 6 smd rect (at -2.5 0 180) (size 0.3 1) (layers F.Cu F.Paste F.Mask))
  (pad "" smd rect (at -6.8 2.7 180) (size 2 1.3) (layers F.Cu F.Paste F.Mask))
  (pad "" smd rect (at 6.8 2.7 180) (size 2 1.3) (layers F.Cu F.Paste F.Mask))
  (model LEDs.3dshapes/LED-0805.wrl
    (at (xyz 0 0 0))
    (scale (xyz 1 1 1))
    (rotate (xyz 0 0 0))
  )
)
