EESchema Schematic File Version 2
LIBS:power
LIBS:device
LIBS:transistors
LIBS:conn
LIBS:linear
LIBS:regul
LIBS:74xx
LIBS:cmos4000
LIBS:adc-dac
LIBS:memory
LIBS:xilinx
LIBS:microcontrollers
LIBS:dsp
LIBS:microchip
LIBS:analog_switches
LIBS:motorola
LIBS:texas
LIBS:intel
LIBS:audio
LIBS:interface
LIBS:digital-audio
LIBS:philips
LIBS:display
LIBS:cypress
LIBS:siliconi
LIBS:opto
LIBS:atmel
LIBS:contrib
LIBS:valves
LIBS:MACE_LIB
LIBS:CarteRack-cache
LIBS:CB10LV102M
LIBS:LM3150MH
LIBS:+9v
LIBS:+12v
LIBS:4p04l03
LIBS:carte_mere-cache
LIBS:carte_mere-rescue
LIBS:gl850g-lqfp-48
LIBS:gl850g-qfn-28
LIBS:gl850g-ssop-28
LIBS:hub_usb2-rescue
LIBS:molex-505110-1992
LIBS:prtr5v0u4d,125
LIBS:CarteMere-cache
EELAYER 25 0
EELAYER END
$Descr A4 11693 8268
encoding utf-8
Sheet 7 7
Title "Carte mere Diskio Pi"
Date "09/05/2018"
Rev "0.1"
Comp ""
Comment1 ""
Comment2 ""
Comment3 ""
Comment4 ""
$EndDescr
$Comp
L Micro_HDMI_Connector U6
U 1 1 5AD8C9D0
P 5000 2350
F 0 "U6" H 5125 3250 60  0000 C CNN
F 1 "Micro_HDMI_Connector" V 5300 2300 60  0000 C CNN
F 2 "diskioPi:10029449-111RLF" H 5825 2900 60  0001 C CNN
F 3 "" H 5825 2900 60  0000 C CNN
F 4 "10029449-111RLF" H 5000 2350 60  0001 C CNN "Réf fab"
F 5 "2751197" H 5000 2350 60  0001 C CNN "Code commande"
F 6 "Farnell" H 5000 2350 60  0001 C CNN "Distributeur"
F 7 "0.0" H 5000 2350 60  0001 C CNN "Prix"
	1    5000 2350
	-1   0    0    -1  
$EndComp
Wire Wire Line
	5250 1550 5350 1550
Wire Wire Line
	5350 1650 5250 1650
Wire Wire Line
	5350 1750 5250 1750
Text GLabel 5350 1550 2    39   Input ~ 0
HDMI_1
Text GLabel 5350 1650 2    39   Input ~ 0
HDMI_2
Text GLabel 5350 1750 2    39   Input ~ 0
HDMI_3
Text GLabel 5350 1850 2    39   Input ~ 0
HDMI_4
Text GLabel 5350 1950 2    39   Input ~ 0
HDMI_5
Text GLabel 5350 2050 2    39   Input ~ 0
HDMI_6
Text GLabel 5350 2150 2    39   Input ~ 0
HDMI_7
Text GLabel 5350 2250 2    39   Input ~ 0
HDMI_8
Wire Wire Line
	5350 1850 5250 1850
Wire Wire Line
	5250 1950 5350 1950
Wire Wire Line
	5350 2050 5250 2050
Wire Wire Line
	5250 2150 5350 2150
Wire Wire Line
	5350 2250 5250 2250
Wire Wire Line
	5250 2350 5350 2350
Wire Wire Line
	5350 2450 5250 2450
Wire Wire Line
	5350 2550 5250 2550
Text GLabel 5350 2350 2    39   Input ~ 0
HDMI_9
Text GLabel 5350 2450 2    39   Input ~ 0
HDMI_10
Text GLabel 5350 2550 2    39   Input ~ 0
HDMI_11
Text GLabel 5350 2650 2    39   Input ~ 0
HDMI_12
Text GLabel 5350 2750 2    39   Input ~ 0
HDMI_13
Text GLabel 5350 2850 2    39   Input ~ 0
HDMI_14
Text GLabel 5350 2950 2    39   Input ~ 0
HDMI_15
Text GLabel 5350 3050 2    39   Input ~ 0
HDMI_16
Wire Wire Line
	5350 2650 5250 2650
Wire Wire Line
	5250 2750 5350 2750
Wire Wire Line
	5350 2850 5250 2850
Wire Wire Line
	5250 2950 5350 2950
Wire Wire Line
	5350 3050 5250 3050
Text GLabel 5350 3150 2    39   Input ~ 0
HDMI_17
Text GLabel 5350 3250 2    39   Input ~ 0
HDMI_18
Text GLabel 5350 3350 2    39   Input ~ 0
HDMI_19
Wire Wire Line
	5350 3150 5250 3150
Wire Wire Line
	5250 3250 5350 3250
Wire Wire Line
	5350 3350 5250 3350
$Comp
L MOLEX-505110-1992 MOLEX-5051
U 1 1 5AD9B48F
P 5200 4550
F 0 "MOLEX-5051" H 5000 6650 60  0000 C CNN
F 1 "MOLEX-505110-1992" H 5050 4250 60  0000 C CNN
F 2 "diskioPi:MOLEX-505110-1992" H 5000 6650 60  0001 C CNN
F 3 "" H 5000 6650 60  0001 C CNN
F 4 "MOLEX-505110-1992" H 5200 4550 60  0001 C CNN "Réf fab"
F 5 "Value" H 5200 4550 60  0001 C CNN "Code commande"
F 6 "Farnell" H 5200 4550 60  0001 C CNN "Distributeur"
F 7 "0.0" H 5200 4550 60  0001 C CNN "Prix"
	1    5200 4550
	1    0    0    1   
$EndComp
Text GLabel 5500 4550 2    39   Input ~ 0
HDMI_1
Text GLabel 5500 4650 2    39   Input ~ 0
HDMI_2
Text GLabel 5500 4750 2    39   Input ~ 0
HDMI_3
Text GLabel 5500 4850 2    39   Input ~ 0
HDMI_4
Text GLabel 5500 4950 2    39   Input ~ 0
HDMI_5
Text GLabel 5500 5050 2    39   Input ~ 0
HDMI_6
Text GLabel 5500 5150 2    39   Input ~ 0
HDMI_7
Text GLabel 5500 5250 2    39   Input ~ 0
HDMI_8
Text GLabel 5500 5350 2    39   Input ~ 0
HDMI_9
Text GLabel 5500 5450 2    39   Input ~ 0
HDMI_10
Text GLabel 5500 5550 2    39   Input ~ 0
HDMI_11
Text GLabel 5500 5650 2    39   Input ~ 0
HDMI_12
Text GLabel 5500 5750 2    39   Input ~ 0
HDMI_13
Text GLabel 5500 5850 2    39   Input ~ 0
HDMI_14
Text GLabel 5500 5950 2    39   Input ~ 0
HDMI_15
Text GLabel 5500 6050 2    39   Input ~ 0
HDMI_16
Text GLabel 5500 6150 2    39   Input ~ 0
HDMI_17
Text GLabel 5500 6250 2    39   Input ~ 0
HDMI_18
Text GLabel 5500 6350 2    39   Input ~ 0
HDMI_19
Wire Wire Line
	5500 4550 5400 4550
Wire Wire Line
	5500 4650 5400 4650
Wire Wire Line
	5400 4750 5500 4750
Wire Wire Line
	5500 4850 5400 4850
Wire Wire Line
	5400 4950 5500 4950
Wire Wire Line
	5500 5050 5400 5050
Wire Wire Line
	5400 5150 5500 5150
Wire Wire Line
	5500 5250 5400 5250
Wire Wire Line
	5400 5350 5500 5350
Wire Wire Line
	5500 5450 5400 5450
Wire Wire Line
	5500 5550 5400 5550
Wire Wire Line
	5400 5650 5500 5650
Wire Wire Line
	5500 5750 5400 5750
Wire Wire Line
	5500 5850 5400 5850
Wire Wire Line
	5400 5950 5500 5950
Wire Wire Line
	5500 6050 5400 6050
Wire Wire Line
	5400 6150 5500 6150
Wire Wire Line
	5500 6250 5400 6250
Wire Wire Line
	5400 6350 5500 6350
$EndSCHEMATC
