EESchema Schematic File Version 2
LIBS:power
LIBS:device
LIBS:transistors
LIBS:conn
LIBS:linear
LIBS:regul
LIBS:74xx
LIBS:cmos4000
LIBS:adc-dac
LIBS:memory
LIBS:xilinx
LIBS:microcontrollers
LIBS:dsp
LIBS:microchip
LIBS:analog_switches
LIBS:motorola
LIBS:texas
LIBS:intel
LIBS:audio
LIBS:interface
LIBS:digital-audio
LIBS:philips
LIBS:display
LIBS:cypress
LIBS:siliconi
LIBS:opto
LIBS:atmel
LIBS:contrib
LIBS:valves
LIBS:MACE_LIB
LIBS:CarteRack-cache
LIBS:CB10LV102M
LIBS:LM3150MH
LIBS:+9v
LIBS:+12v
LIBS:4p04l03
LIBS:carte_mere-cache
LIBS:carte_mere-rescue
LIBS:gl850g-lqfp-48
LIBS:gl850g-qfn-28
LIBS:gl850g-ssop-28
LIBS:hub_usb2-rescue
LIBS:molex-505110-1992
LIBS:prtr5v0u4d,125
LIBS:CarteMere-cache
EELAYER 25 0
EELAYER END
$Descr A4 11693 8268
encoding utf-8
Sheet 3 7
Title "Carte mere Diskio Pi"
Date "09/05/2018"
Rev "0.1"
Comp ""
Comment1 ""
Comment2 ""
Comment3 ""
Comment4 ""
$EndDescr
$Comp
L GL850G-SSOP-28 GL850G1
U 1 1 5AC723C4
P 5100 2450
F 0 "GL850G1" H 5550 2650 60  0000 C CNN
F 1 "GL850G-SSOP-28" H 5550 950 60  0000 C CNN
F 2 "diskioPi:GL850G" H 5550 2650 60  0001 C CNN
F 3 "" H 5550 2650 60  0001 C CNN
F 4 "GL850G" H 5100 2450 60  0001 C CNN "Réf fab"
F 5 "Value" H 5100 2450 60  0001 C CNN "Code commande"
F 6 "Farnell" H 5100 2450 60  0001 C CNN "Distributeur"
F 7 "0.0" H 5100 2450 60  0001 C CNN "Prix"
	1    5100 2450
	1    0    0    -1  
$EndComp
$Comp
L USB_A P9
U 1 1 5AD44DBB
P 9500 1600
F 0 "P9" H 9700 1400 50  0000 C CNN
F 1 "USB_A" H 9450 1800 50  0000 C CNN
F 2 "diskioPi:614104190121-USB" V 9450 1500 50  0001 C CNN
F 3 "" V 9450 1500 50  0000 C CNN
F 4 "614104190121-USB" H 9500 1600 60  0001 C CNN "Réf fab"
F 5 "Value" H 9500 1600 60  0001 C CNN "Code commande"
F 6 "Farnell" H 9500 1600 60  0001 C CNN "Distributeur"
F 7 "0.0" H 9500 1600 60  0001 C CNN "Prix"
	1    9500 1600
	0    1    1    0   
$EndComp
$Comp
L GND #PWR020
U 1 1 5AD44ED9
P 9150 1800
F 0 "#PWR020" H 9150 1550 50  0001 C CNN
F 1 "GND" H 9150 1650 50  0000 C CNN
F 2 "" H 9150 1800 50  0000 C CNN
F 3 "" H 9150 1800 50  0000 C CNN
	1    9150 1800
	1    0    0    -1  
$EndComp
Text GLabel 6250 2450 2    39   Input ~ 0
DP1
Text GLabel 6250 2550 2    39   Input ~ 0
DM1
Text GLabel 6250 2650 2    39   Input ~ 0
DP0
Text GLabel 6250 2750 2    39   Input ~ 0
DM0
Text GLabel 9050 1600 0    39   Input ~ 0
DP1
Text GLabel 9050 1500 0    39   Input ~ 0
DM1
$Comp
L USB_A P10
U 1 1 5AD4666A
P 9550 3100
F 0 "P10" H 9750 2900 50  0000 C CNN
F 1 "USB_A" H 9500 3300 50  0000 C CNN
F 2 "diskioPi:614104190121-USB" V 9500 3000 50  0001 C CNN
F 3 "" V 9500 3000 50  0000 C CNN
F 4 "614104190121-USB" H 9550 3100 60  0001 C CNN "Réf fab"
F 5 "Value" H 9550 3100 60  0001 C CNN "Code commande"
F 6 "Farnell" H 9550 3100 60  0001 C CNN "Distributeur"
F 7 "0.0" H 9550 3100 60  0001 C CNN "Prix"
	1    9550 3100
	0    1    1    0   
$EndComp
$Comp
L GND #PWR021
U 1 1 5AD4667A
P 9200 3300
F 0 "#PWR021" H 9200 3050 50  0001 C CNN
F 1 "GND" H 9200 3150 50  0000 C CNN
F 2 "" H 9200 3300 50  0000 C CNN
F 3 "" H 9200 3300 50  0000 C CNN
	1    9200 3300
	1    0    0    -1  
$EndComp
Text GLabel 9100 3100 0    39   Input ~ 0
DP2
Text GLabel 9100 3000 0    39   Input ~ 0
DM2
Text GLabel 4800 2550 0    39   Input ~ 0
DM2
Text GLabel 4800 2650 0    39   Input ~ 0
DP2
$Comp
L USB_A P11
U 1 1 5AD46DAD
P 9600 4550
F 0 "P11" H 9800 4350 50  0000 C CNN
F 1 "USB_A" H 9550 4750 50  0000 C CNN
F 2 "diskioPi:S4B-PH-SM4-TB(LF)(SN)" V 9550 4450 50  0001 C CNN
F 3 "" V 9550 4450 50  0000 C CNN
F 4 "S4B-PH-SM4-TB(LF)(SN)" H 9600 4550 60  0001 C CNN "Réf fab"
F 5 "Value" H 9600 4550 60  0001 C CNN "Code commande"
F 6 "Farnell" H 9600 4550 60  0001 C CNN "Distributeur"
F 7 "0.0" H 9600 4550 60  0001 C CNN "Prix"
	1    9600 4550
	0    1    1    0   
$EndComp
$Comp
L GND #PWR022
U 1 1 5AD46DBD
P 9250 4750
F 0 "#PWR022" H 9250 4500 50  0001 C CNN
F 1 "GND" H 9250 4600 50  0000 C CNN
F 2 "" H 9250 4750 50  0000 C CNN
F 3 "" H 9250 4750 50  0000 C CNN
	1    9250 4750
	1    0    0    -1  
$EndComp
$Comp
L C C9
U 1 1 5AD46DC7
P 9600 3900
F 0 "C9" H 9625 4000 50  0000 L CNN
F 1 "100nF" H 9625 3800 50  0000 L CNN
F 2 "Capacitors_SMD:C_0805_HandSoldering" H 9638 3750 50  0001 C CNN
F 3 "" H 9600 3900 50  0000 C CNN
F 4 "0805F106Z100CT " H 9600 3900 60  0001 C CNN "Réf fab"
F 5 "Value" H 9600 3900 60  0001 C CNN "Code commande"
F 6 "Farnell" H 9600 3900 60  0001 C CNN "Distributeur"
F 7 "0.0" H 9600 3900 60  0001 C CNN "Prix"
	1    9600 3900
	1    0    0    -1  
$EndComp
$Comp
L GND #PWR023
U 1 1 5AD46DCD
P 9600 4050
F 0 "#PWR023" H 9600 3800 50  0001 C CNN
F 1 "GND" H 9600 3900 50  0000 C CNN
F 2 "" H 9600 4050 50  0000 C CNN
F 3 "" H 9600 4050 50  0000 C CNN
	1    9600 4050
	1    0    0    -1  
$EndComp
Text GLabel 9150 4550 0    39   Input ~ 0
DP3
Text GLabel 9150 4450 0    39   Input ~ 0
DM3
$Comp
L CP C13
U 1 1 5AD46DE1
P 10050 3900
F 0 "C13" H 10075 4000 50  0000 L CNN
F 1 "10uF" H 10075 3800 50  0000 L CNN
F 2 "Capacitors_SMD:C_0805_HandSoldering" H 10088 3750 50  0001 C CNN
F 3 "" H 10050 3900 50  0000 C CNN
F 4 "Value" H 10050 3900 60  0001 C CNN "Réf fab"
F 5 "CC0805ZKY5V6BB106" H 10050 3900 60  0001 C CNN "Code commande"
F 6 "Farnell" H 10050 3900 60  0001 C CNN "Distributeur"
F 7 "0.0" H 10050 3900 60  0001 C CNN "Prix"
	1    10050 3900
	1    0    0    -1  
$EndComp
$Comp
L GND #PWR024
U 1 1 5AD46DE7
P 10050 4050
F 0 "#PWR024" H 10050 3800 50  0001 C CNN
F 1 "GND" H 10050 3900 50  0000 C CNN
F 2 "" H 10050 4050 50  0000 C CNN
F 3 "" H 10050 4050 50  0000 C CNN
	1    10050 4050
	1    0    0    -1  
$EndComp
Text GLabel 4800 3450 0    39   Input ~ 0
DM4
Text GLabel 4800 3550 0    39   Input ~ 0
DP4
Text GLabel 4800 3150 0    39   Input ~ 0
DM3
Text GLabel 4800 3250 0    39   Input ~ 0
DP3
$Comp
L USB_A P12
U 1 1 5AD479DC
P 9600 6000
F 0 "P12" H 9800 5800 50  0000 C CNN
F 1 "USB_A" H 9550 6200 50  0000 C CNN
F 2 "diskioPi:B4B-PH-SM4-TB(LF)(SN)" V 9550 5900 50  0001 C CNN
F 3 "" V 9550 5900 50  0000 C CNN
F 4 "B4B-PH-SM4-TB(LF)(SN)" H 9600 6000 60  0001 C CNN "Réf fab"
F 5 "Value" H 9600 6000 60  0001 C CNN "Code commande"
F 6 "Farnell" H 9600 6000 60  0001 C CNN "Distributeur"
F 7 "0.0" H 9600 6000 60  0001 C CNN "Prix"
	1    9600 6000
	0    1    1    0   
$EndComp
$Comp
L GND #PWR025
U 1 1 5AD479EC
P 9250 6200
F 0 "#PWR025" H 9250 5950 50  0001 C CNN
F 1 "GND" H 9250 6050 50  0000 C CNN
F 2 "" H 9250 6200 50  0000 C CNN
F 3 "" H 9250 6200 50  0000 C CNN
	1    9250 6200
	1    0    0    -1  
$EndComp
Text GLabel 9150 6000 0    39   Input ~ 0
DP4
Text GLabel 9150 5900 0    39   Input ~ 0
DM4
$Comp
L Crystal Y1
U 1 1 5AD4809E
P 3950 3300
F 0 "Y1" H 3950 3450 50  0000 C CNN
F 1 "Crystal" H 3950 3150 50  0000 C CNN
F 2 "diskioPi:QCL12.0000F18B23B" H 3950 3300 50  0001 C CNN
F 3 "" H 3950 3300 50  0000 C CNN
F 4 "QCL12.0000F18B23B " H 3950 3300 60  0001 C CNN "Réf fab"
F 5 "2508453" H 3950 3300 60  0001 C CNN "Code commande"
F 6 "Farnell" H 3950 3300 60  0001 C CNN "Distributeur"
F 7 "0.0" H 3950 3300 60  0001 C CNN "Prix"
	1    3950 3300
	1    0    0    -1  
$EndComp
$Comp
L C C5
U 1 1 5AD48563
P 3800 3650
F 0 "C5" H 3825 3750 50  0000 L CNN
F 1 "33pF" H 3825 3550 50  0000 L CNN
F 2 "Capacitors_SMD:C_0805_HandSoldering" H 3838 3500 50  0001 C CNN
F 3 "" H 3800 3650 50  0000 C CNN
F 4 "0805N330J500CT" H 3800 3650 60  0001 C CNN "Réf fab"
F 5 "Value" H 3800 3650 60  0001 C CNN "Code commande"
F 6 "Farnell" H 3800 3650 60  0001 C CNN "Distributeur"
F 7 "0.0" H 3800 3650 60  0001 C CNN "Prix"
	1    3800 3650
	1    0    0    -1  
$EndComp
$Comp
L C C6
U 1 1 5AD485EB
P 4100 3650
F 0 "C6" H 4125 3750 50  0000 L CNN
F 1 "33pF" H 4125 3550 50  0000 L CNN
F 2 "Capacitors_SMD:C_0805_HandSoldering" H 4138 3500 50  0001 C CNN
F 3 "" H 4100 3650 50  0000 C CNN
F 4 "0805N330J500CT" H 4100 3650 60  0001 C CNN "Réf fab"
F 5 "Value" H 4100 3650 60  0001 C CNN "Code commande"
F 6 "Farnell" H 4100 3650 60  0001 C CNN "Distributeur"
F 7 "0.0" H 4100 3650 60  0001 C CNN "Prix"
	1    4100 3650
	1    0    0    -1  
$EndComp
$Comp
L GND #PWR026
U 1 1 5AD48824
P 3800 3950
F 0 "#PWR026" H 3800 3700 50  0001 C CNN
F 1 "GND" H 3800 3800 50  0000 C CNN
F 2 "" H 3800 3950 50  0000 C CNN
F 3 "" H 3800 3950 50  0000 C CNN
	1    3800 3950
	1    0    0    -1  
$EndComp
Text GLabel 4450 2300 0    39   Input ~ 0
AVDD
$Comp
L R R5
U 1 1 5AD49482
P 4700 4750
F 0 "R5" V 4780 4750 50  0000 C CNN
F 1 "10k" V 4700 4750 50  0000 C CNN
F 2 "Resistors_SMD:R_0805_HandSoldering" V 4630 4750 50  0001 C CNN
F 3 "" H 4700 4750 50  0000 C CNN
F 4 "MCWR08X1002FTL" H 4700 4750 60  0001 C CNN "Réf fab"
F 5 "Value" H 4700 4750 60  0001 C CNN "Code commande"
F 6 "Farnell" H 4700 4750 60  0001 C CNN "Distributeur"
F 7 "0.0" H 4700 4750 60  0001 C CNN "Prix"
	1    4700 4750
	1    0    0    -1  
$EndComp
$Comp
L C C15
U 1 1 5AD496C5
P 4700 5150
F 0 "C15" H 4725 5250 50  0000 L CNN
F 1 "1uF" H 4725 5050 50  0000 L CNN
F 2 "Capacitors_SMD:C_0805_HandSoldering" H 4738 5000 50  0001 C CNN
F 3 "" H 4700 5150 50  0000 C CNN
F 4 "GRM219F51E105ZA01D " H 4700 5150 60  0001 C CNN "Réf fab"
F 5 "Value" H 4700 5150 60  0001 C CNN "Code commande"
F 6 "Farnell" H 4700 5150 60  0001 C CNN "Distributeur"
F 7 "0.0" H 4700 5150 60  0001 C CNN "Prix"
	1    4700 5150
	1    0    0    -1  
$EndComp
$Comp
L R R6
U 1 1 5AD4988A
P 5050 5150
F 0 "R6" V 5130 5150 50  0000 C CNN
F 1 "47k" V 5050 5150 50  0000 C CNN
F 2 "Resistors_SMD:R_0805_HandSoldering" V 4980 5150 50  0001 C CNN
F 3 "" H 5050 5150 50  0000 C CNN
F 4 "MCWR08X4702FTL" H 5050 5150 60  0001 C CNN "Réf fab"
F 5 "Value" H 5050 5150 60  0001 C CNN "Code commande"
F 6 "Farnell" H 5050 5150 60  0001 C CNN "Distributeur"
F 7 "0.0" H 5050 5150 60  0001 C CNN "Prix"
	1    5050 5150
	1    0    0    -1  
$EndComp
$Comp
L GND #PWR027
U 1 1 5AD49A0F
P 4700 5400
F 0 "#PWR027" H 4700 5150 50  0001 C CNN
F 1 "GND" H 4700 5250 50  0000 C CNN
F 2 "" H 4700 5400 50  0000 C CNN
F 3 "" H 4700 5400 50  0000 C CNN
	1    4700 5400
	1    0    0    -1  
$EndComp
Text GLabel 4800 3650 0    39   Input ~ 0
GL_RESET
Text GLabel 4550 4950 0    39   Input ~ 0
GL_RESET
$Comp
L R R7
U 1 1 5AD4B174
P 7150 3100
F 0 "R7" V 7230 3100 50  0000 C CNN
F 1 "47K" V 7150 3100 50  0000 C CNN
F 2 "Resistors_SMD:R_0805_HandSoldering" V 7080 3100 50  0001 C CNN
F 3 "" H 7150 3100 50  0000 C CNN
F 4 "MCWR08X4702FTL" H 7150 3100 60  0001 C CNN "Réf fab"
F 5 "Value" H 7150 3100 60  0001 C CNN "Code commande"
F 6 "Farnell" H 7150 3100 60  0001 C CNN "Distributeur"
F 7 "0.0" H 7150 3100 60  0001 C CNN "Prix"
	1    7150 3100
	1    0    0    -1  
$EndComp
$Comp
L CP C16
U 1 1 5AD4C24E
P 4400 1350
F 0 "C16" H 4425 1450 50  0000 L CNN
F 1 "10uF" H 4425 1250 50  0000 L CNN
F 2 "Capacitors_SMD:C_0805_HandSoldering" H 4438 1200 50  0001 C CNN
F 3 "" H 4400 1350 50  0000 C CNN
F 4 "CC0805ZKY5V6BB106" H 4400 1350 60  0001 C CNN "Réf fab"
F 5 "Value" H 4400 1350 60  0001 C CNN "Code commande"
F 6 "Farnell" H 4400 1350 60  0001 C CNN "Distributeur"
F 7 "0.0" H 4400 1350 60  0001 C CNN "Prix"
	1    4400 1350
	1    0    0    -1  
$EndComp
$Comp
L C C17
U 1 1 5AD4C55A
P 4750 1350
F 0 "C17" H 4775 1450 50  0000 L CNN
F 1 "100nF" H 4775 1250 50  0000 L CNN
F 2 "Capacitors_SMD:C_0805_HandSoldering" H 4788 1200 50  0001 C CNN
F 3 "" H 4750 1350 50  0000 C CNN
F 4 "0805F106Z100CT " H 4750 1350 60  0001 C CNN "Réf fab"
F 5 "Value" H 4750 1350 60  0001 C CNN "Code commande"
F 6 "Farnell" H 4750 1350 60  0001 C CNN "Distributeur"
F 7 "0.0" H 4750 1350 60  0001 C CNN "Prix"
	1    4750 1350
	1    0    0    -1  
$EndComp
$Comp
L C C18
U 1 1 5AD4C93B
P 5000 1350
F 0 "C18" H 5025 1450 50  0000 L CNN
F 1 "100nF" H 5025 1250 50  0000 L CNN
F 2 "Capacitors_SMD:C_0805_HandSoldering" H 5038 1200 50  0001 C CNN
F 3 "" H 5000 1350 50  0000 C CNN
F 4 "0805F106Z100CT " H 5000 1350 60  0001 C CNN "Réf fab"
F 5 "Value" H 5000 1350 60  0001 C CNN "Code commande"
F 6 "Farnell" H 5000 1350 60  0001 C CNN "Distributeur"
F 7 "0.0" H 5000 1350 60  0001 C CNN "Prix"
	1    5000 1350
	1    0    0    -1  
$EndComp
$Comp
L GND #PWR028
U 1 1 5AD4CB4B
P 4400 1600
F 0 "#PWR028" H 4400 1350 50  0001 C CNN
F 1 "GND" H 4400 1450 50  0000 C CNN
F 2 "" H 4400 1600 50  0000 C CNN
F 3 "" H 4400 1600 50  0000 C CNN
	1    4400 1600
	1    0    0    -1  
$EndComp
$Comp
L C C19
U 1 1 5AD4D255
P 5500 1350
F 0 "C19" H 5525 1450 50  0000 L CNN
F 1 "100nF" H 5525 1250 50  0000 L CNN
F 2 "Capacitors_SMD:C_0805_HandSoldering" H 5538 1200 50  0001 C CNN
F 3 "" H 5500 1350 50  0000 C CNN
F 4 "0805F106Z100CT " H 5500 1350 60  0001 C CNN "Réf fab"
F 5 "Value" H 5500 1350 60  0001 C CNN "Code commande"
F 6 "Farnell" H 5500 1350 60  0001 C CNN "Distributeur"
F 7 "0.0" H 5500 1350 60  0001 C CNN "Prix"
	1    5500 1350
	1    0    0    -1  
$EndComp
$Comp
L C C20
U 1 1 5AD4D2D8
P 5750 1350
F 0 "C20" H 5775 1450 50  0000 L CNN
F 1 "100nF" H 5775 1250 50  0000 L CNN
F 2 "Capacitors_SMD:C_0805_HandSoldering" H 5788 1200 50  0001 C CNN
F 3 "" H 5750 1350 50  0000 C CNN
F 4 "0805F106Z100CT " H 5750 1350 60  0001 C CNN "Réf fab"
F 5 "Value" H 5750 1350 60  0001 C CNN "Code commande"
F 6 "Farnell" H 5750 1350 60  0001 C CNN "Distributeur"
F 7 "0.0" H 5750 1350 60  0001 C CNN "Prix"
	1    5750 1350
	1    0    0    -1  
$EndComp
$Comp
L C C21
U 1 1 5AD4D346
P 6000 1350
F 0 "C21" H 6025 1450 50  0000 L CNN
F 1 "100nF" H 6025 1250 50  0000 L CNN
F 2 "Capacitors_SMD:C_0805_HandSoldering" H 6038 1200 50  0001 C CNN
F 3 "" H 6000 1350 50  0000 C CNN
F 4 "0805F106Z100CT " H 6000 1350 60  0001 C CNN "Réf fab"
F 5 "Value" H 6000 1350 60  0001 C CNN "Code commande"
F 6 "Farnell" H 6000 1350 60  0001 C CNN "Distributeur"
F 7 "0.0" H 6000 1350 60  0001 C CNN "Prix"
	1    6000 1350
	1    0    0    -1  
$EndComp
$Comp
L GND #PWR029
U 1 1 5AD4D61D
P 5500 1600
F 0 "#PWR029" H 5500 1350 50  0001 C CNN
F 1 "GND" H 5500 1450 50  0000 C CNN
F 2 "" H 5500 1600 50  0000 C CNN
F 3 "" H 5500 1600 50  0000 C CNN
	1    5500 1600
	1    0    0    -1  
$EndComp
$Comp
L CP C23
U 1 1 5AD4D7E5
P 6600 1350
F 0 "C23" H 6625 1450 50  0000 L CNN
F 1 "10uF" H 6625 1250 50  0000 L CNN
F 2 "Capacitors_SMD:C_0805_HandSoldering" H 6638 1200 50  0001 C CNN
F 3 "" H 6600 1350 50  0000 C CNN
F 4 "CC0805ZKY5V6BB106" H 6600 1350 60  0001 C CNN "Réf fab"
F 5 "Value" H 6600 1350 60  0001 C CNN "Code commande"
F 6 "Farnell" H 6600 1350 60  0001 C CNN "Distributeur"
F 7 "0.0" H 6600 1350 60  0001 C CNN "Prix"
	1    6600 1350
	1    0    0    -1  
$EndComp
Text GLabel 6300 1000 2    39   Input ~ 0
AVDD
$Comp
L GND #PWR030
U 1 1 5AD4E86D
P 6200 3800
F 0 "#PWR030" H 6200 3550 50  0001 C CNN
F 1 "GND" H 6200 3650 50  0000 C CNN
F 2 "" H 6200 3800 50  0000 C CNN
F 3 "" H 6200 3800 50  0000 C CNN
	1    6200 3800
	1    0    0    -1  
$EndComp
$Comp
L R R9
U 1 1 5AD4EDD8
P 4700 2750
F 0 "R9" V 4780 2750 50  0000 C CNN
F 1 "680" V 4700 2750 50  0000 C CNN
F 2 "Resistors_SMD:R_0805_HandSoldering" V 4630 2750 50  0001 C CNN
F 3 "" H 4700 2750 50  0000 C CNN
F 4 "MCWR08X6800FTL" H 4700 2750 60  0001 C CNN "Réf fab"
F 5 "Value" H 4700 2750 60  0001 C CNN "Code commande"
F 6 "Farnell" H 4700 2750 60  0001 C CNN "Distributeur"
F 7 "0.0" H 4700 2750 60  0001 C CNN "Prix"
	1    4700 2750
	0    1    1    0   
$EndComp
$Comp
L GND #PWR031
U 1 1 5AD4F12D
P 4250 2750
F 0 "#PWR031" H 4250 2500 50  0001 C CNN
F 1 "GND" H 4250 2600 50  0000 C CNN
F 2 "" H 4250 2750 50  0000 C CNN
F 3 "" H 4250 2750 50  0000 C CNN
	1    4250 2750
	0    1    1    0   
$EndComp
$Comp
L C C8
U 1 1 5AD5824F
P 9550 2450
F 0 "C8" H 9575 2550 50  0000 L CNN
F 1 "100nF" H 9575 2350 50  0000 L CNN
F 2 "Capacitors_SMD:C_0805_HandSoldering" H 9588 2300 50  0001 C CNN
F 3 "" H 9550 2450 50  0000 C CNN
F 4 "0805F106Z100CT" H 9550 2450 60  0001 C CNN "Réf fab"
F 5 "Value" H 9550 2450 60  0001 C CNN "Code commande"
F 6 "Farnell" H 9550 2450 60  0001 C CNN "Distributeur"
F 7 "0.0" H 9550 2450 60  0001 C CNN "Prix"
	1    9550 2450
	1    0    0    -1  
$EndComp
$Comp
L GND #PWR032
U 1 1 5AD58255
P 9550 2600
F 0 "#PWR032" H 9550 2350 50  0001 C CNN
F 1 "GND" H 9550 2450 50  0000 C CNN
F 2 "" H 9550 2600 50  0000 C CNN
F 3 "" H 9550 2600 50  0000 C CNN
	1    9550 2600
	1    0    0    -1  
$EndComp
$Comp
L CP C12
U 1 1 5AD5825F
P 10000 2450
F 0 "C12" H 10025 2550 50  0000 L CNN
F 1 "10uF" H 10025 2350 50  0000 L CNN
F 2 "Capacitors_SMD:C_0805_HandSoldering" H 10038 2300 50  0001 C CNN
F 3 "" H 10000 2450 50  0000 C CNN
F 4 "CC0805ZKY5V6BB106" H 10000 2450 60  0001 C CNN "Réf fab"
F 5 "Value" H 10000 2450 60  0001 C CNN "Code commande"
F 6 "Farnell" H 10000 2450 60  0001 C CNN "Distributeur"
F 7 "0.0" H 10000 2450 60  0001 C CNN "Prix"
	1    10000 2450
	1    0    0    -1  
$EndComp
$Comp
L GND #PWR033
U 1 1 5AD58265
P 10000 2600
F 0 "#PWR033" H 10000 2350 50  0001 C CNN
F 1 "GND" H 10000 2450 50  0000 C CNN
F 2 "" H 10000 2600 50  0000 C CNN
F 3 "" H 10000 2600 50  0000 C CNN
	1    10000 2600
	1    0    0    -1  
$EndComp
$Comp
L C C7
U 1 1 5AD587A6
P 9500 950
F 0 "C7" H 9525 1050 50  0000 L CNN
F 1 "100nF" H 9525 850 50  0000 L CNN
F 2 "Capacitors_SMD:C_0805_HandSoldering" H 9538 800 50  0001 C CNN
F 3 "" H 9500 950 50  0000 C CNN
F 4 "0805F106Z100CT" H 9500 950 60  0001 C CNN "Réf fab"
F 5 "Value" H 9500 950 60  0001 C CNN "Code commande"
F 6 "Farnell" H 9500 950 60  0001 C CNN "Distributeur"
F 7 "0.0" H 9500 950 60  0001 C CNN "Prix"
	1    9500 950 
	1    0    0    -1  
$EndComp
$Comp
L GND #PWR034
U 1 1 5AD587AC
P 9500 1100
F 0 "#PWR034" H 9500 850 50  0001 C CNN
F 1 "GND" H 9500 950 50  0000 C CNN
F 2 "" H 9500 1100 50  0000 C CNN
F 3 "" H 9500 1100 50  0000 C CNN
	1    9500 1100
	1    0    0    -1  
$EndComp
$Comp
L CP C11
U 1 1 5AD587B6
P 9950 950
F 0 "C11" H 9975 1050 50  0000 L CNN
F 1 "10uF" H 9975 850 50  0000 L CNN
F 2 "Capacitors_SMD:C_0805_HandSoldering" H 9988 800 50  0001 C CNN
F 3 "" H 9950 950 50  0000 C CNN
F 4 "CC0805ZKY5V6BB106" H 9950 950 60  0001 C CNN "Réf fab"
F 5 "Value" H 9950 950 60  0001 C CNN "Code commande"
F 6 "Farnell" H 9950 950 60  0001 C CNN "Distributeur"
F 7 "0.0" H 9950 950 60  0001 C CNN "Prix"
	1    9950 950 
	1    0    0    -1  
$EndComp
$Comp
L GND #PWR035
U 1 1 5AD587BC
P 9950 1100
F 0 "#PWR035" H 9950 850 50  0001 C CNN
F 1 "GND" H 9950 950 50  0000 C CNN
F 2 "" H 9950 1100 50  0000 C CNN
F 3 "" H 9950 1100 50  0000 C CNN
	1    9950 1100
	1    0    0    -1  
$EndComp
$Comp
L L_Small L2
U 1 1 5AD587C2
P 9750 800
F 0 "L2" H 9780 840 50  0000 L CNN
F 1 "L_Small" H 9780 760 50  0000 L CNN
F 2 "Resistors_SMD:R_0805_HandSoldering" H 9750 800 50  0001 C CNN
F 3 "" H 9750 800 50  0000 C CNN
F 4 "2508056017Y2" H 9750 800 60  0001 C CNN "Réf fab"
F 5 "1838838" H 9750 800 60  0001 C CNN "Code commande"
F 6 "Farnell" H 9750 800 60  0001 C CNN "Distributeur"
F 7 "0.0" H 9750 800 60  0001 C CNN "Prix"
	1    9750 800 
	0    -1   -1   0   
$EndComp
Text GLabel 10250 800  2    39   Input ~ 0
+5V_USB_1
$Comp
L C C10
U 1 1 5AD58A0F
P 9600 5350
F 0 "C10" H 9625 5450 50  0000 L CNN
F 1 "100nF" H 9625 5250 50  0000 L CNN
F 2 "Capacitors_SMD:C_0805_HandSoldering" H 9638 5200 50  0001 C CNN
F 3 "" H 9600 5350 50  0000 C CNN
F 4 "0805F106Z100CT" H 9600 5350 60  0001 C CNN "Réf fab"
F 5 "Value" H 9600 5350 60  0001 C CNN "Code commande"
F 6 "Farnell" H 9600 5350 60  0001 C CNN "Distributeur"
F 7 "0.0" H 9600 5350 60  0001 C CNN "Prix"
	1    9600 5350
	1    0    0    -1  
$EndComp
$Comp
L GND #PWR036
U 1 1 5AD58A15
P 9600 5500
F 0 "#PWR036" H 9600 5250 50  0001 C CNN
F 1 "GND" H 9600 5350 50  0000 C CNN
F 2 "" H 9600 5500 50  0000 C CNN
F 3 "" H 9600 5500 50  0000 C CNN
	1    9600 5500
	1    0    0    -1  
$EndComp
$Comp
L CP C14
U 1 1 5AD58A1F
P 10050 5350
F 0 "C14" H 10075 5450 50  0000 L CNN
F 1 "10uF" H 10075 5250 50  0000 L CNN
F 2 "Capacitors_SMD:C_0805_HandSoldering" H 10088 5200 50  0001 C CNN
F 3 "" H 10050 5350 50  0000 C CNN
F 4 "CC0805ZKY5V6BB106" H 10050 5350 60  0001 C CNN "Réf fab"
F 5 "Value" H 10050 5350 60  0001 C CNN "Code commande"
F 6 "Farnell" H 10050 5350 60  0001 C CNN "Distributeur"
F 7 "0.0" H 10050 5350 60  0001 C CNN "Prix"
	1    10050 5350
	1    0    0    -1  
$EndComp
$Comp
L GND #PWR037
U 1 1 5AD58A25
P 10050 5500
F 0 "#PWR037" H 10050 5250 50  0001 C CNN
F 1 "GND" H 10050 5350 50  0000 C CNN
F 2 "" H 10050 5500 50  0000 C CNN
F 3 "" H 10050 5500 50  0000 C CNN
	1    10050 5500
	1    0    0    -1  
$EndComp
$Comp
L USB_A P13
U 1 1 5AD5A7F9
P 1800 1450
F 0 "P13" H 2000 1250 50  0000 C CNN
F 1 "USB_A" H 1750 1650 50  0000 C CNN
F 2 "diskioPi:B4B-PH-SM4-TB(LF)(SN)" V 1750 1350 50  0001 C CNN
F 3 "" V 1750 1350 50  0000 C CNN
F 4 "B4B-PH-SM4-TB(LF)(SN)" H 1800 1450 60  0001 C CNN "Réf fab"
F 5 "Value" H 1800 1450 60  0001 C CNN "Code commande"
F 6 "Farnell" H 1800 1450 60  0001 C CNN "Distributeur"
F 7 "0.0" H 1800 1450 60  0001 C CNN "Prix"
	1    1800 1450
	0    1    1    0   
$EndComp
$Comp
L GND #PWR038
U 1 1 5AD5A7FF
P 1450 1650
F 0 "#PWR038" H 1450 1400 50  0001 C CNN
F 1 "GND" H 1450 1500 50  0000 C CNN
F 2 "" H 1450 1650 50  0000 C CNN
F 3 "" H 1450 1650 50  0000 C CNN
	1    1450 1650
	1    0    0    -1  
$EndComp
Text GLabel 1350 1450 0    39   Input ~ 0
DP0
Text GLabel 1350 1350 0    39   Input ~ 0
DM0
$Comp
L USB_A P14
U 1 1 5AD5AFEE
P 1800 2300
F 0 "P14" H 2000 2100 50  0000 C CNN
F 1 "USB_A" H 1750 2500 50  0000 C CNN
F 2 "diskioPi:UX60SC-MB-5ST(80)" V 1750 2200 50  0001 C CNN
F 3 "" V 1750 2200 50  0000 C CNN
F 4 "UX60SC-MB-5ST(80)" H 1800 2300 60  0001 C CNN "Réf fab"
F 5 "Value" H 1800 2300 60  0001 C CNN "Code commande"
F 6 "Farnell" H 1800 2300 60  0001 C CNN "Distributeur"
F 7 "0.0" H 1800 2300 60  0001 C CNN "Prix"
	1    1800 2300
	0    1    1    0   
$EndComp
$Comp
L GND #PWR039
U 1 1 5AD5AFF4
P 1450 2500
F 0 "#PWR039" H 1450 2250 50  0001 C CNN
F 1 "GND" H 1450 2350 50  0000 C CNN
F 2 "" H 1450 2500 50  0000 C CNN
F 3 "" H 1450 2500 50  0000 C CNN
	1    1450 2500
	1    0    0    -1  
$EndComp
Text GLabel 1350 2300 0    39   Input ~ 0
DP0
Text GLabel 1350 2200 0    39   Input ~ 0
DM0
$Comp
L R R11
U 1 1 5AD5BE5D
P 6850 5650
F 0 "R11" V 6930 5650 50  0000 C CNN
F 1 "30k" V 6850 5650 50  0000 C CNN
F 2 "Resistors_SMD:R_0805_HandSoldering" V 6780 5650 50  0001 C CNN
F 3 "" H 6850 5650 50  0000 C CNN
F 4 "MCMR08X303 JTL " H 6850 5650 60  0001 C CNN "Réf fab"
F 5 "Value" H 6850 5650 60  0001 C CNN "Code commande"
F 6 "Farnell" H 6850 5650 60  0001 C CNN "Distributeur"
F 7 "0.0" H 6850 5650 60  0001 C CNN "Prix"
	1    6850 5650
	1    0    0    -1  
$EndComp
$Comp
L R R12
U 1 1 5AD5C16E
P 6850 6050
F 0 "R12" V 6930 6050 50  0000 C CNN
F 1 "30k" V 6850 6050 50  0000 C CNN
F 2 "Resistors_SMD:R_0805_HandSoldering" V 6780 6050 50  0001 C CNN
F 3 "" H 6850 6050 50  0000 C CNN
F 4 "MCMR08X303 JTL " H 6850 6050 60  0001 C CNN "Réf fab"
F 5 "Value" H 6850 6050 60  0001 C CNN "Code commande"
F 6 "Farnell" H 6850 6050 60  0001 C CNN "Distributeur"
F 7 "0.0" H 6850 6050 60  0001 C CNN "Prix"
	1    6850 6050
	1    0    0    -1  
$EndComp
$Comp
L GND #PWR040
U 1 1 5AD5C3B2
P 6850 6250
F 0 "#PWR040" H 6850 6000 50  0001 C CNN
F 1 "GND" H 6850 6100 50  0000 C CNN
F 2 "" H 6850 6250 50  0000 C CNN
F 3 "" H 6850 6250 50  0000 C CNN
	1    6850 6250
	1    0    0    -1  
$EndComp
Text GLabel 6750 5850 0    39   Input ~ 0
GL_OVCUR
Text GLabel 6250 3150 2    39   Input ~ 0
GL_OVCUR
$Comp
L DVDD #PWR041
U 1 1 5AD624C6
P 4400 1000
F 0 "#PWR041" H 4400 850 50  0001 C CNN
F 1 "DVDD" H 4400 1150 50  0000 C CNN
F 2 "" H 4400 1000 50  0000 C CNN
F 3 "" H 4400 1000 50  0000 C CNN
	1    4400 1000
	1    0    0    -1  
$EndComp
$Comp
L DVDD #PWR042
U 1 1 5AD62B5D
P 6550 2850
F 0 "#PWR042" H 6550 2700 50  0001 C CNN
F 1 "DVDD" H 6550 3000 50  0000 C CNN
F 2 "" H 6550 2850 50  0000 C CNN
F 3 "" H 6550 2850 50  0000 C CNN
	1    6550 2850
	1    0    0    -1  
$EndComp
$Comp
L DVDD #PWR043
U 1 1 5AD63588
P 7150 2900
F 0 "#PWR043" H 7150 2750 50  0001 C CNN
F 1 "DVDD" H 7150 3050 50  0000 C CNN
F 2 "" H 7150 2900 50  0000 C CNN
F 3 "" H 7150 2900 50  0000 C CNN
	1    7150 2900
	1    0    0    -1  
$EndComp
Text Notes 1300 3000 0    118  ~ 0
Entrée USB
Text Notes 6200 3250 0    39   ~ 0
NC
Text Notes 6200 3350 0    39   ~ 0
NC
Text Notes 6250 900  0    79   ~ 0
+3.3V
Text Notes 3850 900  0    79   ~ 0
+3.3V
Text Notes 10000 1600 0    79   ~ 0
USB A
Text Notes 9950 3150 0    79   ~ 0
USB A
Text Notes 9900 4600 0    79   ~ 0
USB JST TACTILE\n
Text Notes 9950 6050 0    79   ~ 0
USB JST\n
$Comp
L GND #PWR044
U 1 1 5AE03A07
P 9600 1900
F 0 "#PWR044" H 9600 1650 50  0001 C CNN
F 1 "GND" H 9600 1750 50  0000 C CNN
F 2 "" H 9600 1900 50  0000 C CNN
F 3 "" H 9600 1900 50  0000 C CNN
	1    9600 1900
	1    0    0    -1  
$EndComp
$Comp
L GND #PWR045
U 1 1 5AE03AAB
P 9650 3400
F 0 "#PWR045" H 9650 3150 50  0001 C CNN
F 1 "GND" H 9650 3250 50  0000 C CNN
F 2 "" H 9650 3400 50  0000 C CNN
F 3 "" H 9650 3400 50  0000 C CNN
	1    9650 3400
	1    0    0    -1  
$EndComp
$Comp
L GND #PWR046
U 1 1 5AE03F4B
P 9700 4850
F 0 "#PWR046" H 9700 4600 50  0001 C CNN
F 1 "GND" H 9700 4700 50  0000 C CNN
F 2 "" H 9700 4850 50  0000 C CNN
F 3 "" H 9700 4850 50  0000 C CNN
	1    9700 4850
	1    0    0    -1  
$EndComp
$Comp
L GND #PWR047
U 1 1 5AE03FEF
P 9700 6300
F 0 "#PWR047" H 9700 6050 50  0001 C CNN
F 1 "GND" H 9700 6150 50  0000 C CNN
F 2 "" H 9700 6300 50  0000 C CNN
F 3 "" H 9700 6300 50  0000 C CNN
	1    9700 6300
	1    0    0    -1  
$EndComp
$Comp
L L_Small L3
U 1 1 5AE05F0C
P 9800 2300
F 0 "L3" H 9830 2340 50  0000 L CNN
F 1 "L_Small" H 9830 2260 50  0000 L CNN
F 2 "Resistors_SMD:R_0805_HandSoldering" H 9800 2300 50  0001 C CNN
F 3 "" H 9800 2300 50  0000 C CNN
F 4 "2508056017Y2" H 9800 2300 60  0001 C CNN "Réf fab"
F 5 "1838838" H 9800 2300 60  0001 C CNN "Code commande"
F 6 "Farnell" H 9800 2300 60  0001 C CNN "Distributeur"
F 7 "0.0" H 9800 2300 60  0001 C CNN "Prix"
	1    9800 2300
	0    -1   -1   0   
$EndComp
$Comp
L L_Small L4
U 1 1 5AE05FEF
P 9850 3750
F 0 "L4" H 9880 3790 50  0000 L CNN
F 1 "L_Small" H 9880 3710 50  0000 L CNN
F 2 "Resistors_SMD:R_0805_HandSoldering" H 9850 3750 50  0001 C CNN
F 3 "" H 9850 3750 50  0000 C CNN
F 4 "2508056017Y2" H 9850 3750 60  0001 C CNN "Réf fab"
F 5 "1838838" H 9850 3750 60  0001 C CNN "Code commande"
F 6 "Farnell" H 9850 3750 60  0001 C CNN "Distributeur"
F 7 "0.0" H 9850 3750 60  0001 C CNN "Prix"
	1    9850 3750
	0    -1   -1   0   
$EndComp
$Comp
L L_Small L5
U 1 1 5AE063FD
P 9850 5200
F 0 "L5" H 9880 5240 50  0000 L CNN
F 1 "L_Small" H 9880 5160 50  0000 L CNN
F 2 "Resistors_SMD:R_0805_HandSoldering" H 9850 5200 50  0001 C CNN
F 3 "" H 9850 5200 50  0000 C CNN
F 4 "2508056017Y2" H 9850 5200 60  0001 C CNN "Réf fab"
F 5 "1838838" H 9850 5200 60  0001 C CNN "Code commande"
F 6 "Farnell" H 9850 5200 60  0001 C CNN "Distributeur"
F 7 "0.0" H 9850 5200 60  0001 C CNN "Prix"
	1    9850 5200
	0    -1   -1   0   
$EndComp
$Comp
L L_Small L6
U 1 1 5AE07659
P 5300 1150
F 0 "L6" H 5330 1190 50  0000 L CNN
F 1 "L_Small" H 5330 1110 50  0000 L CNN
F 2 "Resistors_SMD:R_0805_HandSoldering" H 5300 1150 50  0001 C CNN
F 3 "" H 5300 1150 50  0000 C CNN
F 4 "2508056017Y2" H 5300 1150 60  0001 C CNN "Réf fab"
F 5 "1838838" H 5300 1150 60  0001 C CNN "Code commande"
F 6 "Farnell" H 5300 1150 60  0001 C CNN "Distributeur"
F 7 "0.0" H 5300 1150 60  0001 C CNN "Prix"
	1    5300 1150
	0    -1   -1   0   
$EndComp
$Comp
L GND #PWR048
U 1 1 5AE0EF85
P 1900 2600
F 0 "#PWR048" H 1900 2350 50  0001 C CNN
F 1 "GND" H 1900 2450 50  0000 C CNN
F 2 "" H 1900 2600 50  0000 C CNN
F 3 "" H 1900 2600 50  0000 C CNN
	1    1900 2600
	1    0    0    -1  
$EndComp
$Comp
L GND #PWR049
U 1 1 5AE0F026
P 1900 1750
F 0 "#PWR049" H 1900 1500 50  0001 C CNN
F 1 "GND" H 1900 1600 50  0000 C CNN
F 2 "" H 1900 1750 50  0000 C CNN
F 3 "" H 1900 1750 50  0000 C CNN
	1    1900 1750
	1    0    0    -1  
$EndComp
Text GLabel 10300 2300 2    39   Input ~ 0
+5V_USB_2
Text GLabel 10350 3750 2    39   Input ~ 0
+5V_USB_3
Text GLabel 10350 5200 2    39   Input ~ 0
+5V_USB_4
$Comp
L +5V #PWR050
U 1 1 5AE168A4
P 6750 2950
F 0 "#PWR050" H 6750 2800 50  0001 C CNN
F 1 "+5V" H 6750 3090 50  0000 C CNN
F 2 "" H 6750 2950 50  0000 C CNN
F 3 "" H 6750 2950 50  0000 C CNN
	1    6750 2950
	1    0    0    -1  
$EndComp
$Comp
L SY6280AAC U7
U 1 1 5AE19E1C
P 5500 6900
F 0 "U7" H 5500 7175 50  0000 C CNN
F 1 "SY6280AAC" H 5500 7100 50  0000 C CNN
F 2 "diskioPi:SOT-23-5_SY6280AAC" H 5500 6900 50  0001 C CNN
F 3 "" H 5500 6900 50  0000 C CNN
F 4 "SY6280AAC" H 5500 6900 60  0001 C CNN "Réf fab"
F 5 "Value" H 5500 6900 60  0001 C CNN "Code commande"
F 6 "Farnell" H 5500 6900 60  0001 C CNN "Distributeur"
F 7 "0.0" H 5500 6900 60  0001 C CNN "Prix"
	1    5500 6900
	1    0    0    -1  
$EndComp
$Comp
L GND #PWR051
U 1 1 5AE19F0E
P 5500 7200
F 0 "#PWR051" H 5500 6950 50  0001 C CNN
F 1 "GND" H 5500 7050 50  0000 C CNN
F 2 "" H 5500 7200 50  0000 C CNN
F 3 "" H 5500 7200 50  0000 C CNN
	1    5500 7200
	1    0    0    -1  
$EndComp
$Comp
L R R1
U 1 1 5AE1AA0C
P 5950 7200
F 0 "R1" V 6030 7200 50  0000 C CNN
F 1 "6.8K" V 5950 7200 50  0000 C CNN
F 2 "Resistors_SMD:R_0805_HandSoldering" V 5880 7200 50  0001 C CNN
F 3 "" H 5950 7200 50  0000 C CNN
F 4 "MCMR08X682 JTL" H 5950 7200 60  0001 C CNN "Réf fab"
F 5 "Value" H 5950 7200 60  0001 C CNN "Code commande"
F 6 "Farnell" H 5950 7200 60  0001 C CNN "Distributeur"
F 7 "0.0" H 5950 7200 60  0001 C CNN "Prix"
	1    5950 7200
	1    0    0    -1  
$EndComp
$Comp
L GND #PWR052
U 1 1 5AE1AAE3
P 5950 7400
F 0 "#PWR052" H 5950 7150 50  0001 C CNN
F 1 "GND" H 5950 7250 50  0000 C CNN
F 2 "" H 5950 7400 50  0000 C CNN
F 3 "" H 5950 7400 50  0000 C CNN
	1    5950 7400
	1    0    0    -1  
$EndComp
$Comp
L +5V #PWR053
U 1 1 5AE1B2C1
P 5000 6750
F 0 "#PWR053" H 5000 6600 50  0001 C CNN
F 1 "+5V" H 5000 6890 50  0000 C CNN
F 2 "" H 5000 6750 50  0000 C CNN
F 3 "" H 5000 6750 50  0000 C CNN
	1    5000 6750
	1    0    0    -1  
$EndComp
Text GLabel 6400 6850 2    39   Input ~ 0
+5V_USB_1
Text GLabel 6400 7000 2    39   Input ~ 0
+5V_USB_2
Text GLabel 6400 7150 2    39   Input ~ 0
+5V_USB_3
Text GLabel 6400 7300 2    39   Input ~ 0
+5V_USB_4
$Comp
L C C22
U 1 1 5AE1FD9D
P 6750 3100
F 0 "C22" H 6775 3200 50  0000 L CNN
F 1 "100nF" H 6775 3000 50  0000 L CNN
F 2 "Capacitors_SMD:C_0805_HandSoldering" H 6788 2950 50  0001 C CNN
F 3 "" H 6750 3100 50  0000 C CNN
F 4 "0805F106Z100CT" H 6750 3100 60  0001 C CNN "Réf fab"
F 5 "Value" H 6750 3100 60  0001 C CNN "Code commande"
F 6 "Farnell" H 6750 3100 60  0001 C CNN "Distributeur"
F 7 "0.0" H 6750 3100 60  0001 C CNN "Prix"
	1    6750 3100
	1    0    0    -1  
$EndComp
$Comp
L GND #PWR054
U 1 1 5AE20052
P 6750 3250
F 0 "#PWR054" H 6750 3000 50  0001 C CNN
F 1 "GND" H 6750 3100 50  0000 C CNN
F 2 "" H 6750 3250 50  0000 C CNN
F 3 "" H 6750 3250 50  0000 C CNN
	1    6750 3250
	1    0    0    -1  
$EndComp
Text Notes 6150 7550 0    79   ~ 0
1000mA
$Comp
L R R2
U 1 1 5AE250D3
P 7450 3100
F 0 "R2" V 7530 3100 50  0000 C CNN
F 1 "10k" V 7450 3100 50  0000 C CNN
F 2 "Resistors_SMD:R_0805_HandSoldering" V 7380 3100 50  0001 C CNN
F 3 "" H 7450 3100 50  0000 C CNN
F 4 "MCWR08X1002FTL" H 7450 3100 60  0001 C CNN "Réf fab"
F 5 "Value" H 7450 3100 60  0001 C CNN "Code commande"
F 6 "Farnell" H 7450 3100 60  0001 C CNN "Distributeur"
F 7 "0.0" H 7450 3100 60  0001 C CNN "Prix"
	1    7450 3100
	1    0    0    -1  
$EndComp
$Comp
L DVDD #PWR055
U 1 1 5AE25438
P 7450 2900
F 0 "#PWR055" H 7450 2750 50  0001 C CNN
F 1 "DVDD" H 7450 3050 50  0000 C CNN
F 2 "" H 7450 2900 50  0000 C CNN
F 3 "" H 7450 2900 50  0000 C CNN
	1    7450 2900
	1    0    0    -1  
$EndComp
$Comp
L +5V #PWR056
U 1 1 5AE31510
P 4700 4550
F 0 "#PWR056" H 4700 4400 50  0001 C CNN
F 1 "+5V" H 4700 4690 50  0000 C CNN
F 2 "" H 4700 4550 50  0000 C CNN
F 3 "" H 4700 4550 50  0000 C CNN
	1    4700 4550
	1    0    0    -1  
$EndComp
$Comp
L GND #PWR057
U 1 1 5AE32713
P 4800 3750
F 0 "#PWR057" H 4800 3500 50  0001 C CNN
F 1 "GND" H 4800 3600 50  0000 C CNN
F 2 "" H 4800 3750 50  0000 C CNN
F 3 "" H 4800 3750 50  0000 C CNN
	1    4800 3750
	1    0    0    -1  
$EndComp
Wire Wire Line
	9200 1400 9150 1400
Wire Wire Line
	9200 1700 9150 1700
Wire Wire Line
	9150 1700 9150 1800
Wire Wire Line
	9200 1500 9050 1500
Wire Wire Line
	9200 1600 9050 1600
Wire Wire Line
	6150 2450 6250 2450
Wire Wire Line
	6250 2550 6150 2550
Wire Wire Line
	6150 2650 6250 2650
Wire Wire Line
	6250 2750 6150 2750
Wire Wire Line
	9250 2900 9200 2900
Wire Wire Line
	9250 3200 9200 3200
Wire Wire Line
	9200 3200 9200 3300
Wire Wire Line
	9250 3000 9100 3000
Wire Wire Line
	9250 3100 9100 3100
Wire Wire Line
	4900 2550 4800 2550
Wire Wire Line
	4800 2650 4900 2650
Wire Wire Line
	9250 4350 9300 4350
Wire Wire Line
	9250 3750 9250 4350
Wire Wire Line
	9300 4650 9250 4650
Wire Wire Line
	9250 4650 9250 4750
Wire Wire Line
	9300 4450 9150 4450
Wire Wire Line
	9300 4550 9150 4550
Wire Wire Line
	4900 3450 4800 3450
Wire Wire Line
	4800 3550 4900 3550
Wire Wire Line
	4900 3150 4800 3150
Wire Wire Line
	4800 3250 4900 3250
Wire Wire Line
	9300 5800 9250 5800
Wire Wire Line
	9300 6100 9250 6100
Wire Wire Line
	9250 6100 9250 6200
Wire Wire Line
	9300 5900 9150 5900
Wire Wire Line
	9300 6000 9150 6000
Wire Wire Line
	4900 3050 4100 3050
Wire Wire Line
	4100 3050 4100 3500
Wire Wire Line
	4900 2950 3800 2950
Wire Wire Line
	3800 2950 3800 3500
Connection ~ 4100 3300
Connection ~ 3800 3300
Wire Wire Line
	3800 3800 3800 3950
Wire Wire Line
	3800 3850 4100 3850
Wire Wire Line
	4100 3850 4100 3800
Connection ~ 3800 3850
Wire Wire Line
	4900 2450 4450 2450
Wire Wire Line
	4450 2300 4450 3350
Wire Wire Line
	4450 2850 4900 2850
Wire Wire Line
	4450 3350 4900 3350
Connection ~ 4450 2850
Connection ~ 4450 2450
Wire Wire Line
	4700 4900 4700 5000
Wire Wire Line
	4700 5300 4700 5400
Wire Wire Line
	4700 5350 5050 5350
Wire Wire Line
	5050 5350 5050 5300
Wire Wire Line
	5050 4950 5050 5000
Wire Wire Line
	4550 4950 5050 4950
Connection ~ 4700 4950
Wire Wire Line
	4700 4600 4700 4550
Connection ~ 4700 5350
Wire Wire Line
	4900 3650 4800 3650
Wire Wire Line
	6150 3450 7150 3450
Wire Wire Line
	7150 3450 7150 3250
Wire Wire Line
	4400 1000 4400 1200
Wire Wire Line
	4400 1150 5200 1150
Wire Wire Line
	4750 1150 4750 1200
Wire Wire Line
	4750 1500 4750 1550
Wire Wire Line
	4400 1550 5000 1550
Wire Wire Line
	4400 1500 4400 1600
Wire Wire Line
	5000 1550 5000 1500
Connection ~ 4750 1550
Wire Wire Line
	5000 1150 5000 1200
Connection ~ 4750 1150
Connection ~ 4400 1150
Connection ~ 4400 1550
Connection ~ 5000 1150
Wire Wire Line
	5400 1150 6600 1150
Wire Wire Line
	5500 1150 5500 1200
Wire Wire Line
	6000 1150 6000 1200
Connection ~ 5500 1150
Wire Wire Line
	5750 1200 5750 1150
Connection ~ 5750 1150
Wire Wire Line
	5500 1500 5500 1600
Wire Wire Line
	5500 1550 6600 1550
Wire Wire Line
	6000 1550 6000 1500
Connection ~ 5500 1550
Wire Wire Line
	6600 1550 6600 1500
Connection ~ 6000 1550
Wire Wire Line
	6600 1150 6600 1200
Connection ~ 6000 1150
Wire Wire Line
	5750 1500 5750 1550
Connection ~ 5750 1550
Wire Wire Line
	6250 1000 6300 1000
Wire Wire Line
	6150 3650 6500 3650
Wire Wire Line
	6150 3750 6200 3750
Wire Wire Line
	6200 3750 6200 3800
Wire Wire Line
	4900 2750 4850 2750
Wire Wire Line
	4550 2750 4250 2750
Wire Wire Line
	4900 3750 4800 3750
Wire Wire Line
	9250 3750 9750 3750
Connection ~ 9600 3750
Wire Wire Line
	9950 3750 10350 3750
Connection ~ 10050 3750
Wire Wire Line
	9200 2900 9200 2300
Wire Wire Line
	9200 2300 9700 2300
Connection ~ 9550 2300
Wire Wire Line
	9900 2300 10300 2300
Connection ~ 10000 2300
Wire Wire Line
	9150 1400 9150 800 
Wire Wire Line
	9150 800  9650 800 
Connection ~ 9500 800 
Wire Wire Line
	9850 800  10250 800 
Connection ~ 9950 800 
Wire Wire Line
	9250 5800 9250 5200
Wire Wire Line
	9250 5200 9750 5200
Connection ~ 9600 5200
Wire Wire Line
	9950 5200 10350 5200
Connection ~ 10050 5200
Wire Wire Line
	1500 1550 1450 1550
Wire Wire Line
	1450 1550 1450 1650
Wire Wire Line
	1500 1350 1350 1350
Wire Wire Line
	1500 1450 1350 1450
Wire Wire Line
	1500 2400 1450 2400
Wire Wire Line
	1450 2400 1450 2500
Wire Wire Line
	1500 2200 1350 2200
Wire Wire Line
	1500 2300 1350 2300
Wire Wire Line
	6850 5800 6850 5900
Wire Wire Line
	6850 6200 6850 6250
Wire Wire Line
	6850 5850 6750 5850
Connection ~ 6850 5850
Wire Wire Line
	6250 3150 6150 3150
Wire Wire Line
	6150 2850 6550 2850
Wire Wire Line
	6150 2950 6750 2950
Wire Wire Line
	6150 3550 7450 3550
Wire Wire Line
	6250 1000 6250 1150
Connection ~ 6250 1150
Wire Wire Line
	5500 7150 5500 7200
Wire Wire Line
	5900 6950 5950 6950
Wire Wire Line
	5950 6950 5950 7050
Wire Wire Line
	5950 7350 5950 7400
Wire Wire Line
	5900 6850 6400 6850
Wire Wire Line
	5100 6850 5000 6850
Wire Wire Line
	5000 6750 5000 6950
Wire Wire Line
	6250 7300 6400 7300
Wire Wire Line
	6250 5450 6250 7300
Connection ~ 6250 6850
Wire Wire Line
	6400 7000 6250 7000
Connection ~ 6250 7000
Wire Wire Line
	6400 7150 6250 7150
Connection ~ 6250 7150
Wire Wire Line
	5000 6950 5100 6950
Connection ~ 5000 6850
Connection ~ 6750 2950
Wire Wire Line
	7150 2950 7150 2900
Wire Wire Line
	6850 5450 6850 5500
Wire Wire Line
	7450 3550 7450 3250
Wire Wire Line
	7450 2950 7450 2900
Wire Notes Line
	1300 950  2800 950 
Wire Notes Line
	2800 950  2800 3100
Wire Notes Line
	2800 3100 1000 3100
Wire Notes Line
	1000 3100 1000 950 
Wire Notes Line
	1000 950  1450 950 
Wire Notes Line
	3500 600  8000 600 
Wire Notes Line
	8000 600  8000 5200
Wire Notes Line
	8000 5200 5600 5200
Wire Notes Line
	5600 5200 5600 5600
Wire Notes Line
	5600 5600 3350 5600
Wire Notes Line
	3350 5600 3350 600 
Wire Notes Line
	3350 600  3550 600 
Wire Wire Line
	6850 5450 6250 5450
$Comp
L C C24
U 1 1 5AE9D6BD
P 5000 7100
F 0 "C24" H 5025 7200 50  0000 L CNN
F 1 "100nF" H 5025 7000 50  0000 L CNN
F 2 "Capacitors_SMD:C_0805_HandSoldering" H 5038 6950 50  0001 C CNN
F 3 "" H 5000 7100 50  0000 C CNN
F 4 "0805F106Z100CT" H 5000 7100 60  0001 C CNN "Réf fab"
F 5 "Value" H 5000 7100 60  0001 C CNN "Code commande"
F 6 "Farnell" H 5000 7100 60  0001 C CNN "Distributeur"
F 7 "0.0" H 5000 7100 60  0001 C CNN "Prix"
	1    5000 7100
	1    0    0    -1  
$EndComp
$Comp
L GND #PWR058
U 1 1 5AE9D78E
P 5000 7250
F 0 "#PWR058" H 5000 7000 50  0001 C CNN
F 1 "GND" H 5000 7100 50  0000 C CNN
F 2 "" H 5000 7250 50  0000 C CNN
F 3 "" H 5000 7250 50  0000 C CNN
	1    5000 7250
	1    0    0    -1  
$EndComp
Connection ~ 5000 6950
$Comp
L DVDD #PWR059
U 1 1 5AF2CBB4
P 6800 3850
F 0 "#PWR059" H 6800 3700 50  0001 C CNN
F 1 "DVDD" H 6800 4000 50  0000 C CNN
F 2 "" H 6800 3850 50  0000 C CNN
F 3 "" H 6800 3850 50  0000 C CNN
	1    6800 3850
	1    0    0    -1  
$EndComp
Wire Wire Line
	6800 3850 6500 3850
Wire Wire Line
	6500 3850 6500 3650
$EndSCHEMATC
