EESchema Schematic File Version 2
LIBS:power
LIBS:device
LIBS:transistors
LIBS:conn
LIBS:linear
LIBS:regul
LIBS:74xx
LIBS:cmos4000
LIBS:adc-dac
LIBS:memory
LIBS:xilinx
LIBS:microcontrollers
LIBS:dsp
LIBS:microchip
LIBS:analog_switches
LIBS:motorola
LIBS:texas
LIBS:intel
LIBS:audio
LIBS:interface
LIBS:digital-audio
LIBS:philips
LIBS:display
LIBS:cypress
LIBS:siliconi
LIBS:opto
LIBS:atmel
LIBS:contrib
LIBS:valves
LIBS:MACE_LIB
LIBS:CarteRack-cache
LIBS:CB10LV102M
LIBS:LM3150MH
LIBS:+9v
LIBS:+12v
LIBS:4p04l03
LIBS:carte_mere-cache
LIBS:carte_mere-rescue
LIBS:gl850g-lqfp-48
LIBS:gl850g-qfn-28
LIBS:gl850g-ssop-28
LIBS:hub_usb2-rescue
LIBS:molex-505110-1992
LIBS:prtr5v0u4d,125
LIBS:CarteMere-cache
EELAYER 25 0
EELAYER END
$Descr A4 11693 8268
encoding utf-8
Sheet 2 7
Title "Carte mere Diskio Pi"
Date "09/05/2018"
Rev "0.1"
Comp ""
Comment1 ""
Comment2 ""
Comment3 ""
Comment4 ""
$EndDescr
$Comp
L LM3150MHXNOPB U3
U 1 1 5AC7431C
P 4950 3950
F 0 "U3" H 4925 4700 60  0000 C CNN
F 1 "LM3150MHXNOPB" H 4975 4600 60  0000 C CNN
F 2 "diskioPi:LM3150MHXNOPB" H 8300 6040 60  0001 C CNN
F 3 "" H 7100 5800 60  0000 C CNN
F 4 "LM3150MHX/NOPB" H 4950 3950 60  0001 C CNN "Réf fab"
F 5 "2781846" H 4950 3950 60  0001 C CNN "Code commande"
F 6 "Farnell" H 4950 3950 60  0001 C CNN "Distributeur"
F 7 "0.0" H 4950 3950 60  0001 C CNN "Prix"
	1    4950 3950
	1    0    0    -1  
$EndComp
$Comp
L +9V #PWR02
U 1 1 5AC755B5
P 3300 2250
F 0 "#PWR02" H 3300 2100 50  0001 C CNN
F 1 "+9V" H 3300 2390 50  0000 C CNN
F 2 "" H 3300 2250 50  0000 C CNN
F 3 "" H 3300 2250 50  0000 C CNN
	1    3300 2250
	1    0    0    -1  
$EndComp
$Comp
L R R3
U 1 1 5AC75709
P 3450 3600
F 0 "R3" V 3530 3600 50  0000 C CNN
F 1 "154K" V 3450 3600 50  0000 C CNN
F 2 "Resistors_SMD:R_0805_HandSoldering" V 3380 3600 50  0001 C CNN
F 3 "" H 3450 3600 50  0000 C CNN
F 4 "CRCW0805154KFKEA" H 3450 3600 60  0001 C CNN "Réf fab"
F 5 "1692531" H 3450 3600 60  0001 C CNN "Code commande"
F 6 "Farnell" H 3450 3600 60  0001 C CNN "Distributeur"
F 7 "0.0" H 3450 3600 60  0001 C CNN "Prix"
	1    3450 3600
	0    1    1    0   
$EndComp
$Comp
L C C2
U 1 1 5AC74059
P 3100 3650
F 0 "C2" H 3125 3750 50  0000 L CNN
F 1 "100nF" H 3125 3550 50  0000 L CNN
F 2 "Capacitors_SMD:C_0805_HandSoldering" H 3138 3500 50  0001 C CNN
F 3 "" H 3100 3650 50  0000 C CNN
F 4 "0805F106Z100CT " H 3100 3650 60  0001 C CNN "Réf fab"
F 5 "Value" H 3100 3650 60  0001 C CNN "Code commande"
F 6 "Farnell" H 3100 3650 60  0001 C CNN "Distributeur"
F 7 "0.0" H 3100 3650 60  0001 C CNN "Prix"
	1    3100 3650
	1    0    0    -1  
$EndComp
$Comp
L C C1
U 1 1 5AC740C1
P 2800 3650
F 0 "C1" H 2825 3750 50  0000 L CNN
F 1 "10uF" H 2825 3550 50  0000 L CNN
F 2 "Capacitors_SMD:C_0805_HandSoldering" H 2838 3500 50  0001 C CNN
F 3 "" H 2800 3650 50  0000 C CNN
F 4 "0805F106Z100CT " H 2800 3650 60  0001 C CNN "Réf fab"
F 5 "Value" H 2800 3650 60  0001 C CNN "Code commande"
F 6 "Farnell" H 2800 3650 60  0001 C CNN "Distributeur"
F 7 "0.0" H 2800 3650 60  0001 C CNN "Prix"
	1    2800 3650
	1    0    0    -1  
$EndComp
$Comp
L GND #PWR03
U 1 1 5AC74108
P 2800 3850
F 0 "#PWR03" H 2800 3600 50  0001 C CNN
F 1 "GND" H 2800 3700 50  0000 C CNN
F 2 "" H 2800 3850 50  0000 C CNN
F 3 "" H 2800 3850 50  0000 C CNN
	1    2800 3850
	1    0    0    -1  
$EndComp
$Comp
L C C3
U 1 1 5AC743BD
P 3300 3950
F 0 "C3" H 3325 4050 50  0000 L CNN
F 1 "15nF" H 3325 3850 50  0000 L CNN
F 2 "Capacitors_SMD:C_0805_HandSoldering" H 3338 3800 50  0001 C CNN
F 3 "" H 3300 3950 50  0000 C CNN
F 4 "MC0805F153Z500CT " H 3300 3950 60  0001 C CNN "Réf fab"
F 5 "Value" H 3300 3950 60  0001 C CNN "Code commande"
F 6 "Farnell" H 3300 3950 60  0001 C CNN "Distributeur"
F 7 "0.0" H 3300 3950 60  0001 C CNN "Prix"
	1    3300 3950
	1    0    0    -1  
$EndComp
$Comp
L GND #PWR04
U 1 1 5AC74405
P 3300 4150
F 0 "#PWR04" H 3300 3900 50  0001 C CNN
F 1 "GND" H 3300 4000 50  0000 C CNN
F 2 "" H 3300 4150 50  0000 C CNN
F 3 "" H 3300 4150 50  0000 C CNN
	1    3300 4150
	1    0    0    -1  
$EndComp
$Comp
L GND #PWR05
U 1 1 5AC7470C
P 3700 4250
F 0 "#PWR05" H 3700 4000 50  0001 C CNN
F 1 "GND" H 3700 4100 50  0000 C CNN
F 2 "" H 3700 4250 50  0000 C CNN
F 3 "" H 3700 4250 50  0000 C CNN
	1    3700 4250
	1    0    0    -1  
$EndComp
$Comp
L GND #PWR06
U 1 1 5AC749D7
P 4600 4750
F 0 "#PWR06" H 4600 4500 50  0001 C CNN
F 1 "GND" H 4600 4600 50  0000 C CNN
F 2 "" H 4600 4750 50  0000 C CNN
F 3 "" H 4600 4750 50  0000 C CNN
	1    4600 4750
	1    0    0    -1  
$EndComp
$Comp
L C C30
U 1 1 5AD73EFF
P 6550 3600
F 0 "C30" H 6575 3700 50  0000 L CNN
F 1 "1uF" H 6575 3500 50  0000 L CNN
F 2 "Capacitors_SMD:C_0805_HandSoldering" H 6588 3450 50  0001 C CNN
F 3 "" H 6550 3600 50  0000 C CNN
F 4 "GRM219F51E105ZA01D " H 6550 3600 60  0001 C CNN "Réf fab"
F 5 "Value" H 6550 3600 60  0001 C CNN "Code commande"
F 6 "Farnell" H 6550 3600 60  0001 C CNN "Distributeur"
F 7 "0.0" H 6550 3600 60  0001 C CNN "Prix"
	1    6550 3600
	0    1    1    0   
$EndComp
$Comp
L GND #PWR07
U 1 1 5AD73FF5
P 7000 3650
F 0 "#PWR07" H 7000 3400 50  0001 C CNN
F 1 "GND" H 7000 3500 50  0000 C CNN
F 2 "" H 7000 3650 50  0000 C CNN
F 3 "" H 7000 3650 50  0000 C CNN
	1    7000 3650
	1    0    0    -1  
$EndComp
$Comp
L C C29
U 1 1 5AD741C4
P 6350 3750
F 0 "C29" H 6375 3850 50  0000 L CNN
F 1 "680nF" H 6375 3650 50  0000 L CNN
F 2 "Capacitors_SMD:C_0805_HandSoldering" H 6388 3600 50  0001 C CNN
F 3 "" H 6350 3750 50  0000 C CNN
F 4 "MC0805F684Z160CT " H 6350 3750 60  0001 C CNN "Réf fab"
F 5 "Value" H 6350 3750 60  0001 C CNN "Code commande"
F 6 "Farnell" H 6350 3750 60  0001 C CNN "Distributeur"
F 7 "0.0" H 6350 3750 60  0001 C CNN "Prix"
	1    6350 3750
	0    1    1    0   
$EndComp
$Comp
L R R18
U 1 1 5AD744D2
P 6350 4050
F 0 "R18" V 6430 4050 50  0000 C CNN
F 1 "464" V 6350 4050 50  0000 C CNN
F 2 "Resistors_SMD:R_0805_HandSoldering" V 6280 4050 50  0001 C CNN
F 3 "" H 6350 4050 50  0000 C CNN
F 4 "CRCW0805464RFKEA" H 6350 4050 60  0001 C CNN "Réf fab"
F 5 "1653004" H 6350 4050 60  0001 C CNN "Code commande"
F 6 "Farnell" H 6350 4050 60  0001 C CNN "Distributeur"
F 7 "0.0" H 6350 4050 60  0001 C CNN "Prix"
	1    6350 4050
	0    1    1    0   
$EndComp
$Comp
L CSD17307Q5A Q3
U 1 1 5AD77E90
P 7700 3100
F 0 "Q3" H 7500 3400 50  0000 L CNN
F 1 "CSD17307Q5A" H 7500 2850 50  0000 L CNN
F 2 "diskioPi:CSD17307Q5A" H 7700 3300 50  0001 C CIN
F 3 "" V 7700 3100 50  0000 L CNN
F 4 "CSD17307Q5A" H 7700 3100 60  0001 C CNN "Réf fab"
F 5 "Value" H 7700 3100 60  0001 C CNN "Code commande"
F 6 "Farnell" H 7700 3100 60  0001 C CNN "Distributeur"
F 7 "0.0" H 7700 3100 60  0001 C CNN "Prix"
	1    7700 3100
	-1   0    0    -1  
$EndComp
$Comp
L GND #PWR08
U 1 1 5AD78EDB
P 8200 4700
F 0 "#PWR08" H 8200 4450 50  0001 C CNN
F 1 "GND" H 8200 4550 50  0000 C CNN
F 2 "" H 8200 4700 50  0000 C CNN
F 3 "" H 8200 4700 50  0000 C CNN
	1    8200 4700
	1    0    0    -1  
$EndComp
$Comp
L L L7
U 1 1 5AD79670
P 8550 3900
F 0 "L7" V 8500 3900 50  0000 C CNN
F 1 "6.5uH" V 8625 3900 50  0000 C CNN
F 2 "diskioPi:SRR1208-6R5ML" H 8550 3900 50  0001 C CNN
F 3 "" H 8550 3900 50  0001 C CNN
F 4 "SRR1208-6R5ML" H 8550 3900 60  0001 C CNN "Réf fab"
F 5 "Value" H 8550 3900 60  0001 C CNN "Code commande"
F 6 "mouser" H 8550 3900 60  0001 C CNN "Distributeur"
F 7 "0.0" H 8550 3900 60  0001 C CNN "Prix"
	1    8550 3900
	0    1    -1   0   
$EndComp
$Comp
L C C31
U 1 1 5AD79D68
P 8750 4050
F 0 "C31" H 8775 4150 50  0000 L CNN
F 1 "680pF" H 8775 3950 50  0000 L CNN
F 2 "Capacitors_SMD:C_0805_HandSoldering" H 8788 3900 50  0001 C CNN
F 3 "" H 8750 4050 50  0000 C CNN
F 4 "MC0805B681K101CT " H 8750 4050 60  0001 C CNN "Réf fab"
F 5 "Value" H 8750 4050 60  0001 C CNN "Code commande"
F 6 "Farnell" H 8750 4050 60  0001 C CNN "Distributeur"
F 7 "0.0" H 8750 4050 60  0001 C CNN "Prix"
	1    8750 4050
	1    0    0    -1  
$EndComp
$Comp
L R R19
U 1 1 5AD79E21
P 9200 4050
F 0 "R19" V 9280 4050 50  0000 C CNN
F 1 "80.6K" V 9200 4050 50  0000 C CNN
F 2 "Resistors_SMD:R_0805_HandSoldering" V 9130 4050 50  0001 C CNN
F 3 "" H 9200 4050 50  0000 C CNN
F 4 "MCMR08X8062FTL" H 9200 4050 60  0001 C CNN "Réf fab"
F 5 "Value" H 9200 4050 60  0001 C CNN "Code commande"
F 6 "Farnell" H 9200 4050 60  0001 C CNN "Distributeur"
F 7 "0.0" H 9200 4050 60  0001 C CNN "Prix"
	1    9200 4050
	1    0    0    -1  
$EndComp
$Comp
L R R20
U 1 1 5AD79E71
P 9200 4450
F 0 "R20" V 9280 4450 50  0000 C CNN
F 1 "10.2K" V 9200 4450 50  0000 C CNN
F 2 "Resistors_SMD:R_0805_HandSoldering" V 9130 4450 50  0001 C CNN
F 3 "" H 9200 4450 50  0000 C CNN
F 4 "CRCW080510K2FKEA." H 9200 4450 60  0001 C CNN "Réf fab"
F 5 "Value" H 9200 4450 60  0001 C CNN "Code commande"
F 6 "Farnell" H 9200 4450 60  0001 C CNN "Distributeur"
F 7 "0.0" H 9200 4450 60  0001 C CNN "Prix"
	1    9200 4450
	1    0    0    -1  
$EndComp
$Comp
L GND #PWR09
U 1 1 5AD7A1B4
P 9200 4650
F 0 "#PWR09" H 9200 4400 50  0001 C CNN
F 1 "GND" H 9200 4500 50  0000 C CNN
F 2 "" H 9200 4650 50  0000 C CNN
F 3 "" H 9200 4650 50  0000 C CNN
	1    9200 4650
	1    0    0    -1  
$EndComp
$Comp
L CP C32
U 1 1 5AD7A52F
P 9500 4100
F 0 "C32" H 9525 4200 50  0000 L CNN
F 1 "10uF" H 9525 4000 50  0000 L CNN
F 2 "Capacitors_SMD:C_0805_HandSoldering" H 9538 3950 50  0001 C CNN
F 3 "" H 9500 4100 50  0000 C CNN
F 4 "CC0805ZKY5V6BB106" H 9500 4100 60  0001 C CNN "Réf fab"
F 5 "9402144" H 9500 4100 60  0001 C CNN "Code commande"
F 6 "Farnell" H 9500 4100 60  0001 C CNN "Distributeur"
F 7 "0.0" H 9500 4100 60  0001 C CNN "Prix"
	1    9500 4100
	1    0    0    -1  
$EndComp
Text GLabel 10650 3900 2    60   Input ~ 0
5V_4A
$Comp
L CSD17577Q5A Q4
U 1 1 5AD7D1C0
P 7700 4600
F 0 "Q4" H 7500 4900 50  0000 L CNN
F 1 "CSD17577Q5A" H 7500 4350 50  0000 L CNN
F 2 "diskioPi:CSD17307Q5A" H 7700 4800 50  0001 C CIN
F 3 "" V 7700 4600 50  0000 L CNN
F 4 "CSD17577Q5A" H 7700 4600 60  0001 C CNN "Réf fab"
F 5 "2447868" H 7700 4600 60  0001 C CNN "Code commande"
F 6 "Farnell" H 7700 4600 60  0001 C CNN "Distributeur"
F 7 "0.0" H 7700 4600 60  0001 C CNN "Prix"
	1    7700 4600
	-1   0    0    -1  
$EndComp
$Comp
L BARREL_JACK CON1
U 1 1 5AD84497
P 1150 2450
F 0 "CON1" H 1150 2700 50  0000 C CNN
F 1 "BARREL_JACK" H 1150 2250 50  0000 C CNN
F 2 "diskioPi:FC681465" H 1150 2450 50  0001 C CNN
F 3 "" H 1150 2450 50  0000 C CNN
F 4 "FC681465" H 1150 2450 60  0001 C CNN "Réf fab"
F 5 "1854514" H 1150 2450 60  0001 C CNN "Code commande"
F 6 "Farnell" H 1150 2450 60  0001 C CNN "Distributeur"
F 7 "0.0" H 1150 2450 60  0001 C CNN "Prix"
	1    1150 2450
	1    0    0    -1  
$EndComp
$Comp
L R R26
U 1 1 5AD9A73A
P 10600 4150
F 0 "R26" V 10680 4150 50  0000 C CNN
F 1 "R" V 10600 4150 50  0000 C CNN
F 2 "Resistors_SMD:R_0805_HandSoldering" V 10530 4150 50  0001 C CNN
F 3 "" H 10600 4150 50  0000 C CNN
F 4 "MC01W08055180R" H 10600 4150 60  0001 C CNN "Réf fab"
F 5 "Value" H 10600 4150 60  0001 C CNN "Code commande"
F 6 "Farnell" H 10600 4150 60  0001 C CNN "Distributeur"
F 7 "0.0" H 10600 4150 60  0001 C CNN "Prix"
	1    10600 4150
	1    0    0    -1  
$EndComp
$Comp
L LED D3
U 1 1 5AD9A79F
P 10600 4550
F 0 "D3" H 10600 4650 50  0000 C CNN
F 1 "LED" H 10600 4450 50  0000 C CNN
F 2 "lib_robot:0805_KPT-2012" H 10600 4550 50  0001 C CNN
F 3 "" H 10600 4550 50  0000 C CNN
F 4 "KPT-2012EC" H 10600 4550 60  0001 C CNN "Réf fab"
F 5 "Value" H 10600 4550 60  0001 C CNN "Code commande"
F 6 "Farnell" H 10600 4550 60  0001 C CNN "Distributeur"
F 7 "0.0" H 10600 4550 60  0001 C CNN "Prix"
	1    10600 4550
	0    -1   -1   0   
$EndComp
$Comp
L GND #PWR010
U 1 1 5AD9A9F2
P 10600 4800
F 0 "#PWR010" H 10600 4550 50  0001 C CNN
F 1 "GND" H 10600 4650 50  0000 C CNN
F 2 "" H 10600 4800 50  0000 C CNN
F 3 "" H 10600 4800 50  0000 C CNN
	1    10600 4800
	1    0    0    -1  
$EndComp
$Comp
L CONN_01X04 P17
U 1 1 5AD9CF72
P 4000 7150
F 0 "P17" H 4000 7400 50  0000 C CNN
F 1 "CONN_01X04" V 4100 7150 50  0000 C CNN
F 2 "diskioPi:SM04B-SRSS-TB(LF)(SN)" H 4000 7150 50  0001 C CNN
F 3 "" H 4000 7150 50  0000 C CNN
F 4 "SM04B-SRSS-TB(LF)(SN)" H 4000 7150 60  0001 C CNN "Réf fab"
F 5 "Value" H 4000 7150 60  0001 C CNN "Code commande"
F 6 "Farnell" H 4000 7150 60  0001 C CNN "Distributeur"
F 7 "0.0" H 4000 7150 60  0001 C CNN "Prix"
	1    4000 7150
	-1   0    0    1   
$EndComp
Text Notes 3400 6700 0    79   ~ 0
Connecteur vers carte bouton
Text GLabel 4300 7000 2    39   Input ~ 0
U_POSITION1
Text GLabel 4300 7100 2    39   Input ~ 0
U_POSITION3
$Comp
L +9V #PWR011
U 1 1 5AD9D971
P 5200 7050
F 0 "#PWR011" H 5200 6900 50  0001 C CNN
F 1 "+9V" H 5200 7190 50  0000 C CNN
F 2 "" H 5200 7050 50  0000 C CNN
F 3 "" H 5200 7050 50  0000 C CNN
	1    5200 7050
	1    0    0    -1  
$EndComp
$Comp
L GND #PWR012
U 1 1 5AD9DEB1
P 4300 7400
F 0 "#PWR012" H 4300 7150 50  0001 C CNN
F 1 "GND" H 4300 7250 50  0000 C CNN
F 2 "" H 4300 7400 50  0000 C CNN
F 3 "" H 4300 7400 50  0000 C CNN
	1    4300 7400
	1    0    0    -1  
$EndComp
Text GLabel 3250 4450 0    39   Input ~ 0
ENABLE_STEP_DOWN
$Comp
L CONN_01X02 P19
U 1 1 5ADA16DE
P 6450 7100
F 0 "P19" H 6450 7250 50  0000 C CNN
F 1 "CONN_01X02" V 6550 7100 50  0000 C CNN
F 2 "diskioPi:SM02B-PASS-TB(LF)(SN)" H 6450 7100 50  0001 C CNN
F 3 "" H 6450 7100 50  0000 C CNN
F 4 "SM02B-PASS-TB(LF)(SN)" H 6450 7100 60  0001 C CNN "Réf fab"
F 5 "Value" H 6450 7100 60  0001 C CNN "Code commande"
F 6 "Farnell" H 6450 7100 60  0001 C CNN "Distributeur"
F 7 "0.0" H 6450 7100 60  0001 C CNN "Prix"
	1    6450 7100
	1    0    0    -1  
$EndComp
Text GLabel 6150 7050 0    60   Input ~ 0
5V_4A
$Comp
L GND #PWR013
U 1 1 5ADA1D00
P 6200 7250
F 0 "#PWR013" H 6200 7000 50  0001 C CNN
F 1 "GND" H 6200 7100 50  0000 C CNN
F 2 "" H 6200 7250 50  0000 C CNN
F 3 "" H 6200 7250 50  0000 C CNN
	1    6200 7250
	1    0    0    -1  
$EndComp
Text Notes 6700 6850 2    79   ~ 0
Power écran
$Comp
L CONN_01X02 P20
U 1 1 5ADA3F98
P 1850 6550
F 0 "P20" H 1850 6700 50  0000 C CNN
F 1 "CONN_01X02" V 1950 6550 50  0000 C CNN
F 2 "diskioPi:BM02B-PASS-1-TFT(LF)(SN)" H 1850 6550 50  0001 C CNN
F 3 "" H 1850 6550 50  0000 C CNN
F 4 "SM02B-PASS-TB(LF)(SN)" H 1850 6550 60  0001 C CNN "Réf fab"
F 5 "Value" H 1850 6550 60  0001 C CNN "Code commande"
F 6 "Farnell" H 1850 6550 60  0001 C CNN "Distributeur"
F 7 "0.0" H 1850 6550 60  0001 C CNN "Prix"
	1    1850 6550
	-1   0    0    -1  
$EndComp
$Comp
L CONN_01X02 P21
U 1 1 5ADA4386
P 1850 7150
F 0 "P21" H 1850 7300 50  0000 C CNN
F 1 "CONN_01X02" V 1950 7150 50  0000 C CNN
F 2 "diskioPi:SM02B-PASS-TB(LF)(SN)" H 1850 7150 50  0001 C CNN
F 3 "" H 1850 7150 50  0000 C CNN
F 4 "SM02B-PASS-TB(LF)(SN)" H 1850 7150 60  0001 C CNN "Réf fab"
F 5 "Value" H 1850 7150 60  0001 C CNN "Code commande"
F 6 "Farnell" H 1850 7150 60  0001 C CNN "Distributeur"
F 7 "0.0" H 1850 7150 60  0001 C CNN "Prix"
	1    1850 7150
	-1   0    0    -1  
$EndComp
$Comp
L GND #PWR014
U 1 1 5ADA496F
P 2100 7250
F 0 "#PWR014" H 2100 7000 50  0001 C CNN
F 1 "GND" H 2100 7100 50  0000 C CNN
F 2 "" H 2100 7250 50  0000 C CNN
F 3 "" H 2100 7250 50  0000 C CNN
	1    2100 7250
	1    0    0    -1  
$EndComp
$Comp
L GND #PWR015
U 1 1 5ADA49C6
P 2100 6700
F 0 "#PWR015" H 2100 6450 50  0001 C CNN
F 1 "GND" H 2100 6550 50  0000 C CNN
F 2 "" H 2100 6700 50  0000 C CNN
F 3 "" H 2100 6700 50  0000 C CNN
	1    2100 6700
	1    0    0    -1  
$EndComp
$Comp
L +9V #PWR016
U 1 1 5ADA4ECB
P 2100 6400
F 0 "#PWR016" H 2100 6250 50  0001 C CNN
F 1 "+9V" H 2100 6540 50  0000 C CNN
F 2 "" H 2100 6400 50  0000 C CNN
F 3 "" H 2100 6400 50  0000 C CNN
	1    2100 6400
	1    0    0    -1  
$EndComp
$Comp
L +9V #PWR017
U 1 1 5ADA50FE
P 2100 7050
F 0 "#PWR017" H 2100 6900 50  0001 C CNN
F 1 "+9V" H 2100 7190 50  0000 C CNN
F 2 "" H 2100 7050 50  0000 C CNN
F 3 "" H 2100 7050 50  0000 C CNN
	1    2100 7050
	1    0    0    -1  
$EndComp
Text Notes 1550 6600 2    79   ~ 0
JST POE
Text Notes 1550 7200 2    79   ~ 0
JST BATT
$Comp
L +5V #PWR018
U 1 1 5ADF06AC
P 10600 3750
F 0 "#PWR018" H 10600 3600 50  0001 C CNN
F 1 "+5V" H 10600 3890 50  0000 C CNN
F 2 "" H 10600 3750 50  0000 C CNN
F 3 "" H 10600 3750 50  0000 C CNN
	1    10600 3750
	1    0    0    -1  
$EndComp
$Comp
L CP C33
U 1 1 5AE0229F
P 9750 4100
F 0 "C33" H 9775 4200 50  0000 L CNN
F 1 "10uF" H 9775 4000 50  0000 L CNN
F 2 "Capacitors_SMD:C_0805_HandSoldering" H 9788 3950 50  0001 C CNN
F 3 "" H 9750 4100 50  0000 C CNN
F 4 "CC0805ZKY5V6BB106" H 9750 4100 60  0001 C CNN "Réf fab"
F 5 "9402144" H 9750 4100 60  0001 C CNN "Code commande"
F 6 "Farnell" H 9750 4100 60  0001 C CNN "Distributeur"
F 7 "0.0" H 9750 4100 60  0001 C CNN "Prix"
	1    9750 4100
	1    0    0    -1  
$EndComp
$Comp
L CP C35
U 1 1 5AE02EAD
P 1900 2500
F 0 "C35" H 1925 2600 50  0000 L CNN
F 1 "100uF" H 1925 2400 50  0000 L CNN
F 2 "lib_robot:MCVVT016M101EA1L" H 1938 2350 50  0001 C CNN
F 3 "" H 1900 2500 50  0000 C CNN
F 4 "MCVVT016M101EA1L" H 1900 2500 60  0001 C CNN "Réf fab"
F 5 "2611356" H 1900 2500 60  0001 C CNN "Code commande"
F 6 "Farnell" H 1900 2500 60  0001 C CNN "Distributeur"
F 7 "0.0" H 1900 2500 60  0001 C CNN "Prix"
	1    1900 2500
	1    0    0    -1  
$EndComp
$Comp
L GND #PWR019
U 1 1 5AE031BF
P 1900 2650
F 0 "#PWR019" H 1900 2400 50  0001 C CNN
F 1 "GND" H 1900 2500 50  0000 C CNN
F 2 "" H 1900 2650 50  0000 C CNN
F 3 "" H 1900 2650 50  0000 C CNN
	1    1900 2650
	1    0    0    -1  
$EndComp
$Comp
L Pastille PA4
U 1 1 5AE180DB
P 10400 3900
F 0 "PA4" H 10400 4000 50  0000 C CNN
F 1 "Pastille" H 10400 3800 50  0000 C CNN
F 2 "lib_robot:PASTILLE_0_OHM" H 10400 3900 50  0001 C CNN
F 3 "" H 10400 3900 50  0000 C CNN
F 4 "Value" H 10400 3900 60  0001 C CNN "Réf fab"
F 5 "Value" H 10400 3900 60  0001 C CNN "Code commande"
F 6 "Farnell" H 10400 3900 60  0001 C CNN "Distributeur"
F 7 "0.0" H 10400 3900 60  0001 C CNN "Prix"
	1    10400 3900
	1    0    0    -1  
$EndComp
Text Notes 4850 2100 0    118  ~ 0
Step-down 5V-4A
$Comp
L R R4
U 1 1 5AEB051F
P 6900 3450
F 0 "R4" V 6980 3450 50  0000 C CNN
F 1 "10" V 6900 3450 50  0000 C CNN
F 2 "Resistors_SMD:R_0805_HandSoldering" V 6830 3450 50  0001 C CNN
F 3 "" H 6900 3450 50  0000 C CNN
F 4 "MC01W0805510R" H 6900 3450 60  0001 C CNN "Réf fab"
F 5 "Value" H 6900 3450 60  0001 C CNN "Code commande"
F 6 "Farnell" H 6900 3450 60  0001 C CNN "Distributeur"
F 7 "0.0" H 6900 3450 60  0001 C CNN "Prix"
	1    6900 3450
	0    1    1    0   
$EndComp
$Comp
L C C36
U 1 1 5AEC35BC
P 2200 6550
F 0 "C36" H 2225 6650 50  0000 L CNN
F 1 "10uF" H 2225 6450 50  0000 L CNN
F 2 "Capacitors_SMD:C_0805_HandSoldering" H 2238 6400 50  0001 C CNN
F 3 "" H 2200 6550 50  0000 C CNN
F 4 "CC0805ZKY5V6BB106" H 2200 6550 60  0001 C CNN "Réf fab"
F 5 "Value" H 2200 6550 60  0001 C CNN "Code commande"
F 6 "Farnell" H 2200 6550 60  0001 C CNN "Distributeur"
F 7 "0.0" H 2200 6550 60  0001 C CNN "Prix"
	1    2200 6550
	1    0    0    -1  
$EndComp
Text Notes 10050 4750 0    79   ~ 0
led +5V
Text Notes 800  2150 0    79   ~ 0
Jack entrée +9V
Wire Wire Line
	2500 3450 3750 3450
Wire Wire Line
	3300 2250 3300 3600
Wire Wire Line
	3750 3600 3600 3600
Connection ~ 3300 3450
Wire Wire Line
	2800 3450 2800 3500
Wire Wire Line
	3100 3500 3100 3450
Connection ~ 3100 3450
Wire Wire Line
	3100 3850 3100 3800
Wire Wire Line
	1500 3850 3100 3850
Wire Wire Line
	2800 3850 2800 3800
Connection ~ 2800 3850
Wire Wire Line
	3750 3750 3300 3750
Wire Wire Line
	3300 3750 3300 3800
Wire Wire Line
	3300 4100 3300 4150
Wire Wire Line
	3750 4050 3700 4050
Wire Wire Line
	3700 4050 3700 4250
Wire Wire Line
	3700 4200 3750 4200
Connection ~ 3700 4200
Wire Wire Line
	4600 4700 4600 4750
Wire Wire Line
	6150 3600 6400 3600
Wire Wire Line
	6700 3600 7000 3600
Wire Wire Line
	7000 3600 7000 3650
Wire Wire Line
	6200 3750 6150 3750
Wire Wire Line
	6150 3900 8400 3900
Wire Wire Line
	6500 3900 6500 3750
Connection ~ 6500 3900
Wire Wire Line
	6200 4050 6150 4050
Wire Wire Line
	6500 4050 6550 4050
Wire Wire Line
	6550 4050 6550 3900
Wire Wire Line
	1450 2350 7250 2350
Connection ~ 3300 2350
Wire Wire Line
	7250 3200 7400 3200
Wire Wire Line
	7250 3100 7400 3100
Connection ~ 7250 3100
Wire Wire Line
	8000 3250 8050 3250
Wire Wire Line
	8050 3250 8050 3450
Wire Wire Line
	7400 2900 7250 2900
Connection ~ 7250 2900
Wire Wire Line
	7250 3000 7400 3000
Connection ~ 7250 3000
Wire Wire Line
	7250 2350 7250 3200
Wire Wire Line
	8000 2900 8000 3100
Connection ~ 8000 3000
Wire Wire Line
	8000 3100 8250 3100
Wire Wire Line
	8250 3100 8250 4200
Connection ~ 6550 3900
Wire Wire Line
	8000 4750 8050 4750
Wire Wire Line
	8050 4750 8050 4900
Wire Wire Line
	6600 4900 6600 4200
Wire Wire Line
	6600 4200 6150 4200
Wire Wire Line
	7400 4400 7300 4400
Wire Wire Line
	7300 4700 7400 4700
Wire Wire Line
	7300 4600 7400 4600
Connection ~ 7300 4600
Wire Wire Line
	7300 4500 7400 4500
Connection ~ 7300 4500
Connection ~ 7300 4400
Wire Wire Line
	8000 4400 8000 4600
Connection ~ 8000 4500
Wire Wire Line
	8000 4600 8200 4600
Wire Wire Line
	8200 4600 8200 4700
Wire Wire Line
	8250 4200 7300 4200
Connection ~ 8250 3900
Wire Wire Line
	7300 4200 7300 4700
Wire Wire Line
	8750 5300 5350 5300
Wire Wire Line
	5350 5300 5350 4700
Connection ~ 8750 3900
Wire Wire Line
	9200 4200 9200 4300
Wire Wire Line
	9200 4250 8750 4250
Wire Wire Line
	8750 4200 8750 5300
Connection ~ 9200 4250
Connection ~ 8750 4250
Wire Wire Line
	9200 4600 9200 4650
Wire Wire Line
	10600 3750 10600 4000
Connection ~ 9200 3900
Wire Wire Line
	9500 4250 9500 4650
Wire Wire Line
	9200 4650 9750 4650
Connection ~ 9200 4650
Connection ~ 9500 3900
Wire Wire Line
	8700 3900 10200 3900
Wire Wire Line
	5000 4700 5000 4750
Wire Wire Line
	5000 4750 4600 4750
Connection ~ 4600 4750
Wire Wire Line
	1450 2450 1500 2450
Wire Wire Line
	1500 2450 1500 3850
Wire Wire Line
	1500 2550 1450 2550
Connection ~ 1500 2550
Wire Wire Line
	10600 4350 10600 4300
Wire Wire Line
	10600 4750 10600 4800
Wire Wire Line
	3750 3900 3600 3900
Wire Wire Line
	3600 3900 3600 4450
Wire Wire Line
	3600 4450 3250 4450
Wire Wire Line
	4200 7000 4300 7000
Wire Wire Line
	4300 7100 4200 7100
Wire Wire Line
	4200 7200 5200 7200
Wire Wire Line
	4300 7300 4200 7300
Wire Wire Line
	5200 7200 5200 7050
Wire Wire Line
	4300 7300 4300 7400
Wire Wire Line
	6250 7050 6150 7050
Wire Wire Line
	6250 7150 6200 7150
Wire Wire Line
	6200 7150 6200 7250
Connection ~ 1900 2350
Wire Wire Line
	2050 6600 2100 6600
Wire Wire Line
	2100 6600 2100 6700
Wire Wire Line
	2050 7100 2100 7100
Wire Wire Line
	2100 7200 2050 7200
Wire Wire Line
	2100 7200 2100 7250
Wire Wire Line
	2100 6500 2050 6500
Wire Wire Line
	2100 6400 2100 6500
Wire Wire Line
	2100 7100 2100 7050
Wire Wire Line
	8050 4900 6600 4900
Wire Wire Line
	9750 3950 9750 3900
Connection ~ 9750 3900
Wire Wire Line
	9750 4650 9750 4250
Connection ~ 9500 4650
Wire Wire Line
	10550 3900 10650 3900
Connection ~ 10600 3900
Wire Wire Line
	9500 3950 9500 3900
Wire Notes Line
	3400 6450 5600 6450
Wire Notes Line
	5600 6450 5600 7700
Wire Notes Line
	5600 7700 3400 7700
Wire Notes Line
	3400 7700 3400 6450
Wire Notes Line
	1050 6100 2750 6100
Wire Notes Line
	950  7600 2750 7600
Wire Notes Line
	950  7600 950  6100
Wire Notes Line
	950  6100 1100 6100
Wire Notes Line
	5800 6450 6850 6450
Wire Notes Line
	6850 6450 6850 7700
Wire Notes Line
	6850 7700 5800 7700
Wire Notes Line
	5800 7700 5800 6450
Wire Notes Line
	850  1750 11100 1750
Wire Notes Line
	11100 1750 11100 5700
Wire Notes Line
	11100 5700 600  5700
Wire Notes Line
	600  5700 600  1750
Wire Notes Line
	600  1750 900  1750
Wire Wire Line
	6750 3450 6150 3450
Wire Wire Line
	8050 3450 7050 3450
Wire Notes Line
	2750 7600 2750 6100
Wire Wire Line
	2200 6400 2100 6400
Wire Wire Line
	2100 6700 2200 6700
Connection ~ 2100 6700
Connection ~ 2100 6400
$Comp
L C C37
U 1 1 5AFC3C87
P 2500 3650
F 0 "C37" H 2525 3750 50  0000 L CNN
F 1 "10uF" H 2525 3550 50  0000 L CNN
F 2 "Capacitors_SMD:C_0805_HandSoldering" H 2538 3500 50  0001 C CNN
F 3 "" H 2500 3650 50  0000 C CNN
F 4 "0805F106Z100CT" H 2500 3650 60  0001 C CNN "Réf fab"
F 5 "Value" H 2500 3650 60  0001 C CNN "Code commande"
F 6 "Farnell" H 2500 3650 60  0001 C CNN "Distributeur"
F 7 "0.0" H 2500 3650 60  0001 C CNN "Prix"
	1    2500 3650
	1    0    0    -1  
$EndComp
Wire Wire Line
	2500 3800 2500 3850
Connection ~ 2500 3850
Wire Wire Line
	2500 3500 2500 3450
Connection ~ 2800 3450
$EndSCHEMATC
