EESchema Schematic File Version 2
LIBS:power
LIBS:device
LIBS:transistors
LIBS:conn
LIBS:linear
LIBS:regul
LIBS:74xx
LIBS:cmos4000
LIBS:adc-dac
LIBS:memory
LIBS:xilinx
LIBS:microcontrollers
LIBS:dsp
LIBS:microchip
LIBS:analog_switches
LIBS:motorola
LIBS:texas
LIBS:intel
LIBS:audio
LIBS:interface
LIBS:digital-audio
LIBS:philips
LIBS:display
LIBS:cypress
LIBS:siliconi
LIBS:opto
LIBS:atmel
LIBS:contrib
LIBS:valves
LIBS:MACE_LIB
LIBS:CarteRack-cache
LIBS:CB10LV102M
LIBS:LM3150MH
LIBS:+9v
LIBS:+12v
LIBS:4p04l03
LIBS:carte_mere-cache
LIBS:carte_mere-rescue
LIBS:gl850g-lqfp-48
LIBS:gl850g-qfn-28
LIBS:gl850g-ssop-28
LIBS:hub_usb2-rescue
LIBS:molex-505110-1992
LIBS:prtr5v0u4d,125
LIBS:CarteMere-cache
EELAYER 25 0
EELAYER END
$Descr A4 11693 8268
encoding utf-8
Sheet 4 7
Title "Carte mere Diskio Pi"
Date "09/05/2018"
Rev "0.1"
Comp ""
Comment1 ""
Comment2 ""
Comment3 ""
Comment4 ""
$EndDescr
$Comp
L LM311DT U5
U 1 1 5AD6EB44
P 5250 3800
F 0 "U5" H 5250 4050 50  0000 L CNN
F 1 "LM311DT" H 5250 3950 50  0000 L CNN
F 2 "lib_robot:LM311DT" H 5250 3800 50  0001 C CNN
F 3 "" H 5250 3800 50  0000 C CNN
F 4 "LM311DT" H 5250 3800 60  0001 C CNN "Réf fab"
F 5 "Value" H 5250 3800 60  0001 C CNN "Code commande"
F 6 "Farnell" H 5250 3800 60  0001 C CNN "Distributeur"
F 7 "0.0" H 5250 3800 60  0001 C CNN "Prix"
	1    5250 3800
	1    0    0    -1  
$EndComp
Wire Wire Line
	5550 3800 6100 3800
$Comp
L R R14
U 1 1 5AD6EEE7
P 5800 3600
F 0 "R14" V 5880 3600 50  0000 C CNN
F 1 "10k" V 5800 3600 50  0000 C CNN
F 2 "Resistors_SMD:R_0805_HandSoldering" V 5730 3600 50  0001 C CNN
F 3 "" H 5800 3600 50  0000 C CNN
F 4 "MCWR08X1002FTL" H 5800 3600 60  0001 C CNN "Réf fab"
F 5 "Value" H 5800 3600 60  0001 C CNN "Code commande"
F 6 "Farnell" H 5800 3600 60  0001 C CNN "Distributeur"
F 7 "0.0" H 5800 3600 60  0001 C CNN "Prix"
	1    5800 3600
	1    0    0    -1  
$EndComp
Wire Wire Line
	5800 3800 5800 3750
Wire Wire Line
	5800 3450 5800 3400
$Comp
L +5V #PWR060
U 1 1 5AD6F0D8
P 5800 3400
F 0 "#PWR060" H 5800 3250 50  0001 C CNN
F 1 "+5V" H 5800 3540 50  0000 C CNN
F 2 "" H 5800 3400 50  0000 C CNN
F 3 "" H 5800 3400 50  0000 C CNN
	1    5800 3400
	1    0    0    -1  
$EndComp
$Comp
L IRFML8244 Q2
U 1 1 5AD6F28C
P 6300 3800
F 0 "Q2" H 6600 3850 50  0000 R CNN
F 1 "IRFML8244" H 6950 3750 50  0000 R CNN
F 2 "lib_robot:SOT-23_IRFML8244" H 6500 3900 50  0001 C CNN
F 3 "" H 6300 3800 50  0000 C CNN
F 4 "IRFML8244" H 6300 3800 60  0001 C CNN "Réf fab"
F 5 "Value" H 6300 3800 60  0001 C CNN "Code commande"
F 6 "Farnell" H 6300 3800 60  0001 C CNN "Distributeur"
F 7 "0.0" H 6300 3800 60  0001 C CNN "Prix"
	1    6300 3800
	1    0    0    -1  
$EndComp
Connection ~ 5800 3800
Wire Wire Line
	6400 3600 6400 3550
Wire Wire Line
	6400 4000 6400 4050
$Comp
L GND #PWR061
U 1 1 5AD6F3F5
P 6400 4050
F 0 "#PWR061" H 6400 3800 50  0001 C CNN
F 1 "GND" H 6400 3900 50  0000 C CNN
F 2 "" H 6400 4050 50  0000 C CNN
F 3 "" H 6400 4050 50  0000 C CNN
	1    6400 4050
	1    0    0    -1  
$EndComp
Text GLabel 6400 3550 2    39   Input ~ 0
JST_1_VENTILO
$Comp
L C C25
U 1 1 5AD6F7E1
P 5650 4700
F 0 "C25" H 5675 4800 50  0000 L CNN
F 1 "100nF" H 5675 4600 50  0000 L CNN
F 2 "Capacitors_SMD:C_0805_HandSoldering" H 5688 4550 50  0001 C CNN
F 3 "" H 5650 4700 50  0000 C CNN
F 4 "0805F106Z100CT" H 5650 4700 60  0001 C CNN "Réf fab"
F 5 "Value" H 5650 4700 60  0001 C CNN "Code commande"
F 6 "Farnell" H 5650 4700 60  0001 C CNN "Distributeur"
F 7 "0.0" H 5650 4700 60  0001 C CNN "Prix"
	1    5650 4700
	1    0    0    -1  
$EndComp
$Comp
L GND #PWR062
U 1 1 5AD6F875
P 5650 4850
F 0 "#PWR062" H 5650 4600 50  0001 C CNN
F 1 "GND" H 5650 4700 50  0000 C CNN
F 2 "" H 5650 4850 50  0000 C CNN
F 3 "" H 5650 4850 50  0000 C CNN
	1    5650 4850
	1    0    0    -1  
$EndComp
$Comp
L +5V #PWR063
U 1 1 5AD6F8A1
P 5650 4550
F 0 "#PWR063" H 5650 4400 50  0001 C CNN
F 1 "+5V" H 5650 4690 50  0000 C CNN
F 2 "" H 5650 4550 50  0000 C CNN
F 3 "" H 5650 4550 50  0000 C CNN
	1    5650 4550
	1    0    0    -1  
$EndComp
Wire Wire Line
	5350 4100 5350 4150
Wire Wire Line
	5350 4150 5600 4150
Wire Wire Line
	5600 4150 5600 3900
Wire Wire Line
	5600 3900 5550 3900
Wire Wire Line
	5250 4100 5250 4200
Wire Wire Line
	5150 4100 5150 4300
Wire Wire Line
	5250 4200 5150 4200
$Comp
L GND #PWR064
U 1 1 5AD6FD65
P 5150 4300
F 0 "#PWR064" H 5150 4050 50  0001 C CNN
F 1 "GND" H 5150 4150 50  0000 C CNN
F 2 "" H 5150 4300 50  0000 C CNN
F 3 "" H 5150 4300 50  0000 C CNN
	1    5150 4300
	1    0    0    -1  
$EndComp
Connection ~ 5150 4200
Wire Wire Line
	4150 3700 4950 3700
Text GLabel 4150 3700 0    39   Input ~ 0
JST_1_TEMP
$Comp
L R R15
U 1 1 5AD7019C
P 4500 3450
F 0 "R15" V 4580 3450 50  0000 C CNN
F 1 "1K" V 4500 3450 50  0000 C CNN
F 2 "Resistors_SMD:R_0805_HandSoldering" V 4430 3450 50  0001 C CNN
F 3 "" H 4500 3450 50  0000 C CNN
F 4 "MC01W080551K" H 4500 3450 60  0001 C CNN "Réf fab"
F 5 "Value" H 4500 3450 60  0001 C CNN "Code commande"
F 6 "Farnell" H 4500 3450 60  0001 C CNN "Distributeur"
F 7 "0.0" H 4500 3450 60  0001 C CNN "Prix"
	1    4500 3450
	1    0    0    -1  
$EndComp
Wire Wire Line
	4500 3600 4500 3700
Connection ~ 4500 3700
$Comp
L +5V #PWR065
U 1 1 5AD7032B
P 4500 3250
F 0 "#PWR065" H 4500 3100 50  0001 C CNN
F 1 "+5V" H 4500 3390 50  0000 C CNN
F 2 "" H 4500 3250 50  0000 C CNN
F 3 "" H 4500 3250 50  0000 C CNN
	1    4500 3250
	1    0    0    -1  
$EndComp
Wire Wire Line
	4500 3300 4500 3250
Wire Wire Line
	4950 3900 4800 3900
$Comp
L R R16
U 1 1 5AD70404
P 4800 3450
F 0 "R16" V 4880 3450 50  0000 C CNN
F 1 "499" V 4800 3450 50  0000 C CNN
F 2 "Resistors_SMD:R_0805_HandSoldering" V 4730 3450 50  0001 C CNN
F 3 "" H 4800 3450 50  0000 C CNN
F 4 "MCMR08X4990FTL" H 4800 3450 60  0001 C CNN "Réf fab"
F 5 "Value" H 4800 3450 60  0001 C CNN "Code commande"
F 6 "Farnell" H 4800 3450 60  0001 C CNN "Distributeur"
F 7 "0.0" H 4800 3450 60  0001 C CNN "Prix"
	1    4800 3450
	1    0    0    -1  
$EndComp
Wire Wire Line
	4800 3600 4800 4400
Wire Wire Line
	4800 3300 4800 3250
$Comp
L +5V #PWR066
U 1 1 5AD7050E
P 4800 3250
F 0 "#PWR066" H 4800 3100 50  0001 C CNN
F 1 "+5V" H 4800 3390 50  0000 C CNN
F 2 "" H 4800 3250 50  0000 C CNN
F 3 "" H 4800 3250 50  0000 C CNN
	1    4800 3250
	1    0    0    -1  
$EndComp
$Comp
L POT RV2
U 1 1 5AD70566
P 4600 4400
F 0 "RV2" H 4600 4300 50  0000 C CNN
F 1 "POT" H 4600 4400 50  0000 C CNN
F 2 "lib_robot:CB10LV102M" H 4600 4400 50  0001 C CNN
F 3 "" H 4600 4400 50  0000 C CNN
F 4 "CB10LV102M" H 4600 4400 60  0001 C CNN "Réf fab"
F 5 "Value" H 4600 4400 60  0001 C CNN "Code commande"
F 6 "Farnell" H 4600 4400 60  0001 C CNN "Distributeur"
F 7 "0.0" H 4600 4400 60  0001 C CNN "Prix"
	1    4600 4400
	0    1    1    0   
$EndComp
Connection ~ 4800 3900
Wire Wire Line
	4800 4400 4750 4400
Wire Wire Line
	4600 4650 4600 4700
$Comp
L GND #PWR067
U 1 1 5AD70758
P 4600 4700
F 0 "#PWR067" H 4600 4450 50  0001 C CNN
F 1 "GND" H 4600 4550 50  0000 C CNN
F 2 "" H 4600 4700 50  0000 C CNN
F 3 "" H 4600 4700 50  0000 C CNN
	1    4600 4700
	1    0    0    -1  
$EndComp
$Comp
L +5V #PWR068
U 1 1 5AD70A3D
P 5150 3500
F 0 "#PWR068" H 5150 3350 50  0001 C CNN
F 1 "+5V" H 5150 3640 50  0000 C CNN
F 2 "" H 5150 3500 50  0000 C CNN
F 3 "" H 5150 3500 50  0000 C CNN
	1    5150 3500
	1    0    0    -1  
$EndComp
Wire Wire Line
	7850 3050 8050 3050
Wire Wire Line
	8050 3050 8050 3550
$Comp
L GND #PWR069
U 1 1 5AD70FB3
P 8050 3550
F 0 "#PWR069" H 8050 3300 50  0001 C CNN
F 1 "GND" H 8050 3400 50  0000 C CNN
F 2 "" H 8050 3550 50  0000 C CNN
F 3 "" H 8050 3550 50  0000 C CNN
	1    8050 3550
	1    0    0    -1  
$EndComp
Text GLabel 8150 2950 2    39   Input ~ 0
JST_1_TEMP
Wire Wire Line
	7850 2950 8150 2950
$Comp
L D D2
U 1 1 5AD71521
P 8400 3300
F 0 "D2" H 8400 3400 50  0000 C CNN
F 1 "D" H 8400 3200 50  0000 C CNN
F 2 "lib_robot:MURA240T3G" H 8400 3300 50  0001 C CNN
F 3 "" H 8400 3300 50  0000 C CNN
F 4 "MURA240T3G" H 8400 3300 60  0001 C CNN "Réf fab"
F 5 "2463414" H 8400 3300 60  0001 C CNN "Code commande"
F 6 "Farnell" H 8400 3300 60  0001 C CNN "Distributeur"
F 7 "0.0" H 8400 3300 60  0001 C CNN "Prix"
	1    8400 3300
	0    1    1    0   
$EndComp
Wire Wire Line
	8150 3450 8550 3450
Wire Wire Line
	7850 3150 8550 3150
Text GLabel 8550 3450 2    39   Input ~ 0
JST_1_VENTILO
Connection ~ 8400 3450
Connection ~ 8400 3150
Text GLabel 8550 3150 2    39   Input ~ 0
VOUT
Text GLabel 6900 2600 0    39   Input ~ 0
VOUT
Wire Wire Line
	6900 2600 7100 2600
$Comp
L +5V #PWR070
U 1 1 5AD71DE9
P 7100 2600
F 0 "#PWR070" H 7100 2450 50  0001 C CNN
F 1 "+5V" H 7100 2740 50  0000 C CNN
F 2 "" H 7100 2600 50  0000 C CNN
F 3 "" H 7100 2600 50  0000 C CNN
	1    7100 2600
	1    0    0    -1  
$EndComp
Text Notes 4750 4600 0    39   ~ 0
CB10LV102M
$Comp
L CONN_01X04 P15
U 1 1 5ADEE898
P 7650 3100
F 0 "P15" H 7650 3350 50  0000 C CNN
F 1 "CONN_01X04" V 7750 3100 50  0000 C CNN
F 2 "Pin_Headers:Pin_Header_Straight_1x04_Pitch2.54mm" H 7650 3100 50  0001 C CNN
F 3 "" H 7650 3100 50  0000 C CNN
F 4 "Value" H 7650 3100 60  0001 C CNN "Réf fab"
F 5 "Value" H 7650 3100 60  0001 C CNN "Code commande"
F 6 "Farnell" H 7650 3100 60  0001 C CNN "Distributeur"
F 7 "0.0" H 7650 3100 60  0001 C CNN "Prix"
	1    7650 3100
	-1   0    0    1   
$EndComp
Wire Wire Line
	7850 3250 8150 3250
Wire Wire Line
	8150 3250 8150 3450
Wire Notes Line
	3800 1900 9450 1900
Wire Notes Line
	9450 1900 9450 5400
Wire Notes Line
	9450 5400 3250 5400
Wire Notes Line
	3250 5400 3250 1900
Wire Notes Line
	3250 1900 3850 1900
Text Notes 3550 4000 0    39   ~ 0
KTY81/121\n\n25°C : 980 à 1000 Ohm
$Bitmap
Pos 2400 4100
Scale 1,000000
Data
89 50 4E 47 0D 0A 1A 0A 00 00 00 0D 49 48 44 52 00 00 01 B5 00 00 01 D8 08 02 00 00 00 45 A2 E1 
0E 00 00 00 03 73 42 49 54 08 08 08 DB E1 4F E0 00 00 00 09 70 48 59 73 00 00 0E 74 00 00 0E 74 
01 6B 24 B3 D6 00 00 20 00 49 44 41 54 78 9C ED DD CF 8E 2C C9 55 C0 E1 BA 35 5D F3 A7 67 E6 7A 
64 8C 2C F9 B2 F0 C2 12 62 C7 D6 4B BF 01 0B DE 84 E7 E0 0D 78 84 59 F0 04 20 76 48 6C 98 05 0B 
8C 01 C1 30 C2 82 71 6B 3C 9E EE 36 DD B6 9B 45 59 39 79 33 4F 9C 3C 19 19 91 71 4E E4 EF D3 5D 
F4 AD AA AE 3E 27 22 F2 54 66 64 56 C6 AB 97 97 97 13 00 60 E6 DC 3A 00 00 70 8A FA 08 00 B2 1B 
E3 EB FE EE 5F 3F FF AB BF FF AC 6A 28 98 FB D9 97 5F FD E8 7B 9F B4 8E 22 06 DA 0A C5 BD 32 CE 
3F 3E 3C 3F 7F F5 EB 5F D7 8E 06 13 7F F1 D7 7F FB 97 7F F6 93 D6 51 C4 40 5B A1 38 8E AF 01 40 
46 7D 04 00 19 F5 11 00 64 D4 47 00 90 59 CF 5F 8B DE BC 7E 7D FD E1 8B AF BF DE F2 0E E2 AF 2B 
4F 1D D6 D0 E0 13 B4 D2 9C 38 7E C6 0F 2A 8D 39 FF DD C9 23 FA C8 5F FC D3 FA 23 A9 77 66 8B D8 
5F E7 FB 8F A9 6D 00 FB 6B DE 17 A5 EA CB 38 91 79 52 C6 34 17 7F 51 FF 2F F6 91 BF FF 38 8C B6 
37 AF 5F BF 79 FD BA F8 C7 5A D9 71 DC 87 C9 FE 4B A0 5D 89 E6 7D 31 6F 31 A5 31 27 A3 7A BE D7 
39 FE DD F1 E0 DF 58 1C 53 EF D3 BC F5 0E 6B D3 F1 B5 62 5C 3D 4F 89 B1 25 BE 7E F1 91 D4 CB 26 
CF 0E FF 0D 57 4A B2 59 DA 27 D5 11 E2 CB F4 37 57 DE 59 7C A5 FE AC F1 6D F3 FA 31 7B 0C AC 2A 
4C F3 A1 28 06 A0 BC 6C ED DB A2 B6 BA C7 D7 E3 0D 43 DC 48 E6 2F 5B 7C 2B FD 1D F4 37 E9 98 B1 
7D F2 3A 42 79 73 E3 53 6B A5 DE 36 E3 3D F3 C2 98 14 D3 E1 BF 43 8D 1B 5A 52 DC 27 5D F5 E6 D7 
47 94 DF 3D C2 A7 BB 4F 99 F5 71 3C 32 94 D9 EE 71 AF 1B 47 80 F8 3E C3 9F 1B DE 64 FE B2 C9 FB 
1B FF 6E 1F 16 DB 67 4B 47 D8 DF 7C 78 8D 52 5C EC 7D 71 7D B1 A5 EB 15 5B 6A F4 A4 26 DA 5F BF 
F1 65 93 B2 DB FD E8 F5 AC CC F9 EB 8D 86 AD 4B 7F 43 E5 59 C6 D0 A9 44 77 28 1D 61 3F 75 5E 64 
54 88 27 7F B7 BC 55 A9 59 72 7D FE 71 BB E3 4C 07 85 D0 F9 F9 6B EC CC DB E6 ED 27 12 0B 6F AD 
87 9C FD 47 B1 17 B7 7F 90 2E EE 23 30 6E 74 45 76 8E 52 7B F1 96 37 CF D8 BC 8D 3B 86 DB 53 AB 
77 A1 C5 22 63 B3 50 1C 1D AA 75 FE 7A 15 F1 B4 E6 D8 30 B8 27 0F DA DF BC EF 61 B7 A5 7D 26 E6 
67 8A D7 BE 79 F6 49 36 51 C1 D4 86 BF BB E5 D7 E7 F1 14 19 5A FA 29 7E B4 E2 E2 F8 DA 32 15 9D 
9A F2 B7 BC ED 11 64 B4 8F F2 26 FA BB A5 DE 7C 7E 7E 4C BC 2E 67 ED 09 DF 22 A9 6D F9 45 E5 7D 
0E 35 C6 0E 88 FB 3F BA B6 DB 3D 0D 3B D8 CB E6 FE 8F 28 CE C5 FE 23 00 38 44 7D 04 00 99 8B F3 
33 68 2E F4 91 35 50 09 FB 8F 00 20 A3 3E 02 80 8C FA 08 00 32 EA 23 00 C8 38 3F 73 68 93 6F 6B 
8C 2F E7 B6 5C 11 D9 C1 55 93 80 22 7F FF 31 D6 6D 16 63 45 BB 8F 82 B7 6B 2C 18 06 E0 47 E6 FE 
63 AC 31 1D 2B DA 9D 4D 6E F8 B8 EA B6 83 A5 6E 17 06 F8 94 7F FF 9E D3 6C 8B 5A 75 0B FE F1 A6 
25 BE 2C F5 47 2D 6F 3E 7E E5 3C 5A 31 6C E3 DB 7A 38 96 4C 05 A3 04 99 6A BD 53 62 2F 52 EC 0B 
A5 0B F4 18 26 EF 79 4A 77 8D 9E 38 B0 B3 62 E7 67 2C F7 D9 7F 93 BB CA 82 F1 26 FE 05 0F 18 53 
6F DB 7C 7F C7 12 98 BD 89 B6 FF 5D FB 6B 5C 35 23 60 91 B3 FF 68 D9 05 1B DF 45 6A BE DB A8 DC 
8C FA FA D4 9B D9 9A 70 CA 1D 9B C5 43 C2 B5 A7 1A C4 60 2C 7F 7D 4F A9 36 9C 27 FB 46 5A 7B EF 
34 8A 7F B1 13 2D 7F 37 F5 9A 53 A2 A1 E6 3B E3 EC 39 C2 B3 92 E7 AF 37 EE 14 7C A1 AE B2 A0 94 
D4 B2 61 88 6F EB 70 7F 67 9E B8 D2 80 05 E3 B7 9C D1 CE F8 45 C0 A1 DE AE 7F 64 7F 04 40 29 25 
F7 1F 37 56 A5 37 E9 9B FB 1B DF 3C A3 38 1A 77 AC 1C 16 5C F1 DC 48 AA 01 0B C6 AF 37 B2 C3 86 
02 B2 15 58 BF 70 98 CC 9A 6C 99 19 9B 8A 78 F6 B3 D4 FD FD 53 67 DB 75 C5 EF EF BF 85 18 CC 69 
74 4C 3D 6F C0 22 F1 A7 FE EE E2 6B 8C 7F 88 BD 7E F8 94 79 7C 9D 9A FC 52 5E 60 7F CF EC 37 4F 
DD DF 5F F9 F5 3D EF EF 5F 44 2A 78 25 A9 22 F1 5B 1A 2D E3 0F 51 13 E1 99 8B F5 15 D8 7D 48 61 
CD 00 3B DA 0A C5 F5 76 7E 06 00 4A A1 3E 02 80 CC C5 FD 7B 38 B2 06 E0 10 FB 8F 00 20 A3 3E 02 
80 8C FA 08 00 32 EB FC E3 BF FD E2 97 7F F3 B3 FF A8 1A 4A 25 8F CF BF 79 FE ED EF 5E BF FF 6E 
EB 40 72 FC FC EB FB F9 83 CA 35 D8 A9 2B A5 94 BB 96 2D 3E 1B C5 97 DF 3C 7E FA D9 4F 5B 47 81 
AE 58 EB E3 87 EF DE BC F9 CE 47 55 43 A9 E4 9F 7E FE E5 97 DF 3C FE C9 F7 BF DB 3A 90 1C EF 5F 
DE 99 3C 32 2E 8E C3 57 56 94 8B E1 17 8D 7F 6B F2 86 B1 BC 7B F3 4E D0 21 0A B7 AC F5 F1 FB 1F 
7F F8 E3 1F FE A0 6A 28 F5 7C F1 D5 AF 82 06 FF E9 3F FE 73 D5 F7 0F BD C3 38 F1 FA FD 77 83 F6 
32 DC 62 FE 31 12 E5 1B D0 C6 BB 37 2E 3E DE 47 AD 04 8A A0 3E C6 73 BD 21 C8 69 DB DE 9F 7E B3 
09 87 F7 BB 04 F6 E7 E2 FA 70 64 B0 9C 96 49 A1 FC 01 16 EC 3F 76 E5 7A 76 C5 52 FE 26 3B A1 00 
E6 CA DC FF F1 B4 34 C9 75 65 59 EA 64 37 A9 E0 95 FB CB 7A 08 7B 6E 7E 75 CE E2 39 68 6F 29 D4 
B0 E5 46 CB FA 7B 86 68 3D F1 F6 C9 C3 CF 5B 0E 3E 0E 25 7F FF 71 52 53 C6 4B 3E 0D 2F 98 8C D1 
C9 DD 5B 1B EE B9 2C 06 2F 6A 1E 76 06 CB ED BE 63 65 B4 D1 0E C9 36 6F CF D4 BD E5 87 7F F3 5A 
D9 3C 66 9F AA CF 3F 4E F6 19 A3 5C 5B 17 22 C8 53 B9 0F FF 28 FD B2 56 D9 75 D6 EC 8B 7C B8 22 
2E 24 D9 6B 8F 97 95 59 1F E7 5F E1 58 5C 2C 74 D2 25 96 FD B5 4A 16 83 57 34 0C FB B4 74 EC 3C 
5E E1 C0 3E F4 E7 7B FD AB 7E 3D 3A 71 49 0F E3 A1 A8 B2 17 96 9A B1 99 6F 20 62 00 A9 C0 16 9F 
3A CD 86 B7 3E 5A C6 DF 0B 98 BF 06 9B CE CF 4C CA DF E2 46 A5 CF 4E EE 4C 0F 7E 38 D1 21 46 E8 
67 30 4D 22 1F 0E A0 F4 17 E8 6F 72 1C F3 0F 86 93 54 5F 16 7F 37 FB 65 62 00 CA CF FA 53 63 19 
1D EA 67 54 FB C1 F5 3D E8 D9 7C 9B 4F 1D E2 4C 76 CC 8D F5 45 3C 6E 1D 3F 9E DA 2D 9D BC 43 6A 
17 5E 2C 8E A9 98 51 1C F5 51 E6 76 CC 55 FD 8A 74 F7 07 D7 F6 23 18 FD 18 36 FB 65 8B F1 58 5E 
C0 8E DE 6E 76 BD FE 91 7E 2D A2 DE E1 70 7F 07 DA 93 09 07 E3 95 A1 E3 FF 1A 4B 9B F2 CE DD 7F 
EA 74 AC D6 FE E3 7C 37 27 D6 F9 6B 74 E6 8B D1 12 E1 93 09 59 F1 C5 D7 1F F4 7A 6A 79 D9 C6 E2 
28 FE FA AA 77 4B 9D AA 66 4B B4 A8 7E 7C 3D 3F 59 5C FB 2F 02 A2 F9 75 7F F3 F3 6F F6 33 B9 FA 
CB 94 33 DD C6 38 53 93 95 62 CC 96 37 9C 5F 0E 69 0F E9 B0 32 8F AF 2D D7 94 CE 0F D6 94 4B 25 
F6 B4 E5 82 58 8E 95 3A 90 9A 34 1C 2E 76 99 3F 38 97 7A 99 F2 EB F6 81 A7 EC E1 2E 86 37 BF D2 
68 D8 71 1E 1E 19 3F 7E 62 54 A7 ED 77 7D 78 14 E1 02 86 48 3F 70 5E FB 32 F1 F1 8C 97 59 CA A8 
FE E6 FA 53 96 17 33 C2 ED B8 3F 05 00 C8 F2 EB 63 E8 A3 D4 BC E0 9B 87 0D 58 AC 1A DE 8C 6A C5 
A6 E3 EB EC 36 F5 D0 19 19 31 78 08 1B B0 B0 8F 55 46 B5 82 E3 6B 00 90 51 1F 01 40 46 7D 04 00 
19 DF BF 46 27 BE FC E6 F1 D3 CF 7E DA 3A 8A AD 7E F3 DB DF 7D FD 7F 4F DF BD 7D BF 75 20 5B 7D 
FD EB A7 CB 3B E7 0F 2E B1 2B 4C EC E8 81 C1 BB 37 EF BC F9 CE 47 AD A3 D8 EA 7F BE 79 F8 87 FF 
FC EF 3F FF D3 3F 6E 1D C8 56 FF F2 BF 9F FF E1 47 1F FC E8 7B 9F B4 0E 64 13 EA 23 3A F1 FA FD 
77 7F FC C3 1F B4 8E 62 AB CF BF FA D5 BF FF E2 97 1D 24 F2 5F 5F FD EA 8F 3E F9 38 7A 22 CC 3F 
02 80 8C FA 08 00 32 EA 23 00 C8 A8 8F 00 20 E3 FC 0C FA 64 5C 17 D0 F9 B7 8F B3 17 66 F0 26 63 
99 46 0F D8 7F 04 00 19 FB 8F E8 DC 7C 91 8F 31 9F BB 2D 83 D4 6A 8B 71 E9 DD E1 0D F5 11 87 36 
D4 9D C9 0F 27 DF C5 48 5C BF 61 32 63 10 B4 A4 4E D6 C0 18 3F B8 FF 94 08 C7 D7 E8 D9 DA BB 67 
CF D7 A1 0E 6A B2 76 82 13 8B DD 21 AE F7 DD 10 F5 11 FD 9B 2C C0 A2 0B B1 C8 ED 78 4F 2A B5 3F 
E5 F6 30 56 E9 8E 61 3D 5E 71 FD 89 61 CD 9C DD 3A 88 FA 08 7C CB 7F 65 34 12 D7 1A 8B 42 5C BE 
31 B5 74 4F 55 D4 47 74 2E C4 75 3C C7 B1 D8 1D AE 7A 8A FA 08 74 68 D5 94 82 1F 8B 75 F3 B4 6F 
52 D4 47 20 24 E3 8E 58 EA 59 CF E6 C7 D7 43 9A 5B 96 05 CC 40 7D 44 FF 42 4F C6 E5 69 32 5B 67 
A4 74 C7 7C AD F0 B6 BB C0 5C FF 88 3E 89 27 40 95 9F 95 D7 7B 10 7D B9 4D 63 77 A4 9E 52 5E 5F 
15 FB 8F 40 6C AE EA 60 67 A8 8F 40 48 E1 CE BD 44 C4 F1 35 10 52 6A B7 91 DD C9 82 D8 7F 04 00 
19 F5 11 00 64 D4 47 00 90 59 E7 1F 5F BD 7A F5 CE 39 64 31 FD E0 72 F9 E8 BD F7 82 06 FF 07 1F 
7E 10 34 F2 FD F5 D1 56 EF DD BC F3 C9 FB 51 87 EB D8 C7 EF BD F7 C1 E5 12 3D 91 57 2F 2F 2F AD 
63 00 00 8F 62 57 77 00 A8 87 FA 08 00 32 EA 23 00 C8 A8 8F 00 20 A3 3E 02 80 AC FC F7 0B 5F BD 
7A 35 FE EF 70 7E 3C F5 B8 2B E3 20 53 91 9F 9A 06 2F 46 68 7F 8D E5 D7 FB F3 EA D5 AB 55 BD 39 
7E BD 2B 93 C0 52 BD E9 73 5B 53 A2 B2 24 D2 24 8B 2A DF BF 4E 65 E2 A4 9F 52 E6 83 EF FA 5F A5 
C4 EC 2C 15 A1 F1 35 96 5F EF 8F 5E 2C E6 BD D9 B0 7F 75 93 C0 F4 DE F4 D9 B3 62 54 A9 44 3C 0C 
57 8E AF D7 39 48 4D E9 86 DE 5F F3 67 DD F6 AF DB C0 FA 56 B8 3E A6 7A 31 62 EF 86 0B 18 13 19 
A3 CE 67 A7 AF 4A C4 E7 B6 E6 33 AA 45 75 E7 1F 5D 4D 25 18 0D 71 06 9A 96 42 86 8E 7B D3 E7 B6 
E6 33 2A 5D 66 7D 14 E7 68 E6 B3 75 E3 21 D8 7C 2A 61 F8 D3 F3 07 C5 19 BA 0E B6 1F 65 2A CD ED 
2C 5B 29 1D 74 DF 55 2A 91 97 97 97 54 C5 71 B2 AD 4D F8 8C 4A 97 59 1F D7 9E 81 F1 D3 16 7A 24 
7E E2 CC 36 DE 6C E6 9B 50 EA A9 CE 44 D9 FC 16 29 89 18 4F 27 3A E1 33 AA 45 DC 3F DC 2A D0 26 
A7 C4 19 25 85 ED 56 9D ED F5 4C 4F 04 55 95 3F 3F B3 EA 71 14 77 E4 63 EA C1 CB DB 4E 61 3F 18 
32 12 F1 D9 CB 3E A3 5A 54 F1 FA 9E 9E CE 65 03 11 F9 DC D6 7C 46 25 2A 7C 7C 9D 9A D5 0A 31 DB 
A5 4C 78 3B A1 44 38 9E 7E 52 A6 ED 9D 27 08 BB 54 6F FA DC D6 94 A8 8C 89 34 19 AE 61 0A 39 00 
EC 8C EF CF 00 80 8C FA 08 00 32 EA 23 00 C8 A8 8F 00 20 A3 3E 02 80 8C FA 08 00 32 EB F5 8F F7 
4F CF 77 0F 8F 55 43 01 00 57 AC F5 F1 E6 7C BE BD 5C AA 86 02 00 AE 70 7D 38 00 C8 98 7F 04 00 
19 F5 11 00 64 D4 47 00 90 51 1F 01 40 56 77 7D AE D3 DB 4B BB CC 1F F4 C6 7F F0 96 48 94 D7 F8 
49 64 4F F3 9B 87 0F 3F EB CB 61 3B 69 A2 C5 25 BC 43 F4 B2 92 C5 62 C0 AD 6E 19 59 65 7D 85 C5 
95 FF 3C DF 20 D3 73 F0 96 48 94 D7 F8 49 64 4F 6B 17 5A F0 D9 26 96 CF C2 E1 11 B7 BD 6C A9 7D 
7A B9 DF 19 C7 D7 E8 99 AB EA 50 5C DF D9 5D B5 CD B1 FC FA 33 71 3B 2C 74 F0 98 5B DB A1 3E 07 
80 12 95 C3 68 53 F2 B2 68 DE 23 75 E7 1F 03 F5 DF 55 E8 E0 B1 9D CF 01 E0 33 AA B5 22 66 91 59 
1F 53 8B CC 9C 66 D3 AE DE 1A 42 89 FC 94 08 DE C3 3A 18 79 E6 33 E2 41 13 C9 60 19 7B F3 C1 E0 
73 F4 FA 8C 6A 2D 4B 16 CA 74 79 13 99 F5 31 EE 0E BF 12 A1 32 05 1E 68 80 8E 8B E0 A4 20 C6 4A 
64 0B FD 68 2E D5 3E 3E 5B C3 67 54 6B AD CD C2 C9 E0 AC 72 FE 1A 6D 79 18 58 CD 29 A7 AD 69 1F 
9F 94 CB B0 E6 CF EE A3 FC F9 99 B2 6F B8 A7 D0 C1 0F FA C8 62 A3 97 B7 9D 12 97 B2 4E F8 6C 3A 
9F 51 AD B5 98 C5 A4 FC 29 3D B8 A7 8A D7 F7 38 D9 43 CE 13 3A 78 6C E7 73 00 F8 8C 6A 2D F1 0A 
47 9F 79 95 0F 4B 59 C0 5E 7C DC 15 FF C1 2B 11 8A BB 48 21 BE 59 51 5B DE F7 67 FC B4 8F 1E 55 
C4 EF CF 28 C7 D1 27 5B 8E FB 70 5A B6 01 A0 39 BE 3F 03 00 32 EA 23 00 C8 A8 8F 00 20 A3 3E 02 
80 8C FA 08 00 32 EA 23 00 C8 AC DF 2F BC 7F 7A BE 7B 78 AC 1A 0A 00 B8 62 AD 8F 37 E7 F3 ED E5 
52 35 14 00 70 85 EB C3 01 40 C6 FC 23 00 C8 A8 8F 00 20 A3 3E 02 80 8C FA 08 00 B2 8A F7 0F B7 
DF 54 CA 21 B7 C1 5B 22 09 77 FF AE 4A 94 05 E9 87 17 AC BD D1 56 13 A9 44 FC DF 8E 6F CC 92 85 
F2 54 93 44 6A D5 C7 B5 8B B2 BB E2 36 78 4B 24 CA 6B FC 24 B2 1B 25 C1 C5 6A E8 EA C6 DD F6 8E 
F6 DC CB 62 24 A9 66 F7 90 48 95 E3 6B 57 5D B2 56 E8 E0 61 B4 D8 CB 0C 83 26 BC 35 7B F9 FA E8 
2D C3 55 42 07 BF 56 DF 99 2A 5D 19 AB 97 8D D1 3A 5F 7D 6C 7B 9B 77 75 7C 0D B7 C6 AB 9B B6 8D 
A4 B6 EC D9 2B 6F 05 D4 32 A1 EC 2A 60 D1 62 77 A4 E6 8B 94 5F A9 2D B3 3E 8A 53 33 D7 D5 84 9D 
F7 53 2A F2 93 BF AD 62 BB 79 B2 DE D6 5F AF CA 32 3D 17 82 65 42 D9 32 19 DD 56 C6 64 62 F3 E1 
9A 59 1F ED E5 DF 9B 3E 8E B9 14 2F A3 35 EF C7 3F 0F 8F B4 08 AA 81 B8 43 74 42 09 38 50 2E 79 
A1 36 4F B0 F0 F1 B5 87 25 BD B3 85 0E 7E 2C 68 D8 FB 58 EC E5 B8 FD 3E 11 2B 11 9F D1 96 AC 8F 
A1 C7 59 E8 E0 C7 E2 46 5E 96 D8 0E 11 7B 39 2F 48 6F A9 79 8B C7 88 EF CF A0 7F 41 37 CE B9 8C 
69 3B 87 9C 87 37 B6 D3 F9 EB C9 44 58 94 D6 B9 F2 13 BC 12 C9 30 E6 94 D7 F8 49 64 07 F3 B9 D7 
A0 52 89 A4 7A F3 FA A0 B7 8E CE E8 0E 0F C3 35 4C 21 07 80 9D 71 7C 0D 00 32 EA 23 00 C8 A8 8F 
00 20 A3 3E 02 80 8C FA 08 00 32 EA 23 00 C8 AC D7 3F DE 3F 3D DF 3D 3C 56 0D 05 00 5C B1 D6 C7 
9B F3 F9 F6 72 A9 1A 0A 00 B8 C2 F5 E1 00 20 63 FE 11 00 64 D4 47 00 90 51 1F 01 40 46 7D 04 00 
59 F9 FB 9B C5 5A B3 7C C2 7F F0 96 48 2C CB 39 29 BF DE 8D 8C DE F4 D9 3E 7A 54 F3 75 A2 27 2F 
70 92 48 46 B3 37 EF 8E F2 EB 2B 84 5B B3 7C E0 3F 78 4B 24 CA 6B FC 24 B2 83 8C DE F4 D9 3E 7A 
54 8B D5 D0 C9 4D 30 33 9A DD 43 77 70 7C 0D 44 B5 58 32 9C 94 F8 B8 0A D7 C7 D0 9D 91 0A 3E 74 
52 63 DD 24 92 C1 92 7B 88 F6 99 DC 10 BE 61 24 5B 58 B2 F0 90 DD 4E EB 2B 00 4D B4 5D 5D BE A0 
8C 44 1C EE 3C 86 EB 8E CC FA 98 5A 10 63 F2 AC C3 56 D0 23 1F BF AC 83 05 94 C5 64 3D F7 4E 59 
79 AB CB 3B 6C 9F BC 44 BC D1 B3 D0 9B BD 55 D6 99 F5 51 8F D5 73 5F 7A 8B A7 B8 F1 AA 46 E2 A2 
48 9E 7B A7 AC BC EC 1C B6 8F 93 30 36 8A 58 34 38 BE 16 44 DF 79 0C 11 24 AA 8A 32 56 2D 1A E6 
52 F8 FC 8C 93 8B 09 B6 88 5E 1C 95 2E E8 A0 77 AA A2 7D 9A D0 9B BD ED 76 C7 F5 3D 6F 89 5E 1C 
81 9E 34 DF EE CA FF 79 B7 97 C2 2F 4A 4D D5 B9 FA 42 82 D2 BC F3 F3 63 A7 59 A8 FE 7B A1 A0 63 
7E 7F 46 79 B0 AD B5 CD EE 61 BB 73 D7 88 00 E0 04 C7 D7 00 20 A3 3E 02 80 8C FA 08 00 32 EA 23 
00 C8 A8 8F 00 20 A3 3E 02 80 CC FA FD C2 FB A7 E7 BB 87 C7 AA A1 00 80 2B D6 FA 78 73 3E DF 5E 
2E 55 43 01 00 57 B8 3E 1C 00 64 CC 3F 02 80 8C FA 08 00 32 EA 23 00 C8 A8 8F 00 20 2B 7F FF F0 
B8 F7 37 1B 73 78 7B A8 2B 4B 33 2E BE C6 6D 76 65 F5 7D 7F B3 10 B7 E3 1B CB 6E F6 86 C3 B5 70 
7D F4 BC D4 B7 9D DB FB 48 5B 9A 71 F1 35 6E B3 2B 2B 63 28 FA 1C A5 A9 A8 8C EB 5B 39 E9 EE EC 
66 6F 1B 3F C7 D7 53 4E B6 8A 4A FA CE EE B0 7A BD EF 7D F3 F8 0B D7 C7 D0 9D 71 72 D0 1F B5 F5 
9D 9D C2 B2 08 7D 88 C6 09 11 E4 22 63 16 CD 93 65 FD 42 F4 6C F1 A8 B3 F9 16 68 A4 04 1C 68 E7 
31 5C B3 67 D6 47 71 52 60 3E 04 1D B6 82 12 B9 CF 80 B7 70 32 F7 D4 4A 6A 92 4B 5F A8 5E 7F BC 
09 4B C0 FE 19 9B 7D DF A0 16 64 D6 C7 A0 3D 74 52 CF F9 C6 4D 6A EC E5 E5 65 FC 29 ED 6D C0 ED 
C9 72 4C 1D 42 B8 80 45 4A 77 B8 1D B1 B5 8E AF 23 96 9B 49 C7 44 4C E1 2A 68 D8 7E 04 EA FA 10 
FB BF 8B DC 86 5A A5 3E C6 EA 9B AB 10 93 03 16 71 23 77 82 06 DC 99 E7 06 2F 7F 7D 8F E7 6C 01 
1D A3 17 63 E5 AF 0F 3F BD 7D A0 3A 5C CB EA F3 9B 09 B1 28 CD 38 BE 6C 98 A6 3E A5 DB 41 6F C3 
93 34 7A DB EA A3 43 95 2C 3C 27 C8 A7 25 00 C8 F8 FE 0C 00 C8 A8 8F 00 20 A3 3E 02 80 8C FA 08 
00 32 EA 23 00 C8 A8 8F 00 20 B3 5E FF 78 FF F4 7C F7 F0 58 35 14 00 70 C5 5A 1F 6F CE E7 DB CB 
A5 6A 28 00 E0 0A D7 87 03 80 8C F9 47 00 90 51 1F 01 40 46 7D 04 00 19 F5 11 00 64 FB DD 3F DC 
DB 2D 8C F4 3B FD B9 BD 0F A0 A5 19 B3 17 62 EF C9 FC 36 FD E3 C5 4F E6 0F 2E 3E D5 8A 92 C8 F8 
35 A9 35 A3 43 64 31 79 D6 BE 06 59 6D B5 EE 1F 3E 7F C4 D5 CA EB FA 1A 17 AE 56 C0 18 B3 34 63 
F6 42 EC 9D 49 15 BE 70 ED A3 54 70 F1 91 A0 59 E8 3B 2B 55 62 32 38 E2 FD C3 83 EE 39 22 5B 37 
7D 2A 1E 96 85 4B 6D 55 CC 6D 13 2C 5F 1F FD F7 16 C5 F1 C8 EC FD EB 7F 24 F4 31 5C 95 2C 9A 27 
58 6B FE 11 70 62 ED 36 E6 76 0D FB E6 C5 A2 88 D4 A4 D0 F0 B3 AB 1C 33 EB A3 38 23 E0 2A B1 0C 
7D 8C BF A0 0B 7D 34 A1 1F AE 3A 1F 0F CE C3 5B 45 9C 30 F5 90 60 66 7D 6C 1E 77 71 1E 3A A3 88 
70 E7 1F 5C 89 D2 20 3D F5 9D E7 F5 BB 39 BE FE 96 7E 1E 10 11 79 9E DB 5A 45 BF 60 4E 7C 81 43 
6B CF CC 64 FF 6E 29 D4 C7 DF EB E0 B4 20 EC A2 F7 6F 4F C3 55 0C DE 49 82 7C 7F 06 87 13 BA 9A 
F4 CD 5B D7 EC B4 FF C8 99 81 22 F4 B5 ED AF FF E5 FC 8C EE DA 02 62 3B F4 D1 3E E1 B2 98 04 EC 
8A AF 6A 0D 00 7E 70 7C 0D 00 32 EA 23 00 C8 A8 8F 00 20 A3 3E 02 80 8C FA 08 00 32 EA 23 00 C8 
AC D7 3F DE 3F 3D DF 3D 3C 56 0D 05 00 5C B1 D6 C7 9B F3 F9 F6 72 A9 1A 0A 00 B8 C2 F5 E1 00 20 
63 FE 11 00 64 D4 47 00 90 51 1F 01 40 46 7D 04 00 59 FE FD CD 62 DD 43 69 2C D6 F2 F0 13 96 08 
8D 09 2A EF D0 01 65 85 65 63 1B FA 69 1C E5 A6 76 F3 C7 57 2D 2D BD A7 8C ED AE F9 F6 98 BF 3E 
57 D0 95 4C 42 2F CF 62 89 70 F1 35 DE 92 AA 24 B5 05 1A DB B0 76 78 76 A9 80 53 8F EB 9F 88 AD 
64 6C 77 1E B6 47 8E AF D1 BF 40 0B D2 97 D5 53 2E 4D 1C AE 3E 2A C3 A5 FB 91 C4 D6 B2 88 26 DA 
9F E7 06 67 7D AE 63 69 3E A1 B3 BF C3 96 BC C3 26 5E D0 41 EB E3 50 26 42 4C CF AF A2 2F 3F D2 
7C 42 C7 15 0F 2B 88 2E 0A B7 9E 8C C8 98 85 B7 2E 38 68 7D 4C CD 0D 77 40 99 D5 EE 2C D3 3C E3 
0D 75 FC B3 DB 91 E0 E1 34 C5 76 41 B3 38 68 7D D4 45 E9 3C 2C B2 AC AD 3C 7E F1 E2 EF 46 11 31 
78 87 31 1F EE FC CC E2 E5 0E 0E 3B A9 14 27 97 7A B4 95 6A 84 97 B7 9D D8 DD DE 97 CF ED EE 70 
F5 51 E7 B3 93 6A 38 4E A6 F0 CF ED 68 CC 0F 2B EE 9C B1 E5 62 FD F9 B3 4E 28 C1 5B BE 1F 12 B7 
D7 F2 2C 5E FE 1D E2 44 41 C6 D7 4B 5C C5 7F 95 B1 DD 35 1F AE EE 1A 11 00 9C E0 F8 1A 00 64 D4 
47 00 90 51 1F 01 40 46 7D 04 00 19 F5 11 00 64 D4 47 00 90 59 BF 5F 78 FF F4 7C F7 F0 58 35 14 
00 70 C5 5A 1F 6F CE E7 DB CB A5 6A 28 00 E0 0A D7 87 03 80 8C F9 47 00 90 51 1F 01 40 46 7D 04 
00 19 F5 11 00 64 5B EF 1F 3E BF 8D 52 F3 5B 12 2D 9A DC 4F C9 D5 7A E4 8B 8C F7 E6 4A BD C6 7F 
82 05 E5 DD 16 6C FC 5F 27 4D 24 06 9C BA 2D 98 DB DB F4 65 0C CB E6 C3 75 53 7D 9C F7 44 94 55 
26 C4 A8 FC 07 6F 5C DB 7E ED 42 EC 5D CA 5E 75 DE 5B 9B A4 02 4E 95 18 BD E2 B7 92 31 2C 3D 0C 
D7 FC E3 EB BE B7 2E 20 90 D4 C6 C8 46 BA 51 7E 7D 0C DA EE 47 1E 31 87 4D 5C D1 7C 0F 05 9E 1D 
71 FD C2 E6 93 1A 68 CE 72 34 1A 65 6C B0 F3 58 CF 11 EB 63 DF BB 0C 8B 0B B1 A7 4A 43 67 94 76 
50 26 BF 1C 8E 8D C5 0E 0D 41 C9 C2 92 60 AB 59 D4 C3 D5 C7 A0 C3 CB CE 7E FE C1 C9 F6 5F 89 D2 
0E A9 AC 7D B6 86 87 D3 14 DB 65 9C 9F 19 D7 CD 49 0D DD CD E1 EA 23 D0 93 BE 0F AE 9B A7 70 B8 
EB C3 9D 5C EE D0 C4 91 73 B7 A0 7D 5C F1 D0 1D 87 AB 8F 63 7D 7C C6 A2 06 C6 06 4E DB EF 6F 16 
FD FB 33 DD 04 3F 99 D0 11 5F A3 3F D5 9F 8D DF 9F F1 D3 3E 7A C0 51 8E AF 23 7E 7F C6 5D 23 02 
80 13 87 3E BE 06 00 05 F5 11 00 64 D4 47 00 90 51 1F 01 40 46 7D 04 00 19 F5 11 00 64 D6 EF 17 
DE 3F 3D DF 3D 3C 56 0D 05 00 5C B1 D6 C7 9B F3 F9 F6 72 A9 1A 0A 00 B8 C2 F5 E1 00 20 63 FE 11 
00 64 D4 47 00 90 51 1F 01 40 46 7D 04 00 59 FE FD C3 DD DE 92 68 51 B8 DB 5B 8D 59 22 0C 9D 60 
41 96 55 4D 42 DC 1C CC B2 AD 9D CC B7 3E 6B 25 E2 FD CD 32 EB A3 E7 25 BD 75 19 EB 60 F8 61 89 
30 74 82 05 2D 26 9B BA 3D B5 87 DB 56 8F E9 89 58 3E 23 3D C8 18 96 1E 86 2B C7 D7 38 A2 28 7B 
8E 79 FA C8 C2 83 CC FA D8 4D EB 77 93 08 EC 94 F2 11 68 3C F4 91 C5 DC E2 32 93 7B 3A E8 FA 85 
07 59 03 1A 7D 6B 3E 3D 57 90 CF 4D B2 40 7D 0C B7 33 9F 9A FB E8 7E 21 F6 C3 1A 37 48 B8 E1 3A 
A6 9C 90 09 94 D7 7C 6E 54 99 8E 54 1E DC C1 11 F7 1F 95 29 ED A0 03 6E AC 8F 2C B6 13 57 97 8F 
D8 1A 62 22 A7 68 9F 7C A9 2C 86 47 5A 04 B5 6C 6B 7D 8C 38 E0 70 10 A9 33 30 93 FF FA 1F C0 FE 
23 B4 C8 CE A2 61 1F 6D 3A 7F 1D 62 6C E1 98 C4 0B 5C 5E DE 76 8A 50 7A A2 5C 87 A4 CB 8E B6 6D 
91 C9 AF 8F 14 47 C0 89 5E 37 C6 E6 79 65 FE F9 F9 A7 81 65 71 7A 27 42 7F BD 44 F9 A6 81 A5 0B 
FC 27 58 D0 A1 BE 3F E3 E7 9C 46 CA DA 61 A9 14 99 DD F8 6A 41 00 F0 83 EF CF 00 80 8C FA 08 00 
32 EA 23 00 C8 A8 8F 00 20 A3 3E 02 80 8C FA 08 00 32 EB F7 0B EF 9F 9E EF 1E 1E AB 86 02 00 AE 
58 EB E3 CD F9 7C 7B B9 54 0D 05 00 5C E1 FA 70 00 90 31 FF 08 00 32 EA 23 00 C8 A8 8F 00 20 A3 
3E 02 80 2C FF FE E1 79 6B 96 37 67 BC 33 DB E4 29 3F 2C F7 EC 9A 3C E2 6A C1 F5 3D 65 DC 16 CC 
67 FB AC 4D C4 67 16 57 CA 3D E5 86 9F FD E4 98 59 1F F3 D6 2C F7 C0 BE 3D 38 BC 3F B3 65 6D 19 
25 8B 43 2D 4D 93 B1 EA BC CF F6 59 9B 88 CF 2C AE 94 7B A1 FB CC F1 D0 C7 D7 4A B3 BA 1A 55 D9 
FA C8 02 7D 88 38 1A 33 EB 63 DF 65 05 40 71 11 2B 43 F9 F5 5D 3D CF 7D 8C B1 F3 08 40 57 A0 3E 
2A 93 8F 6C A2 6E 39 9C 5D AD 67 F2 99 1D E5 23 7C AE 8F B5 0C 03 29 BC FF 18 6B B4 1D 8D BE 46 
7B 67 52 C9 7A 3E 7D 21 4A 25 72 A8 DE 6C 65 6B 7D F4 3F BC 44 87 3D B8 EE 20 35 BB 6E 92 4D 25 
D2 4D 82 6E 6D 3A 7F 3D DF 08 F9 10 F3 EC 50 BD D3 4D B2 1C 53 37 94 5F 1F 17 F7 B3 FA D8 11 03 
70 58 99 25 CC F8 2D 14 B7 F5 31 EE F1 B5 F2 75 02 CB B4 5A 88 DE 29 85 EF CF 9C 3C 65 71 15 EB 
FB 33 AE 6B 01 00 34 74 E8 EF CF 00 80 82 FA 08 00 32 EA 23 00 C8 A8 8F 00 20 A3 3E 02 80 8C FA 
08 00 32 EB F7 0B EF 9F 9E EF 1E 1E AB 86 02 00 AE 58 EB E3 CD F9 7C 7B B9 54 0D 05 00 5C E1 FA 
70 00 90 31 FF 08 00 32 EA 23 00 C8 A8 8F 00 20 A3 3E 02 80 2C FF FE E1 11 EF AD 74 15 EE F6 56 
63 8B 11 2A B7 9E B3 FC 7A 7F C4 1B 6A 59 9A D1 DB D8 58 95 88 DB 41 9E 7D E7 BD 54 FA 55 53 C8 
AC 8F CD D7 ED CE 16 6E 79 F8 31 4B 84 CA C6 E0 3F C1 E2 C4 9B 6C 2F B6 C3 FC B7 9A 37 DD AA 44 
DC 0E 72 E5 5E E8 6B 7B 44 79 B7 82 38 BE EE D9 11 2A A0 22 2F 7D 87 8D E6 30 A4 0C D9 59 34 D9 
73 BC CA AC 8F 1D F4 D6 A2 23 E4 D8 B7 BC 1E 74 D8 EF 6B 43 72 98 C2 29 37 AA B6 2B CD 15 5E DF 
B5 03 E3 35 33 DB 46 B2 51 1F 3B 1D 40 43 9B EA 63 C4 52 A2 2F 0F AF CC D4 74 40 CF 1D 8A B8 4D 
A7 2F B5 B4 73 30 6B 35 DF 06 37 D5 C7 88 A5 44 9F 09 8E 92 45 9E E6 27 19 E2 EA A6 E9 C6 85 7E 
52 F4 BD F1 D0 C8 1C 5F F7 C9 C3 D8 42 73 96 2B 1C 3C 9B 94 EF FD 47 75 99 EB 7B 00 78 D3 F0 B4 
6F 11 CA DC D7 6E B8 BE 07 E8 50 A0 3A E8 59 E6 FE 63 6A BA DA FF 34 B6 12 61 E8 E0 2D DB 83 FF 
04 F7 91 D1 0E 3E 9B 2E 15 D5 F5 C1 40 5B A8 CF A8 4E DC FF 11 00 52 38 BE 06 00 19 F5 11 00 64 
D4 47 00 90 51 1F 01 40 46 7D 04 00 19 F5 11 00 64 D6 EB 1F EF 9F 9E EF 1E 1E AB 86 02 00 AE 58 
EB E3 CD F9 7C 7B B9 54 0D 05 00 5C E1 FA 70 00 90 31 FF 08 00 32 EA 23 00 C8 A8 8F 00 20 A3 3E 
02 80 AC C0 FD C3 E7 B7 9E 1F 7E F6 7C F2 A7 D4 B2 F1 3B B3 44 38 79 24 D5 3B A9 77 E8 CC DA 8E 
56 EE 18 36 B6 7F D3 E9 2B C9 AC 1D AE AD 46 B2 FE 77 F5 95 AF F7 1F C9 5B EB A3 7E 03 F4 E6 D5 
24 A5 D4 B2 F1 3B B3 34 EF 62 CC 3E 7B A4 92 B5 1D 9D 7A AA F9 48 50 FE 62 EA A9 8C 5F A9 4D FF 
BB F3 67 9B AF 16 B5 E9 F8 DA 6D F9 D3 75 B3 6C FC A2 88 31 17 54 29 FD FD 5B F5 98 7B 8E 1E E4 
D7 47 9F F9 58 1C A4 38 CE F5 91 85 5D 37 C9 2A 89 A4 9E CA F8 95 DA F4 BF 2B 3E DB BC C4 B3 7E 
61 B7 F2 26 58 A1 3B DA 67 8C 5B FB 8C 64 D6 2F 5C D6 53 B2 21 66 87 9D 68 3E DD 8C 31 65 F2 B1 
DE 48 CE A9 8F 87 DA AE 7A 4A B6 9B 44 EA 19 2F 14 35 59 34 0A 7E EC 36 92 F3 F7 1F 27 FF ED 78 
DB 8B 98 6C 88 20 7D 0A 77 0E E1 08 5A B5 7C 4E 7D F4 B0 6E F7 6E 7A 4A 36 74 F0 FB A0 89 1C 12 
AF B4 DB A7 9B F8 FE CC 41 51 08 10 C2 E2 40 AD 3A 92 0B 9F BF 76 BB CE B7 85 FF E0 95 08 2D A3 
84 09 B5 2B A5 19 FD 8F 81 43 B9 F6 C5 BC 47 76 1B C9 EC 44 00 80 8C E3 6B 00 90 51 1F 01 40 46 
7D 04 00 19 F5 11 00 64 D4 47 00 90 51 1F 01 40 66 BD FE F1 FE E9 F9 EE E1 B1 6A 28 00 E0 8A B5 
3E DE 9C CF B7 97 4B D5 50 00 C0 15 AE 0F 07 00 19 F3 8F 00 20 A3 3E 02 80 8C FA 08 00 32 EA 23 
00 C8 F2 EF 6F 96 5A 9F 3B CA ED A1 56 2D 5F E5 27 A9 C5 48 F4 05 AF FD 24 B2 9B B5 2B 9D BA 1D 
03 AB 12 51 A2 6D 9B 88 B2 20 ED F0 B3 D8 29 4D B2 D8 74 FF C7 C5 34 DC DE 84 75 D5 B2 F1 7E 92 
B2 44 A2 0C 23 3F 89 EC 46 B9 4B 60 AC 31 B0 2A 11 25 DA B6 89 A4 B2 D0 A3 5A 95 60 59 47 3C BE 
3E 42 5D B8 3A 4E A6 A2 B5 7B 8E 6E F5 91 48 5E A8 6D 13 CC AC 8F 81 7A 65 6E ED 92 EA 71 33 9D 
E8 26 11 23 25 DF 58 4D 51 2F 91 3D DB 21 2F 0B F1 29 EF EB 17 9E 5A CF 62 60 51 E8 CF 30 54 35 
5E C3 B6 6D 24 CE E5 D7 C7 BE 67 B2 94 59 E4 E8 99 B2 6D 28 FA 5B 7F 46 9F BC 73 38 9E ED 21 ED 
30 92 33 EB A3 B7 36 85 9D E7 6D A3 B9 E6 E7 61 8A 18 57 F9 F9 52 56 11 33 12 ED 30 92 0B AF 5F 
D8 87 0E 76 1E 03 85 8A 1A 82 F6 BE B7 71 9B 7F 7E A6 6C 1C 7E 74 50 1C 53 3A EE 35 8C 05 ED E8 
8C 23 EB DA 0A 5C DF D3 41 E1 18 74 5C 1C 01 CF 7C 6E 62 F9 F3 8F 62 09 0F 3D BD 9D 5A 8C 3C F5 
F8 FE 94 E6 B5 0C AF D0 BD B3 8F 54 13 C5 6A 3A 25 5A 9F 89 AC DD C4 76 CB C2 63 CD 06 00 0F 8E 
F8 FD 19 00 B0 A0 3E 02 80 8C FA 08 00 32 EA 23 00 C8 A8 8F 00 20 A3 3E 02 80 CC 7A FD E3 FD D3 
F3 DD C3 63 D5 50 00 C0 15 6B 7D BC 39 9F 6F 2F 97 AA A1 00 80 2B 5C 1F 0E 00 32 E6 1F 01 40 46 
7D 04 00 19 F5 11 00 64 D4 47 00 90 95 5F 9F CB E1 DD 93 44 FA 0D C1 94 15 78 DB 26 B5 18 C9 FC 
BE 73 96 D5 D6 3B 26 26 AB 34 A3 DB 81 BD 2A 91 8C 04 F7 A1 DC 62 75 F8 D9 92 C8 3E 8B 46 64 D6 
47 B7 CB A8 1B E9 F7 1F 9E 3C EB 27 29 4B 24 CA C6 90 7A A4 63 62 B2 4A 33 BA 1D D8 AB 12 C9 48 
70 1F A9 B1 97 D7 EC 3B 44 7E C4 E3 EB 55 7B 8E A1 CD 73 E9 29 BB 45 DD 24 DB 47 22 11 B3 28 53 
1F 63 A5 7D 90 E2 28 EA 3B BB 89 54 B2 F6 46 D8 FE 0E 45 D4 0B 63 CF 44 94 BF B5 36 8C DD B6 D3 
4D EB 17 B2 92 B2 67 DD D7 FA 7A 52 03 BB 9B 01 DF 41 22 FB CC A2 6E 3A 3F D3 D9 4A CA 7D 64 81 
55 F4 29 08 CB CF 4E 8C 43 D2 97 67 71 9B C8 AA AA BD CF 2C 6A 7E 7D F4 D3 AC 45 B8 1A 28 68 C8 
C9 31 F5 16 CD 4F 6B E4 B1 57 ED DD 52 D8 74 7C DD 19 FD B4 75 2C A1 83 DF 4D 37 AD D4 4D 22 DE 
50 1F 7F EF C8 E7 79 8F A9 9B 2E EE 20 91 B5 29 EC 96 F2 11 AF EF 01 3A A8 29 57 DD 24 92 AD 6A 
0B 64 EE 3F F6 B1 8C BA 91 9F A4 94 48 D8 4E EC 94 D5 E8 63 0D EC 54 22 4A B4 3E 13 59 DB EC 93 
C7 EB 61 A3 02 00 19 C7 D7 00 20 A3 3E 02 80 8C FA 08 00 32 EA 23 00 C8 A8 8F 00 20 A3 3E 02 80 
CC 7A FD E3 FD D3 F3 DD C3 63 D5 50 00 C0 15 6B 7D BC 39 9F 6F 2F 97 AA A1 00 80 2B 5C 1F 0E 00 
32 E6 1F 01 40 46 7D 04 00 19 F5 11 00 64 D4 47 00 90 E5 AF 7F 3D 79 64 7C 6F F4 F9 83 0E 2D AE 
B6 7E 72 99 94 25 12 B7 6B C3 37 B1 D8 D1 FA 8A E1 E2 18 98 FF D6 0E EC 89 28 9B 67 EA 57 76 B3 
78 23 BE F9 E2 10 C3 CF FB 67 91 7F FF C7 F1 7F 87 58 9B 2F A3 6E A4 DC 3C 4E 1C 82 4E 92 B2 44 
E2 76 6D F8 26 C4 8E 5E 6C 07 87 4B D0 AC 4A 44 A9 F8 6D C7 C0 E2 4D 1B F5 35 4E 86 FF EE 96 45 
81 E3 EB 70 9B 59 B8 80 91 A7 9B 8E DE 92 88 9F 46 58 BB E7 E8 C1 11 E7 1F 95 C3 52 6F DD B3 5D 
7F 19 D9 65 EC 06 A6 C6 40 DB B1 E1 70 7F 36 43 C1 E2 18 66 FD C2 CE 6A 4A 37 D3 73 1D 2C 00 DF 
4A DB 09 AF B2 3A DB 3C F7 C7 FA 85 6F 49 CD E6 C4 DA 36 2C 0B C0 EF B3 7C 87 67 A9 8F 90 D4 C4 
96 DB A9 DB 55 9F 85 3E 07 B3 DB 09 04 EA E3 B7 8C C7 DD AE B6 0D 91 72 38 36 DE 96 0E 5E 22 C5 
8F 90 88 47 B2 8B 9F 85 63 0E 07 B3 87 18 52 36 D5 47 CF 89 41 44 7F 1D 47 A0 CD 53 3F 6D AD FF 
62 D5 1C 8F 78 7E 26 A5 FB FD A9 EE 13 34 52 DA 21 F5 94 CF A6 F3 19 D5 5A 2F 6F 3B 99 3F C5 77 
F8 00 A0 3E CA 02 7D F6 A2 12 9F E7 B2 C7 78 A8 C8 00 00 00 5E 49 44 41 54 71 B5 4F 2F 14 9E 7F 
F4 39 FB 6B 94 9A 92 F3 93 94 12 89 E5 6C 92 9F 44 DA B2 37 D1 E2 E3 6D 65 74 68 AC 31 90 8A F6 
FA E0 0E 89 F0 49 08 00 32 8E AF 01 40 46 7D 04 00 19 F5 11 00 64 D4 47 00 90 51 1F 01 40 46 7D 
04 00 99 F5 FA C7 FB A7 E7 BB 87 C7 AA A1 00 80 2B FF 0F C3 78 78 EB AB C5 E1 45 00 00 00 00 49 
45 4E 44 AE 42 60 82 00 
EndData
$EndBitmap
Text Notes 4750 4800 0    39   ~ 0
1Kohm
$EndSCHEMATC
