%FSLAX45Y45*%
G04 Gerber Fmt 4.5, Leading zero omitted, Abs format (unit mm)*
G04 Created by KiCad (PCBNEW 5.1.10-88a1d61d58~88~ubuntu20.10.1) date 2021-06-28 07:27:36*
%MOMM*%
%LPD*%
G01*
G04 APERTURE LIST*
%TA.AperFunction,Profile*%
%ADD10C,0.050000*%
%TD*%
%ADD11C,0.200000*%
%ADD12C,0.300000*%
G04 APERTURE END LIST*
D10*
X12400000Y-6350000D02*
G75*
G02*
X12250000Y-6200000I0J150000D01*
G01*
X12400000Y-7800000D02*
G75*
G02*
X12400000Y-7500000I0J150000D01*
G01*
X12500000Y-7800000D02*
X12500000Y-8000000D01*
X12400000Y-7800000D02*
X12500000Y-7800000D01*
X12400000Y-7500000D02*
X12500000Y-7500000D01*
X12250000Y-6200000D02*
X12250000Y-6000000D01*
X12500000Y-6350000D02*
X12400000Y-6350000D01*
X4900000Y-8000000D02*
G75*
G02*
X4800000Y-7900000I0J100000D01*
G01*
X4800000Y-6100000D02*
G75*
G02*
X4900000Y-6000000I100000J0D01*
G01*
X12500000Y-6350000D02*
X12500000Y-7500000D01*
X4900000Y-8000000D02*
X12500000Y-8000000D01*
X4800000Y-6100000D02*
X4800000Y-7900000D01*
X4900000Y-6000000D02*
X12250000Y-6000000D01*
D11*
X4880000Y-6480000D02*
X4920000Y-6520000D01*
X4920000Y-6480000D02*
X4880000Y-6520000D01*
X4880000Y-6570000D02*
X4920000Y-6610000D01*
X4920000Y-6570000D02*
X4880000Y-6610000D01*
X4880000Y-6670000D02*
X4920000Y-6710000D01*
X4920000Y-6670000D02*
X4880000Y-6710000D01*
X4880000Y-6770000D02*
X4920000Y-6810000D01*
X4920000Y-6770000D02*
X4880000Y-6810000D01*
X4880000Y-6870000D02*
X4920000Y-6910000D01*
X4920000Y-6870000D02*
X4880000Y-6910000D01*
X4880000Y-6970000D02*
X4920000Y-7010000D01*
X4920000Y-6970000D02*
X4880000Y-7010000D01*
X4880000Y-7060000D02*
X4920000Y-7100000D01*
X4920000Y-7060000D02*
X4880000Y-7100000D01*
X4880000Y-7160000D02*
X4920000Y-7200000D01*
X4920000Y-7160000D02*
X4880000Y-7200000D01*
X4880000Y-7260000D02*
X4920000Y-7300000D01*
X4920000Y-7260000D02*
X4880000Y-7300000D01*
X4880000Y-7360000D02*
X4920000Y-7400000D01*
X4920000Y-7360000D02*
X4880000Y-7400000D01*
X4880000Y-7790000D02*
X4920000Y-7830000D01*
X4920000Y-7790000D02*
X4880000Y-7830000D01*
X4880000Y-7880000D02*
X4920000Y-7920000D01*
X4920000Y-7880000D02*
X4880000Y-7920000D01*
X4980000Y-6480000D02*
X5020000Y-6520000D01*
X5020000Y-6480000D02*
X4980000Y-6520000D01*
X4980000Y-6570000D02*
X5020000Y-6610000D01*
X5020000Y-6570000D02*
X4980000Y-6610000D01*
X4980000Y-6670000D02*
X5020000Y-6710000D01*
X5020000Y-6670000D02*
X4980000Y-6710000D01*
X4980000Y-6770000D02*
X5020000Y-6810000D01*
X5020000Y-6770000D02*
X4980000Y-6810000D01*
X4980000Y-6870000D02*
X5020000Y-6910000D01*
X5020000Y-6870000D02*
X4980000Y-6910000D01*
X4980000Y-6970000D02*
X5020000Y-7010000D01*
X5020000Y-6970000D02*
X4980000Y-7010000D01*
X4980000Y-7060000D02*
X5020000Y-7100000D01*
X5020000Y-7060000D02*
X4980000Y-7100000D01*
X4980000Y-7160000D02*
X5020000Y-7200000D01*
X5020000Y-7160000D02*
X4980000Y-7200000D01*
X4980000Y-7260000D02*
X5020000Y-7300000D01*
X5020000Y-7260000D02*
X4980000Y-7300000D01*
X4980000Y-7790000D02*
X5020000Y-7830000D01*
X5020000Y-7790000D02*
X4980000Y-7830000D01*
X4980000Y-7880000D02*
X5020000Y-7920000D01*
X5020000Y-7880000D02*
X4980000Y-7920000D01*
X5080000Y-6480000D02*
X5120000Y-6520000D01*
X5120000Y-6480000D02*
X5080000Y-6520000D01*
X5080000Y-7790000D02*
X5120000Y-7830000D01*
X5120000Y-7790000D02*
X5080000Y-7830000D01*
X5080000Y-7880000D02*
X5120000Y-7920000D01*
X5120000Y-7880000D02*
X5080000Y-7920000D01*
X5180000Y-7790000D02*
X5220000Y-7830000D01*
X5220000Y-7790000D02*
X5180000Y-7830000D01*
X5180000Y-7880000D02*
X5220000Y-7920000D01*
X5220000Y-7880000D02*
X5180000Y-7920000D01*
X5280000Y-7880000D02*
X5320000Y-7920000D01*
X5320000Y-7880000D02*
X5280000Y-7920000D01*
X5300000Y-6110000D02*
X5340000Y-6150000D01*
X5340000Y-6110000D02*
X5300000Y-6150000D01*
X5300000Y-6210000D02*
X5340000Y-6250000D01*
X5340000Y-6210000D02*
X5300000Y-6250000D01*
X5380000Y-7880000D02*
X5420000Y-7920000D01*
X5420000Y-7880000D02*
X5380000Y-7920000D01*
X5430000Y-7190000D02*
X5470000Y-7230000D01*
X5470000Y-7190000D02*
X5430000Y-7230000D01*
X5480000Y-7880000D02*
X5520000Y-7920000D01*
X5520000Y-7880000D02*
X5480000Y-7920000D01*
X5580000Y-7880000D02*
X5620000Y-7920000D01*
X5620000Y-7880000D02*
X5580000Y-7920000D01*
X5620000Y-6240000D02*
X5660000Y-6280000D01*
X5660000Y-6240000D02*
X5620000Y-6280000D01*
X5620000Y-6340000D02*
X5660000Y-6380000D01*
X5660000Y-6340000D02*
X5620000Y-6380000D01*
X5620000Y-6440000D02*
X5660000Y-6480000D01*
X5660000Y-6440000D02*
X5620000Y-6480000D01*
X5620000Y-6440000D02*
X5660000Y-6480000D01*
X5660000Y-6440000D02*
X5620000Y-6480000D01*
X5620000Y-6440000D02*
X5660000Y-6480000D01*
X5660000Y-6440000D02*
X5620000Y-6480000D01*
X5680000Y-7880000D02*
X5720000Y-7920000D01*
X5720000Y-7880000D02*
X5680000Y-7920000D01*
X5689000Y-7370000D02*
X5729000Y-7410000D01*
X5729000Y-7370000D02*
X5689000Y-7410000D01*
X5720000Y-6240000D02*
X5760000Y-6280000D01*
X5760000Y-6240000D02*
X5720000Y-6280000D01*
X5720000Y-6340000D02*
X5760000Y-6380000D01*
X5760000Y-6340000D02*
X5720000Y-6380000D01*
X5720000Y-6440000D02*
X5760000Y-6480000D01*
X5760000Y-6440000D02*
X5720000Y-6480000D01*
X5743750Y-6990000D02*
X5783750Y-7030000D01*
X5783750Y-6990000D02*
X5743750Y-7030000D01*
X5780000Y-7880000D02*
X5820000Y-7920000D01*
X5820000Y-7880000D02*
X5780000Y-7920000D01*
X5820000Y-7340000D02*
X5860000Y-7380000D01*
X5860000Y-7340000D02*
X5820000Y-7380000D01*
X5905000Y-6602500D02*
X5945000Y-6642500D01*
X5945000Y-6602500D02*
X5905000Y-6642500D01*
X5910000Y-7090000D02*
X5950000Y-7130000D01*
X5950000Y-7090000D02*
X5910000Y-7130000D01*
X5915000Y-6710000D02*
X5955000Y-6750000D01*
X5955000Y-6710000D02*
X5915000Y-6750000D01*
X6020000Y-6602500D02*
X6060000Y-6642500D01*
X6060000Y-6602500D02*
X6020000Y-6642500D01*
X6060000Y-7325000D02*
X6100000Y-7365000D01*
X6100000Y-7325000D02*
X6060000Y-7365000D01*
X6060000Y-7405000D02*
X6100000Y-7445000D01*
X6100000Y-7405000D02*
X6060000Y-7445000D01*
X6060000Y-7485000D02*
X6100000Y-7525000D01*
X6100000Y-7485000D02*
X6060000Y-7525000D01*
X6138750Y-7865000D02*
X6178750Y-7905000D01*
X6178750Y-7865000D02*
X6138750Y-7905000D01*
X6140000Y-7325000D02*
X6180000Y-7365000D01*
X6180000Y-7325000D02*
X6140000Y-7365000D01*
X6140000Y-7405000D02*
X6180000Y-7445000D01*
X6180000Y-7405000D02*
X6140000Y-7445000D01*
X6140000Y-7405000D02*
X6180000Y-7445000D01*
X6180000Y-7405000D02*
X6140000Y-7445000D01*
X6140000Y-7405000D02*
X6180000Y-7445000D01*
X6180000Y-7405000D02*
X6140000Y-7445000D01*
X6140000Y-7485000D02*
X6180000Y-7525000D01*
X6180000Y-7485000D02*
X6140000Y-7525000D01*
X6160000Y-6200000D02*
X6200000Y-6240000D01*
X6200000Y-6200000D02*
X6160000Y-6240000D01*
X6160000Y-6300000D02*
X6200000Y-6340000D01*
X6200000Y-6300000D02*
X6160000Y-6340000D01*
X6160000Y-6400000D02*
X6200000Y-6440000D01*
X6200000Y-6400000D02*
X6160000Y-6440000D01*
X6220000Y-7325000D02*
X6260000Y-7365000D01*
X6260000Y-7325000D02*
X6220000Y-7365000D01*
X6220000Y-7405000D02*
X6260000Y-7445000D01*
X6260000Y-7405000D02*
X6220000Y-7445000D01*
X6220000Y-7485000D02*
X6260000Y-7525000D01*
X6260000Y-7485000D02*
X6220000Y-7525000D01*
X6222656Y-7739499D02*
X6262656Y-7779499D01*
X6262656Y-7739499D02*
X6222656Y-7779499D01*
X6260000Y-6200000D02*
X6300000Y-6240000D01*
X6300000Y-6200000D02*
X6260000Y-6240000D01*
X6260000Y-6300000D02*
X6300000Y-6340000D01*
X6300000Y-6300000D02*
X6260000Y-6340000D01*
X6260000Y-6400000D02*
X6300000Y-6440000D01*
X6300000Y-6400000D02*
X6260000Y-6440000D01*
X6381999Y-7692207D02*
X6421999Y-7732207D01*
X6421999Y-7692207D02*
X6381999Y-7732207D01*
X6423598Y-7431999D02*
X6463598Y-7471999D01*
X6463598Y-7431999D02*
X6423598Y-7471999D01*
X6450494Y-7578001D02*
X6490494Y-7618001D01*
X6490494Y-7578001D02*
X6450494Y-7618001D01*
X6546250Y-7210000D02*
X6586250Y-7250000D01*
X6586250Y-7210000D02*
X6546250Y-7250000D01*
X6580000Y-7890000D02*
X6620000Y-7930000D01*
X6620000Y-7890000D02*
X6580000Y-7930000D01*
X6614497Y-7635502D02*
X6654497Y-7675502D01*
X6654497Y-7635502D02*
X6614497Y-7675502D01*
X6623453Y-7795972D02*
X6663453Y-7835972D01*
X6663453Y-7795972D02*
X6623453Y-7835972D01*
X6733750Y-7415000D02*
X6773750Y-7455000D01*
X6773750Y-7415000D02*
X6733750Y-7455000D01*
X6780000Y-6120000D02*
X6820000Y-6160000D01*
X6820000Y-6120000D02*
X6780000Y-6160000D01*
X6940000Y-6559998D02*
X6980000Y-6599998D01*
X6980000Y-6559998D02*
X6940000Y-6599998D01*
X7000000Y-7640000D02*
X7040000Y-7680000D01*
X7040000Y-7640000D02*
X7000000Y-7680000D01*
X7015004Y-6889000D02*
X7055004Y-6929000D01*
X7055004Y-6889000D02*
X7015004Y-6929000D01*
X7127500Y-7002500D02*
X7167500Y-7042500D01*
X7167500Y-7002500D02*
X7127500Y-7042500D01*
X7127500Y-7112500D02*
X7167500Y-7152500D01*
X7167500Y-7112500D02*
X7127500Y-7152500D01*
X7127500Y-7225000D02*
X7167500Y-7265000D01*
X7167500Y-7225000D02*
X7127500Y-7265000D01*
X7130000Y-6510000D02*
X7170000Y-6550000D01*
X7170000Y-6510000D02*
X7130000Y-6550000D01*
X7210000Y-6300000D02*
X7250000Y-6340000D01*
X7250000Y-6300000D02*
X7210000Y-6340000D01*
X7316000Y-6288000D02*
X7356000Y-6328000D01*
X7356000Y-6288000D02*
X7316000Y-6328000D01*
X7320000Y-6132499D02*
X7360000Y-6172499D01*
X7360000Y-6132499D02*
X7320000Y-6172499D01*
X7320000Y-6510000D02*
X7360000Y-6550000D01*
X7360000Y-6510000D02*
X7320000Y-6550000D01*
X7322000Y-7095500D02*
X7362000Y-7135500D01*
X7362000Y-7095500D02*
X7322000Y-7135500D01*
X7447000Y-6273000D02*
X7487000Y-6313000D01*
X7487000Y-6273000D02*
X7447000Y-6313000D01*
X7500224Y-7344762D02*
X7540224Y-7384762D01*
X7540224Y-7344762D02*
X7500224Y-7384762D01*
X7520000Y-7580000D02*
X7560000Y-7620000D01*
X7560000Y-7580000D02*
X7520000Y-7620000D01*
X7520000Y-7873750D02*
X7560000Y-7913750D01*
X7560000Y-7873750D02*
X7520000Y-7913750D01*
X7573058Y-6251498D02*
X7613058Y-6291498D01*
X7613058Y-6251498D02*
X7573058Y-6291498D01*
X7607000Y-6905000D02*
X7647000Y-6945000D01*
X7647000Y-6905000D02*
X7607000Y-6945000D01*
X7626801Y-7359022D02*
X7666801Y-7399022D01*
X7666801Y-7359022D02*
X7626801Y-7399022D01*
X7678000Y-6375000D02*
X7718000Y-6415000D01*
X7718000Y-6375000D02*
X7678000Y-6415000D01*
X7686000Y-6040000D02*
X7726000Y-6080000D01*
X7726000Y-6040000D02*
X7686000Y-6080000D01*
X7730003Y-7200501D02*
X7770003Y-7240501D01*
X7770003Y-7200501D02*
X7730003Y-7240501D01*
X7780000Y-7720000D02*
X7820000Y-7760000D01*
X7820000Y-7720000D02*
X7780000Y-7760000D01*
X7788000Y-6663000D02*
X7828000Y-6703000D01*
X7828000Y-6663000D02*
X7788000Y-6703000D01*
X7865500Y-7020000D02*
X7905500Y-7060000D01*
X7905500Y-7020000D02*
X7865500Y-7060000D01*
X7870000Y-7320000D02*
X7910000Y-7360000D01*
X7910000Y-7320000D02*
X7870000Y-7360000D01*
X7886250Y-6560000D02*
X7926250Y-6600000D01*
X7926250Y-6560000D02*
X7886250Y-6600000D01*
X7900000Y-7182500D02*
X7940000Y-7222500D01*
X7940000Y-7182500D02*
X7900000Y-7222500D01*
X8022494Y-7384999D02*
X8062494Y-7424999D01*
X8062494Y-7384999D02*
X8022494Y-7424999D01*
X8100000Y-6780000D02*
X8140000Y-6820000D01*
X8140000Y-6780000D02*
X8100000Y-6820000D01*
X8220000Y-6254500D02*
X8260000Y-6294500D01*
X8260000Y-6254500D02*
X8220000Y-6294500D01*
X8220000Y-7383499D02*
X8260000Y-7423499D01*
X8260000Y-7383499D02*
X8220000Y-7423499D01*
X8400000Y-6480000D02*
X8440000Y-6520000D01*
X8440000Y-6480000D02*
X8400000Y-6520000D01*
X8430000Y-6230000D02*
X8470000Y-6270000D01*
X8470000Y-6230000D02*
X8430000Y-6270000D01*
X8500000Y-6680000D02*
X8540000Y-6720000D01*
X8540000Y-6680000D02*
X8500000Y-6720000D01*
X8531500Y-7772501D02*
X8571500Y-7812501D01*
X8571500Y-7772501D02*
X8531500Y-7812501D01*
X8600000Y-7314499D02*
X8640000Y-7354499D01*
X8640000Y-7314499D02*
X8600000Y-7354499D01*
X8625000Y-6479000D02*
X8665000Y-6519000D01*
X8665000Y-6479000D02*
X8625000Y-6519000D01*
X8657000Y-7737000D02*
X8697000Y-7777000D01*
X8697000Y-7737000D02*
X8657000Y-7777000D01*
X8720000Y-6760000D02*
X8760000Y-6800000D01*
X8760000Y-6760000D02*
X8720000Y-6800000D01*
X8738081Y-6251897D02*
X8778081Y-6291897D01*
X8778081Y-6251897D02*
X8738081Y-6291897D01*
X8831000Y-6248000D02*
X8871000Y-6288000D01*
X8871000Y-6248000D02*
X8831000Y-6288000D01*
X8854000Y-6718000D02*
X8894000Y-6758000D01*
X8894000Y-6718000D02*
X8854000Y-6758000D01*
X8920000Y-7799999D02*
X8960000Y-7839999D01*
X8960000Y-7799999D02*
X8920000Y-7839999D01*
X9099000Y-7393000D02*
X9139000Y-7433000D01*
X9139000Y-7393000D02*
X9099000Y-7433000D01*
X9102000Y-7787000D02*
X9142000Y-7827000D01*
X9142000Y-7787000D02*
X9102000Y-7827000D01*
X9169360Y-6544756D02*
X9209360Y-6584756D01*
X9209360Y-6544756D02*
X9169360Y-6584756D01*
X9260000Y-6120000D02*
X9300000Y-6160000D01*
X9300000Y-6120000D02*
X9260000Y-6160000D01*
X9420000Y-7040000D02*
X9460000Y-7080000D01*
X9460000Y-7040000D02*
X9420000Y-7080000D01*
X9425000Y-7412000D02*
X9465000Y-7452000D01*
X9465000Y-7412000D02*
X9425000Y-7452000D01*
X9557999Y-6584999D02*
X9597999Y-6624999D01*
X9597999Y-6584999D02*
X9557999Y-6624999D01*
X9620000Y-6120000D02*
X9660000Y-6160000D01*
X9660000Y-6120000D02*
X9620000Y-6160000D01*
X9640000Y-6270000D02*
X9680000Y-6310000D01*
X9680000Y-6270000D02*
X9640000Y-6310000D01*
X9696000Y-6512437D02*
X9736000Y-6552437D01*
X9736000Y-6512437D02*
X9696000Y-6552437D01*
X9792501Y-6320000D02*
X9832501Y-6360000D01*
X9832501Y-6320000D02*
X9792501Y-6360000D01*
X9792501Y-6610000D02*
X9832501Y-6650000D01*
X9832501Y-6610000D02*
X9792501Y-6650000D01*
X9900000Y-6500000D02*
X9940000Y-6540000D01*
X9940000Y-6500000D02*
X9900000Y-6540000D01*
X9900000Y-7500000D02*
X9940000Y-7540000D01*
X9940000Y-7500000D02*
X9900000Y-7540000D01*
X9935000Y-6673000D02*
X9975000Y-6713000D01*
X9975000Y-6673000D02*
X9935000Y-6713000D01*
X10280000Y-6114500D02*
X10320000Y-6154500D01*
X10320000Y-6114500D02*
X10280000Y-6154500D01*
X10379000Y-6322500D02*
X10419000Y-6362500D01*
X10419000Y-6322500D02*
X10379000Y-6362500D01*
X10380000Y-6754500D02*
X10420000Y-6794500D01*
X10420000Y-6754500D02*
X10380000Y-6794500D01*
X10504827Y-6393827D02*
X10544827Y-6433827D01*
X10544827Y-6393827D02*
X10504827Y-6433827D01*
X10640000Y-6551500D02*
X10680000Y-6591500D01*
X10680000Y-6551500D02*
X10640000Y-6591500D01*
X10640000Y-6810000D02*
X10680000Y-6850000D01*
X10680000Y-6810000D02*
X10640000Y-6850000D01*
X10880000Y-6260000D02*
X10920000Y-6300000D01*
X10920000Y-6260000D02*
X10880000Y-6300000D01*
X10880000Y-6500000D02*
X10920000Y-6540000D01*
X10920000Y-6500000D02*
X10880000Y-6540000D01*
X11140000Y-6460000D02*
X11180000Y-6500000D01*
X11180000Y-6460000D02*
X11140000Y-6500000D01*
X11400000Y-6140000D02*
X11440000Y-6180000D01*
X11440000Y-6140000D02*
X11400000Y-6180000D01*
X11480000Y-7805500D02*
X11520000Y-7845500D01*
X11520000Y-7805500D02*
X11480000Y-7845500D01*
X11680000Y-6260000D02*
X11720000Y-6300000D01*
X11720000Y-6260000D02*
X11680000Y-6300000D01*
X12390000Y-6600000D02*
X12430000Y-6640000D01*
X12430000Y-6600000D02*
X12390000Y-6640000D01*
X11606250Y-7430000D02*
G75*
G03*
X11606250Y-7430000I-27500J0D01*
G01*
X11731250Y-7430000D02*
G75*
G03*
X11731250Y-7430000I-27500J0D01*
G01*
X11856250Y-7430000D02*
G75*
G03*
X11856250Y-7430000I-27500J0D01*
G01*
X11981250Y-7430000D02*
G75*
G03*
X11981250Y-7430000I-27500J0D01*
G01*
X9416500Y-6040000D02*
X9416500Y-6100000D01*
X9386500Y-6070000D02*
X9446500Y-6070000D01*
X9821500Y-6040000D02*
X9821500Y-6100000D01*
X9791500Y-6070000D02*
X9851500Y-6070000D01*
X11563588Y-6533588D02*
X11563588Y-6466412D01*
X11496412Y-6466412D01*
X11496412Y-6533588D01*
X11563588Y-6533588D01*
X11563588Y-6783588D02*
X11563588Y-6716412D01*
X11496412Y-6716412D01*
X11496412Y-6783588D01*
X11563588Y-6783588D01*
X11563588Y-7033588D02*
X11563588Y-6966412D01*
X11496412Y-6966412D01*
X11496412Y-7033588D01*
X11563588Y-7033588D01*
X8875000Y-7020000D02*
X8925000Y-6970000D01*
X8875000Y-6920000D01*
X8825000Y-6970000D01*
X8875000Y-7020000D01*
X9125000Y-7020000D02*
X9175000Y-6970000D01*
X9125000Y-6920000D01*
X9075000Y-6970000D01*
X9125000Y-7020000D01*
X9825000Y-7020000D02*
X9875000Y-6970000D01*
X9825000Y-6920000D01*
X9775000Y-6970000D01*
X9825000Y-7020000D01*
X10075000Y-7020000D02*
X10125000Y-6970000D01*
X10075000Y-6920000D01*
X10025000Y-6970000D01*
X10075000Y-7020000D01*
X10775000Y-7020000D02*
X10825000Y-6970000D01*
X10775000Y-6920000D01*
X10725000Y-6970000D01*
X10775000Y-7020000D01*
X11025000Y-7020000D02*
X11075000Y-6970000D01*
X11025000Y-6920000D01*
X10975000Y-6970000D01*
X11025000Y-7020000D01*
X4900000Y-6100000D02*
X5200000Y-6400000D01*
X5200000Y-6100000D02*
X4900000Y-6400000D01*
X5200000Y-6250000D02*
G75*
G03*
X5200000Y-6250000I-150000J0D01*
G01*
X4900000Y-7450000D02*
X5200000Y-7750000D01*
X5200000Y-7450000D02*
X4900000Y-7750000D01*
X5200000Y-7600000D02*
G75*
G03*
X5200000Y-7600000I-150000J0D01*
G01*
D12*
X5083928Y-8468214D02*
X5083928Y-8168214D01*
X5155357Y-8168214D01*
X5198214Y-8182500D01*
X5226786Y-8211071D01*
X5241071Y-8239643D01*
X5255357Y-8296786D01*
X5255357Y-8339643D01*
X5241071Y-8396786D01*
X5226786Y-8425357D01*
X5198214Y-8453929D01*
X5155357Y-8468214D01*
X5083928Y-8468214D01*
X5383928Y-8468214D02*
X5383928Y-8268214D01*
X5383928Y-8325357D02*
X5398214Y-8296786D01*
X5412500Y-8282500D01*
X5441071Y-8268214D01*
X5469643Y-8268214D01*
X5569643Y-8468214D02*
X5569643Y-8268214D01*
X5569643Y-8168214D02*
X5555357Y-8182500D01*
X5569643Y-8196786D01*
X5583928Y-8182500D01*
X5569643Y-8168214D01*
X5569643Y-8196786D01*
X5755357Y-8468214D02*
X5726786Y-8453929D01*
X5712500Y-8425357D01*
X5712500Y-8168214D01*
X5912500Y-8468214D02*
X5883928Y-8453929D01*
X5869643Y-8425357D01*
X5869643Y-8168214D01*
X6255357Y-8468214D02*
X6255357Y-8168214D01*
X6355357Y-8382500D01*
X6455357Y-8168214D01*
X6455357Y-8468214D01*
X6726786Y-8468214D02*
X6726786Y-8311071D01*
X6712500Y-8282500D01*
X6683928Y-8268214D01*
X6626786Y-8268214D01*
X6598214Y-8282500D01*
X6726786Y-8453929D02*
X6698214Y-8468214D01*
X6626786Y-8468214D01*
X6598214Y-8453929D01*
X6583928Y-8425357D01*
X6583928Y-8396786D01*
X6598214Y-8368214D01*
X6626786Y-8353929D01*
X6698214Y-8353929D01*
X6726786Y-8339643D01*
X6869643Y-8268214D02*
X6869643Y-8568214D01*
X6869643Y-8282500D02*
X6898214Y-8268214D01*
X6955357Y-8268214D01*
X6983928Y-8282500D01*
X6998214Y-8296786D01*
X7012500Y-8325357D01*
X7012500Y-8411072D01*
X6998214Y-8439643D01*
X6983928Y-8453929D01*
X6955357Y-8468214D01*
X6898214Y-8468214D01*
X6869643Y-8453929D01*
X7141071Y-8439643D02*
X7155357Y-8453929D01*
X7141071Y-8468214D01*
X7126786Y-8453929D01*
X7141071Y-8439643D01*
X7141071Y-8468214D01*
X7141071Y-8282500D02*
X7155357Y-8296786D01*
X7141071Y-8311071D01*
X7126786Y-8296786D01*
X7141071Y-8282500D01*
X7141071Y-8311071D01*
X4757500Y-8942500D02*
X4797500Y-8982500D01*
X4797500Y-8942500D02*
X4757500Y-8982500D01*
X5141071Y-8798214D02*
X5169643Y-8798214D01*
X5198214Y-8812500D01*
X5212500Y-8826786D01*
X5226786Y-8855357D01*
X5241071Y-8912500D01*
X5241071Y-8983929D01*
X5226786Y-9041072D01*
X5212500Y-9069643D01*
X5198214Y-9083929D01*
X5169643Y-9098214D01*
X5141071Y-9098214D01*
X5112500Y-9083929D01*
X5098214Y-9069643D01*
X5083928Y-9041072D01*
X5069643Y-8983929D01*
X5069643Y-8912500D01*
X5083928Y-8855357D01*
X5098214Y-8826786D01*
X5112500Y-8812500D01*
X5141071Y-8798214D01*
X5369643Y-9069643D02*
X5383928Y-9083929D01*
X5369643Y-9098214D01*
X5355357Y-9083929D01*
X5369643Y-9069643D01*
X5369643Y-9098214D01*
X5641071Y-8898214D02*
X5641071Y-9098214D01*
X5569643Y-8783929D02*
X5498214Y-8998214D01*
X5683928Y-8998214D01*
X5855357Y-8798214D02*
X5883928Y-8798214D01*
X5912500Y-8812500D01*
X5926786Y-8826786D01*
X5941071Y-8855357D01*
X5955357Y-8912500D01*
X5955357Y-8983929D01*
X5941071Y-9041072D01*
X5926786Y-9069643D01*
X5912500Y-9083929D01*
X5883928Y-9098214D01*
X5855357Y-9098214D01*
X5826786Y-9083929D01*
X5812500Y-9069643D01*
X5798214Y-9041072D01*
X5783928Y-8983929D01*
X5783928Y-8912500D01*
X5798214Y-8855357D01*
X5812500Y-8826786D01*
X5826786Y-8812500D01*
X5855357Y-8798214D01*
X6141071Y-8798214D02*
X6169643Y-8798214D01*
X6198214Y-8812500D01*
X6212500Y-8826786D01*
X6226786Y-8855357D01*
X6241071Y-8912500D01*
X6241071Y-8983929D01*
X6226786Y-9041072D01*
X6212500Y-9069643D01*
X6198214Y-9083929D01*
X6169643Y-9098214D01*
X6141071Y-9098214D01*
X6112500Y-9083929D01*
X6098214Y-9069643D01*
X6083928Y-9041072D01*
X6069643Y-8983929D01*
X6069643Y-8912500D01*
X6083928Y-8855357D01*
X6098214Y-8826786D01*
X6112500Y-8812500D01*
X6141071Y-8798214D01*
X6369643Y-9098214D02*
X6369643Y-8898214D01*
X6369643Y-8926786D02*
X6383928Y-8912500D01*
X6412500Y-8898214D01*
X6455357Y-8898214D01*
X6483928Y-8912500D01*
X6498214Y-8941072D01*
X6498214Y-9098214D01*
X6498214Y-8941072D02*
X6512500Y-8912500D01*
X6541071Y-8898214D01*
X6583928Y-8898214D01*
X6612500Y-8912500D01*
X6626786Y-8941072D01*
X6626786Y-9098214D01*
X6769643Y-9098214D02*
X6769643Y-8898214D01*
X6769643Y-8926786D02*
X6783928Y-8912500D01*
X6812500Y-8898214D01*
X6855357Y-8898214D01*
X6883928Y-8912500D01*
X6898214Y-8941072D01*
X6898214Y-9098214D01*
X6898214Y-8941072D02*
X6912500Y-8912500D01*
X6941071Y-8898214D01*
X6983928Y-8898214D01*
X7012500Y-8912500D01*
X7026786Y-8941072D01*
X7026786Y-9098214D01*
X7612500Y-8783929D02*
X7355357Y-9169643D01*
X7998214Y-8798214D02*
X8026786Y-8798214D01*
X8055357Y-8812500D01*
X8069643Y-8826786D01*
X8083928Y-8855357D01*
X8098214Y-8912500D01*
X8098214Y-8983929D01*
X8083928Y-9041072D01*
X8069643Y-9069643D01*
X8055357Y-9083929D01*
X8026786Y-9098214D01*
X7998214Y-9098214D01*
X7969643Y-9083929D01*
X7955357Y-9069643D01*
X7941071Y-9041072D01*
X7926786Y-8983929D01*
X7926786Y-8912500D01*
X7941071Y-8855357D01*
X7955357Y-8826786D01*
X7969643Y-8812500D01*
X7998214Y-8798214D01*
X8226786Y-9069643D02*
X8241071Y-9083929D01*
X8226786Y-9098214D01*
X8212500Y-9083929D01*
X8226786Y-9069643D01*
X8226786Y-9098214D01*
X8426786Y-8798214D02*
X8455357Y-8798214D01*
X8483928Y-8812500D01*
X8498214Y-8826786D01*
X8512500Y-8855357D01*
X8526786Y-8912500D01*
X8526786Y-8983929D01*
X8512500Y-9041072D01*
X8498214Y-9069643D01*
X8483928Y-9083929D01*
X8455357Y-9098214D01*
X8426786Y-9098214D01*
X8398214Y-9083929D01*
X8383928Y-9069643D01*
X8369643Y-9041072D01*
X8355357Y-8983929D01*
X8355357Y-8912500D01*
X8369643Y-8855357D01*
X8383928Y-8826786D01*
X8398214Y-8812500D01*
X8426786Y-8798214D01*
X8812500Y-9098214D02*
X8641071Y-9098214D01*
X8726786Y-9098214D02*
X8726786Y-8798214D01*
X8698214Y-8841072D01*
X8669643Y-8869643D01*
X8641071Y-8883929D01*
X9083928Y-8798214D02*
X8941071Y-8798214D01*
X8926786Y-8941072D01*
X8941071Y-8926786D01*
X8969643Y-8912500D01*
X9041071Y-8912500D01*
X9069643Y-8926786D01*
X9083928Y-8941072D01*
X9098214Y-8969643D01*
X9098214Y-9041072D01*
X9083928Y-9069643D01*
X9069643Y-9083929D01*
X9041071Y-9098214D01*
X8969643Y-9098214D01*
X8941071Y-9083929D01*
X8926786Y-9069643D01*
X9198214Y-8798214D02*
X9398214Y-8798214D01*
X9269643Y-9098214D01*
X9498214Y-8798214D02*
X9498214Y-8855357D01*
X9612500Y-8798214D02*
X9612500Y-8855357D01*
X10055357Y-9212500D02*
X10041071Y-9198214D01*
X10012500Y-9155357D01*
X9998214Y-9126786D01*
X9983928Y-9083929D01*
X9969643Y-9012500D01*
X9969643Y-8955357D01*
X9983928Y-8883929D01*
X9998214Y-8841072D01*
X10012500Y-8812500D01*
X10041071Y-8769643D01*
X10055357Y-8755357D01*
X10326786Y-9098214D02*
X10155357Y-9098214D01*
X10241071Y-9098214D02*
X10241071Y-8798214D01*
X10212500Y-8841072D01*
X10183928Y-8869643D01*
X10155357Y-8883929D01*
X10598214Y-8798214D02*
X10455357Y-8798214D01*
X10441071Y-8941072D01*
X10455357Y-8926786D01*
X10483928Y-8912500D01*
X10555357Y-8912500D01*
X10583928Y-8926786D01*
X10598214Y-8941072D01*
X10612500Y-8969643D01*
X10612500Y-9041072D01*
X10598214Y-9069643D01*
X10583928Y-9083929D01*
X10555357Y-9098214D01*
X10483928Y-9098214D01*
X10455357Y-9083929D01*
X10441071Y-9069643D01*
X10726786Y-8826786D02*
X10741071Y-8812500D01*
X10769643Y-8798214D01*
X10841071Y-8798214D01*
X10869643Y-8812500D01*
X10883928Y-8826786D01*
X10898214Y-8855357D01*
X10898214Y-8883929D01*
X10883928Y-8926786D01*
X10712500Y-9098214D01*
X10898214Y-9098214D01*
X11255357Y-9098214D02*
X11255357Y-8798214D01*
X11383928Y-9098214D02*
X11383928Y-8941072D01*
X11369643Y-8912500D01*
X11341071Y-8898214D01*
X11298214Y-8898214D01*
X11269643Y-8912500D01*
X11255357Y-8926786D01*
X11569643Y-9098214D02*
X11541071Y-9083929D01*
X11526786Y-9069643D01*
X11512500Y-9041072D01*
X11512500Y-8955357D01*
X11526786Y-8926786D01*
X11541071Y-8912500D01*
X11569643Y-8898214D01*
X11612500Y-8898214D01*
X11641071Y-8912500D01*
X11655357Y-8926786D01*
X11669643Y-8955357D01*
X11669643Y-9041072D01*
X11655357Y-9069643D01*
X11641071Y-9083929D01*
X11612500Y-9098214D01*
X11569643Y-9098214D01*
X11841071Y-9098214D02*
X11812500Y-9083929D01*
X11798214Y-9055357D01*
X11798214Y-8798214D01*
X12069643Y-9083929D02*
X12041071Y-9098214D01*
X11983928Y-9098214D01*
X11955357Y-9083929D01*
X11941071Y-9055357D01*
X11941071Y-8941072D01*
X11955357Y-8912500D01*
X11983928Y-8898214D01*
X12041071Y-8898214D01*
X12069643Y-8912500D01*
X12083928Y-8941072D01*
X12083928Y-8969643D01*
X11941071Y-8998214D01*
X12198214Y-9083929D02*
X12226786Y-9098214D01*
X12283928Y-9098214D01*
X12312500Y-9083929D01*
X12326786Y-9055357D01*
X12326786Y-9041072D01*
X12312500Y-9012500D01*
X12283928Y-8998214D01*
X12241071Y-8998214D01*
X12212500Y-8983929D01*
X12198214Y-8955357D01*
X12198214Y-8941072D01*
X12212500Y-8912500D01*
X12241071Y-8898214D01*
X12283928Y-8898214D01*
X12312500Y-8912500D01*
X12426786Y-9212500D02*
X12441071Y-9198214D01*
X12469643Y-9155357D01*
X12483928Y-9126786D01*
X12498214Y-9083929D01*
X12512500Y-9012500D01*
X12512500Y-8955357D01*
X12498214Y-8883929D01*
X12483928Y-8841072D01*
X12469643Y-8812500D01*
X12441071Y-8769643D01*
X12426786Y-8755357D01*
X4797500Y-9358500D02*
G75*
G03*
X4797500Y-9358500I-27500J0D01*
G01*
X5141071Y-9194214D02*
X5169643Y-9194214D01*
X5198214Y-9208500D01*
X5212500Y-9222786D01*
X5226786Y-9251357D01*
X5241071Y-9308500D01*
X5241071Y-9379929D01*
X5226786Y-9437072D01*
X5212500Y-9465643D01*
X5198214Y-9479929D01*
X5169643Y-9494214D01*
X5141071Y-9494214D01*
X5112500Y-9479929D01*
X5098214Y-9465643D01*
X5083928Y-9437072D01*
X5069643Y-9379929D01*
X5069643Y-9308500D01*
X5083928Y-9251357D01*
X5098214Y-9222786D01*
X5112500Y-9208500D01*
X5141071Y-9194214D01*
X5369643Y-9465643D02*
X5383928Y-9479929D01*
X5369643Y-9494214D01*
X5355357Y-9479929D01*
X5369643Y-9465643D01*
X5369643Y-9494214D01*
X5655357Y-9194214D02*
X5512500Y-9194214D01*
X5498214Y-9337072D01*
X5512500Y-9322786D01*
X5541071Y-9308500D01*
X5612500Y-9308500D01*
X5641071Y-9322786D01*
X5655357Y-9337072D01*
X5669643Y-9365643D01*
X5669643Y-9437072D01*
X5655357Y-9465643D01*
X5641071Y-9479929D01*
X5612500Y-9494214D01*
X5541071Y-9494214D01*
X5512500Y-9479929D01*
X5498214Y-9465643D01*
X5941071Y-9194214D02*
X5798214Y-9194214D01*
X5783928Y-9337072D01*
X5798214Y-9322786D01*
X5826786Y-9308500D01*
X5898214Y-9308500D01*
X5926786Y-9322786D01*
X5941071Y-9337072D01*
X5955357Y-9365643D01*
X5955357Y-9437072D01*
X5941071Y-9465643D01*
X5926786Y-9479929D01*
X5898214Y-9494214D01*
X5826786Y-9494214D01*
X5798214Y-9479929D01*
X5783928Y-9465643D01*
X6141071Y-9194214D02*
X6169643Y-9194214D01*
X6198214Y-9208500D01*
X6212500Y-9222786D01*
X6226786Y-9251357D01*
X6241071Y-9308500D01*
X6241071Y-9379929D01*
X6226786Y-9437072D01*
X6212500Y-9465643D01*
X6198214Y-9479929D01*
X6169643Y-9494214D01*
X6141071Y-9494214D01*
X6112500Y-9479929D01*
X6098214Y-9465643D01*
X6083928Y-9437072D01*
X6069643Y-9379929D01*
X6069643Y-9308500D01*
X6083928Y-9251357D01*
X6098214Y-9222786D01*
X6112500Y-9208500D01*
X6141071Y-9194214D01*
X6369643Y-9494214D02*
X6369643Y-9294214D01*
X6369643Y-9322786D02*
X6383928Y-9308500D01*
X6412500Y-9294214D01*
X6455357Y-9294214D01*
X6483928Y-9308500D01*
X6498214Y-9337072D01*
X6498214Y-9494214D01*
X6498214Y-9337072D02*
X6512500Y-9308500D01*
X6541071Y-9294214D01*
X6583928Y-9294214D01*
X6612500Y-9308500D01*
X6626786Y-9337072D01*
X6626786Y-9494214D01*
X6769643Y-9494214D02*
X6769643Y-9294214D01*
X6769643Y-9322786D02*
X6783928Y-9308500D01*
X6812500Y-9294214D01*
X6855357Y-9294214D01*
X6883928Y-9308500D01*
X6898214Y-9337072D01*
X6898214Y-9494214D01*
X6898214Y-9337072D02*
X6912500Y-9308500D01*
X6941071Y-9294214D01*
X6983928Y-9294214D01*
X7012500Y-9308500D01*
X7026786Y-9337072D01*
X7026786Y-9494214D01*
X7612500Y-9179929D02*
X7355357Y-9565643D01*
X7998214Y-9194214D02*
X8026786Y-9194214D01*
X8055357Y-9208500D01*
X8069643Y-9222786D01*
X8083928Y-9251357D01*
X8098214Y-9308500D01*
X8098214Y-9379929D01*
X8083928Y-9437072D01*
X8069643Y-9465643D01*
X8055357Y-9479929D01*
X8026786Y-9494214D01*
X7998214Y-9494214D01*
X7969643Y-9479929D01*
X7955357Y-9465643D01*
X7941071Y-9437072D01*
X7926786Y-9379929D01*
X7926786Y-9308500D01*
X7941071Y-9251357D01*
X7955357Y-9222786D01*
X7969643Y-9208500D01*
X7998214Y-9194214D01*
X8226786Y-9465643D02*
X8241071Y-9479929D01*
X8226786Y-9494214D01*
X8212500Y-9479929D01*
X8226786Y-9465643D01*
X8226786Y-9494214D01*
X8426786Y-9194214D02*
X8455357Y-9194214D01*
X8483928Y-9208500D01*
X8498214Y-9222786D01*
X8512500Y-9251357D01*
X8526786Y-9308500D01*
X8526786Y-9379929D01*
X8512500Y-9437072D01*
X8498214Y-9465643D01*
X8483928Y-9479929D01*
X8455357Y-9494214D01*
X8426786Y-9494214D01*
X8398214Y-9479929D01*
X8383928Y-9465643D01*
X8369643Y-9437072D01*
X8355357Y-9379929D01*
X8355357Y-9308500D01*
X8369643Y-9251357D01*
X8383928Y-9222786D01*
X8398214Y-9208500D01*
X8426786Y-9194214D01*
X8641071Y-9222786D02*
X8655357Y-9208500D01*
X8683928Y-9194214D01*
X8755357Y-9194214D01*
X8783928Y-9208500D01*
X8798214Y-9222786D01*
X8812500Y-9251357D01*
X8812500Y-9279929D01*
X8798214Y-9322786D01*
X8626786Y-9494214D01*
X8812500Y-9494214D01*
X9098214Y-9494214D02*
X8926786Y-9494214D01*
X9012500Y-9494214D02*
X9012500Y-9194214D01*
X8983928Y-9237072D01*
X8955357Y-9265643D01*
X8926786Y-9279929D01*
X9198214Y-9194214D02*
X9398214Y-9194214D01*
X9269643Y-9494214D01*
X9498214Y-9194214D02*
X9498214Y-9251357D01*
X9612500Y-9194214D02*
X9612500Y-9251357D01*
X10055357Y-9608500D02*
X10041071Y-9594214D01*
X10012500Y-9551357D01*
X9998214Y-9522786D01*
X9983928Y-9479929D01*
X9969643Y-9408500D01*
X9969643Y-9351357D01*
X9983928Y-9279929D01*
X9998214Y-9237072D01*
X10012500Y-9208500D01*
X10041071Y-9165643D01*
X10055357Y-9151357D01*
X10298214Y-9294214D02*
X10298214Y-9494214D01*
X10226786Y-9179929D02*
X10155357Y-9394214D01*
X10341071Y-9394214D01*
X10683928Y-9494214D02*
X10683928Y-9194214D01*
X10812500Y-9494214D02*
X10812500Y-9337072D01*
X10798214Y-9308500D01*
X10769643Y-9294214D01*
X10726786Y-9294214D01*
X10698214Y-9308500D01*
X10683928Y-9322786D01*
X10998214Y-9494214D02*
X10969643Y-9479929D01*
X10955357Y-9465643D01*
X10941071Y-9437072D01*
X10941071Y-9351357D01*
X10955357Y-9322786D01*
X10969643Y-9308500D01*
X10998214Y-9294214D01*
X11041071Y-9294214D01*
X11069643Y-9308500D01*
X11083928Y-9322786D01*
X11098214Y-9351357D01*
X11098214Y-9437072D01*
X11083928Y-9465643D01*
X11069643Y-9479929D01*
X11041071Y-9494214D01*
X10998214Y-9494214D01*
X11269643Y-9494214D02*
X11241071Y-9479929D01*
X11226786Y-9451357D01*
X11226786Y-9194214D01*
X11498214Y-9479929D02*
X11469643Y-9494214D01*
X11412500Y-9494214D01*
X11383928Y-9479929D01*
X11369643Y-9451357D01*
X11369643Y-9337072D01*
X11383928Y-9308500D01*
X11412500Y-9294214D01*
X11469643Y-9294214D01*
X11498214Y-9308500D01*
X11512500Y-9337072D01*
X11512500Y-9365643D01*
X11369643Y-9394214D01*
X11626786Y-9479929D02*
X11655357Y-9494214D01*
X11712500Y-9494214D01*
X11741071Y-9479929D01*
X11755357Y-9451357D01*
X11755357Y-9437072D01*
X11741071Y-9408500D01*
X11712500Y-9394214D01*
X11669643Y-9394214D01*
X11641071Y-9379929D01*
X11626786Y-9351357D01*
X11626786Y-9337072D01*
X11641071Y-9308500D01*
X11669643Y-9294214D01*
X11712500Y-9294214D01*
X11741071Y-9308500D01*
X11855357Y-9608500D02*
X11869643Y-9594214D01*
X11898214Y-9551357D01*
X11912500Y-9522786D01*
X11926786Y-9479929D01*
X11941071Y-9408500D01*
X11941071Y-9351357D01*
X11926786Y-9279929D01*
X11912500Y-9237072D01*
X11898214Y-9208500D01*
X11869643Y-9165643D01*
X11855357Y-9151357D01*
X4767500Y-9724500D02*
X4767500Y-9784500D01*
X4737500Y-9754500D02*
X4797500Y-9754500D01*
X5141071Y-9590214D02*
X5169643Y-9590214D01*
X5198214Y-9604500D01*
X5212500Y-9618786D01*
X5226786Y-9647357D01*
X5241071Y-9704500D01*
X5241071Y-9775929D01*
X5226786Y-9833072D01*
X5212500Y-9861643D01*
X5198214Y-9875929D01*
X5169643Y-9890214D01*
X5141071Y-9890214D01*
X5112500Y-9875929D01*
X5098214Y-9861643D01*
X5083928Y-9833072D01*
X5069643Y-9775929D01*
X5069643Y-9704500D01*
X5083928Y-9647357D01*
X5098214Y-9618786D01*
X5112500Y-9604500D01*
X5141071Y-9590214D01*
X5369643Y-9861643D02*
X5383928Y-9875929D01*
X5369643Y-9890214D01*
X5355357Y-9875929D01*
X5369643Y-9861643D01*
X5369643Y-9890214D01*
X5641071Y-9590214D02*
X5583928Y-9590214D01*
X5555357Y-9604500D01*
X5541071Y-9618786D01*
X5512500Y-9661643D01*
X5498214Y-9718786D01*
X5498214Y-9833072D01*
X5512500Y-9861643D01*
X5526786Y-9875929D01*
X5555357Y-9890214D01*
X5612500Y-9890214D01*
X5641071Y-9875929D01*
X5655357Y-9861643D01*
X5669643Y-9833072D01*
X5669643Y-9761643D01*
X5655357Y-9733072D01*
X5641071Y-9718786D01*
X5612500Y-9704500D01*
X5555357Y-9704500D01*
X5526786Y-9718786D01*
X5512500Y-9733072D01*
X5498214Y-9761643D01*
X5855357Y-9590214D02*
X5883928Y-9590214D01*
X5912500Y-9604500D01*
X5926786Y-9618786D01*
X5941071Y-9647357D01*
X5955357Y-9704500D01*
X5955357Y-9775929D01*
X5941071Y-9833072D01*
X5926786Y-9861643D01*
X5912500Y-9875929D01*
X5883928Y-9890214D01*
X5855357Y-9890214D01*
X5826786Y-9875929D01*
X5812500Y-9861643D01*
X5798214Y-9833072D01*
X5783928Y-9775929D01*
X5783928Y-9704500D01*
X5798214Y-9647357D01*
X5812500Y-9618786D01*
X5826786Y-9604500D01*
X5855357Y-9590214D01*
X6141071Y-9590214D02*
X6169643Y-9590214D01*
X6198214Y-9604500D01*
X6212500Y-9618786D01*
X6226786Y-9647357D01*
X6241071Y-9704500D01*
X6241071Y-9775929D01*
X6226786Y-9833072D01*
X6212500Y-9861643D01*
X6198214Y-9875929D01*
X6169643Y-9890214D01*
X6141071Y-9890214D01*
X6112500Y-9875929D01*
X6098214Y-9861643D01*
X6083928Y-9833072D01*
X6069643Y-9775929D01*
X6069643Y-9704500D01*
X6083928Y-9647357D01*
X6098214Y-9618786D01*
X6112500Y-9604500D01*
X6141071Y-9590214D01*
X6369643Y-9890214D02*
X6369643Y-9690214D01*
X6369643Y-9718786D02*
X6383928Y-9704500D01*
X6412500Y-9690214D01*
X6455357Y-9690214D01*
X6483928Y-9704500D01*
X6498214Y-9733072D01*
X6498214Y-9890214D01*
X6498214Y-9733072D02*
X6512500Y-9704500D01*
X6541071Y-9690214D01*
X6583928Y-9690214D01*
X6612500Y-9704500D01*
X6626786Y-9733072D01*
X6626786Y-9890214D01*
X6769643Y-9890214D02*
X6769643Y-9690214D01*
X6769643Y-9718786D02*
X6783928Y-9704500D01*
X6812500Y-9690214D01*
X6855357Y-9690214D01*
X6883928Y-9704500D01*
X6898214Y-9733072D01*
X6898214Y-9890214D01*
X6898214Y-9733072D02*
X6912500Y-9704500D01*
X6941071Y-9690214D01*
X6983928Y-9690214D01*
X7012500Y-9704500D01*
X7026786Y-9733072D01*
X7026786Y-9890214D01*
X7612500Y-9575929D02*
X7355357Y-9961643D01*
X7998214Y-9590214D02*
X8026786Y-9590214D01*
X8055357Y-9604500D01*
X8069643Y-9618786D01*
X8083928Y-9647357D01*
X8098214Y-9704500D01*
X8098214Y-9775929D01*
X8083928Y-9833072D01*
X8069643Y-9861643D01*
X8055357Y-9875929D01*
X8026786Y-9890214D01*
X7998214Y-9890214D01*
X7969643Y-9875929D01*
X7955357Y-9861643D01*
X7941071Y-9833072D01*
X7926786Y-9775929D01*
X7926786Y-9704500D01*
X7941071Y-9647357D01*
X7955357Y-9618786D01*
X7969643Y-9604500D01*
X7998214Y-9590214D01*
X8226786Y-9861643D02*
X8241071Y-9875929D01*
X8226786Y-9890214D01*
X8212500Y-9875929D01*
X8226786Y-9861643D01*
X8226786Y-9890214D01*
X8426786Y-9590214D02*
X8455357Y-9590214D01*
X8483928Y-9604500D01*
X8498214Y-9618786D01*
X8512500Y-9647357D01*
X8526786Y-9704500D01*
X8526786Y-9775929D01*
X8512500Y-9833072D01*
X8498214Y-9861643D01*
X8483928Y-9875929D01*
X8455357Y-9890214D01*
X8426786Y-9890214D01*
X8398214Y-9875929D01*
X8383928Y-9861643D01*
X8369643Y-9833072D01*
X8355357Y-9775929D01*
X8355357Y-9704500D01*
X8369643Y-9647357D01*
X8383928Y-9618786D01*
X8398214Y-9604500D01*
X8426786Y-9590214D01*
X8641071Y-9618786D02*
X8655357Y-9604500D01*
X8683928Y-9590214D01*
X8755357Y-9590214D01*
X8783928Y-9604500D01*
X8798214Y-9618786D01*
X8812500Y-9647357D01*
X8812500Y-9675929D01*
X8798214Y-9718786D01*
X8626786Y-9890214D01*
X8812500Y-9890214D01*
X8912500Y-9590214D02*
X9098214Y-9590214D01*
X8998214Y-9704500D01*
X9041071Y-9704500D01*
X9069643Y-9718786D01*
X9083928Y-9733072D01*
X9098214Y-9761643D01*
X9098214Y-9833072D01*
X9083928Y-9861643D01*
X9069643Y-9875929D01*
X9041071Y-9890214D01*
X8955357Y-9890214D01*
X8926786Y-9875929D01*
X8912500Y-9861643D01*
X9355357Y-9590214D02*
X9298214Y-9590214D01*
X9269643Y-9604500D01*
X9255357Y-9618786D01*
X9226786Y-9661643D01*
X9212500Y-9718786D01*
X9212500Y-9833072D01*
X9226786Y-9861643D01*
X9241071Y-9875929D01*
X9269643Y-9890214D01*
X9326786Y-9890214D01*
X9355357Y-9875929D01*
X9369643Y-9861643D01*
X9383928Y-9833072D01*
X9383928Y-9761643D01*
X9369643Y-9733072D01*
X9355357Y-9718786D01*
X9326786Y-9704500D01*
X9269643Y-9704500D01*
X9241071Y-9718786D01*
X9226786Y-9733072D01*
X9212500Y-9761643D01*
X9498214Y-9590214D02*
X9498214Y-9647357D01*
X9612500Y-9590214D02*
X9612500Y-9647357D01*
X10055357Y-10004500D02*
X10041071Y-9990214D01*
X10012500Y-9947357D01*
X9998214Y-9918786D01*
X9983928Y-9875929D01*
X9969643Y-9804500D01*
X9969643Y-9747357D01*
X9983928Y-9675929D01*
X9998214Y-9633072D01*
X10012500Y-9604500D01*
X10041071Y-9561643D01*
X10055357Y-9547357D01*
X10155357Y-9618786D02*
X10169643Y-9604500D01*
X10198214Y-9590214D01*
X10269643Y-9590214D01*
X10298214Y-9604500D01*
X10312500Y-9618786D01*
X10326786Y-9647357D01*
X10326786Y-9675929D01*
X10312500Y-9718786D01*
X10141071Y-9890214D01*
X10326786Y-9890214D01*
X10683928Y-9890214D02*
X10683928Y-9590214D01*
X10812500Y-9890214D02*
X10812500Y-9733072D01*
X10798214Y-9704500D01*
X10769643Y-9690214D01*
X10726786Y-9690214D01*
X10698214Y-9704500D01*
X10683928Y-9718786D01*
X10998214Y-9890214D02*
X10969643Y-9875929D01*
X10955357Y-9861643D01*
X10941071Y-9833072D01*
X10941071Y-9747357D01*
X10955357Y-9718786D01*
X10969643Y-9704500D01*
X10998214Y-9690214D01*
X11041071Y-9690214D01*
X11069643Y-9704500D01*
X11083928Y-9718786D01*
X11098214Y-9747357D01*
X11098214Y-9833072D01*
X11083928Y-9861643D01*
X11069643Y-9875929D01*
X11041071Y-9890214D01*
X10998214Y-9890214D01*
X11269643Y-9890214D02*
X11241071Y-9875929D01*
X11226786Y-9847357D01*
X11226786Y-9590214D01*
X11498214Y-9875929D02*
X11469643Y-9890214D01*
X11412500Y-9890214D01*
X11383928Y-9875929D01*
X11369643Y-9847357D01*
X11369643Y-9733072D01*
X11383928Y-9704500D01*
X11412500Y-9690214D01*
X11469643Y-9690214D01*
X11498214Y-9704500D01*
X11512500Y-9733072D01*
X11512500Y-9761643D01*
X11369643Y-9790214D01*
X11626786Y-9875929D02*
X11655357Y-9890214D01*
X11712500Y-9890214D01*
X11741071Y-9875929D01*
X11755357Y-9847357D01*
X11755357Y-9833072D01*
X11741071Y-9804500D01*
X11712500Y-9790214D01*
X11669643Y-9790214D01*
X11641071Y-9775929D01*
X11626786Y-9747357D01*
X11626786Y-9733072D01*
X11641071Y-9704500D01*
X11669643Y-9690214D01*
X11712500Y-9690214D01*
X11741071Y-9704500D01*
X11855357Y-10004500D02*
X11869643Y-9990214D01*
X11898214Y-9947357D01*
X11912500Y-9918786D01*
X11926786Y-9875929D01*
X11941071Y-9804500D01*
X11941071Y-9747357D01*
X11926786Y-9675929D01*
X11912500Y-9633072D01*
X11898214Y-9604500D01*
X11869643Y-9561643D01*
X11855357Y-9547357D01*
X4783588Y-10184088D02*
X4783588Y-10116912D01*
X4716412Y-10116912D01*
X4716412Y-10184088D01*
X4783588Y-10184088D01*
X5141071Y-9986214D02*
X5169643Y-9986214D01*
X5198214Y-10000500D01*
X5212500Y-10014786D01*
X5226786Y-10043357D01*
X5241071Y-10100500D01*
X5241071Y-10171929D01*
X5226786Y-10229072D01*
X5212500Y-10257643D01*
X5198214Y-10271929D01*
X5169643Y-10286214D01*
X5141071Y-10286214D01*
X5112500Y-10271929D01*
X5098214Y-10257643D01*
X5083928Y-10229072D01*
X5069643Y-10171929D01*
X5069643Y-10100500D01*
X5083928Y-10043357D01*
X5098214Y-10014786D01*
X5112500Y-10000500D01*
X5141071Y-9986214D01*
X5369643Y-10257643D02*
X5383928Y-10271929D01*
X5369643Y-10286214D01*
X5355357Y-10271929D01*
X5369643Y-10257643D01*
X5369643Y-10286214D01*
X5526786Y-10286214D02*
X5583928Y-10286214D01*
X5612500Y-10271929D01*
X5626786Y-10257643D01*
X5655357Y-10214786D01*
X5669643Y-10157643D01*
X5669643Y-10043357D01*
X5655357Y-10014786D01*
X5641071Y-10000500D01*
X5612500Y-9986214D01*
X5555357Y-9986214D01*
X5526786Y-10000500D01*
X5512500Y-10014786D01*
X5498214Y-10043357D01*
X5498214Y-10114786D01*
X5512500Y-10143357D01*
X5526786Y-10157643D01*
X5555357Y-10171929D01*
X5612500Y-10171929D01*
X5641071Y-10157643D01*
X5655357Y-10143357D01*
X5669643Y-10114786D01*
X5941071Y-9986214D02*
X5798214Y-9986214D01*
X5783928Y-10129072D01*
X5798214Y-10114786D01*
X5826786Y-10100500D01*
X5898214Y-10100500D01*
X5926786Y-10114786D01*
X5941071Y-10129072D01*
X5955357Y-10157643D01*
X5955357Y-10229072D01*
X5941071Y-10257643D01*
X5926786Y-10271929D01*
X5898214Y-10286214D01*
X5826786Y-10286214D01*
X5798214Y-10271929D01*
X5783928Y-10257643D01*
X6141071Y-9986214D02*
X6169643Y-9986214D01*
X6198214Y-10000500D01*
X6212500Y-10014786D01*
X6226786Y-10043357D01*
X6241071Y-10100500D01*
X6241071Y-10171929D01*
X6226786Y-10229072D01*
X6212500Y-10257643D01*
X6198214Y-10271929D01*
X6169643Y-10286214D01*
X6141071Y-10286214D01*
X6112500Y-10271929D01*
X6098214Y-10257643D01*
X6083928Y-10229072D01*
X6069643Y-10171929D01*
X6069643Y-10100500D01*
X6083928Y-10043357D01*
X6098214Y-10014786D01*
X6112500Y-10000500D01*
X6141071Y-9986214D01*
X6369643Y-10286214D02*
X6369643Y-10086214D01*
X6369643Y-10114786D02*
X6383928Y-10100500D01*
X6412500Y-10086214D01*
X6455357Y-10086214D01*
X6483928Y-10100500D01*
X6498214Y-10129072D01*
X6498214Y-10286214D01*
X6498214Y-10129072D02*
X6512500Y-10100500D01*
X6541071Y-10086214D01*
X6583928Y-10086214D01*
X6612500Y-10100500D01*
X6626786Y-10129072D01*
X6626786Y-10286214D01*
X6769643Y-10286214D02*
X6769643Y-10086214D01*
X6769643Y-10114786D02*
X6783928Y-10100500D01*
X6812500Y-10086214D01*
X6855357Y-10086214D01*
X6883928Y-10100500D01*
X6898214Y-10129072D01*
X6898214Y-10286214D01*
X6898214Y-10129072D02*
X6912500Y-10100500D01*
X6941071Y-10086214D01*
X6983928Y-10086214D01*
X7012500Y-10100500D01*
X7026786Y-10129072D01*
X7026786Y-10286214D01*
X7612500Y-9971929D02*
X7355357Y-10357643D01*
X7998214Y-9986214D02*
X8026786Y-9986214D01*
X8055357Y-10000500D01*
X8069643Y-10014786D01*
X8083928Y-10043357D01*
X8098214Y-10100500D01*
X8098214Y-10171929D01*
X8083928Y-10229072D01*
X8069643Y-10257643D01*
X8055357Y-10271929D01*
X8026786Y-10286214D01*
X7998214Y-10286214D01*
X7969643Y-10271929D01*
X7955357Y-10257643D01*
X7941071Y-10229072D01*
X7926786Y-10171929D01*
X7926786Y-10100500D01*
X7941071Y-10043357D01*
X7955357Y-10014786D01*
X7969643Y-10000500D01*
X7998214Y-9986214D01*
X8226786Y-10257643D02*
X8241071Y-10271929D01*
X8226786Y-10286214D01*
X8212500Y-10271929D01*
X8226786Y-10257643D01*
X8226786Y-10286214D01*
X8426786Y-9986214D02*
X8455357Y-9986214D01*
X8483928Y-10000500D01*
X8498214Y-10014786D01*
X8512500Y-10043357D01*
X8526786Y-10100500D01*
X8526786Y-10171929D01*
X8512500Y-10229072D01*
X8498214Y-10257643D01*
X8483928Y-10271929D01*
X8455357Y-10286214D01*
X8426786Y-10286214D01*
X8398214Y-10271929D01*
X8383928Y-10257643D01*
X8369643Y-10229072D01*
X8355357Y-10171929D01*
X8355357Y-10100500D01*
X8369643Y-10043357D01*
X8383928Y-10014786D01*
X8398214Y-10000500D01*
X8426786Y-9986214D01*
X8626786Y-9986214D02*
X8812500Y-9986214D01*
X8712500Y-10100500D01*
X8755357Y-10100500D01*
X8783928Y-10114786D01*
X8798214Y-10129072D01*
X8812500Y-10157643D01*
X8812500Y-10229072D01*
X8798214Y-10257643D01*
X8783928Y-10271929D01*
X8755357Y-10286214D01*
X8669643Y-10286214D01*
X8641071Y-10271929D01*
X8626786Y-10257643D01*
X8912500Y-9986214D02*
X9112500Y-9986214D01*
X8983928Y-10286214D01*
X9355357Y-10086214D02*
X9355357Y-10286214D01*
X9283928Y-9971929D02*
X9212500Y-10186214D01*
X9398214Y-10186214D01*
X9498214Y-9986214D02*
X9498214Y-10043357D01*
X9612500Y-9986214D02*
X9612500Y-10043357D01*
X10055357Y-10400500D02*
X10041071Y-10386214D01*
X10012500Y-10343357D01*
X9998214Y-10314786D01*
X9983928Y-10271929D01*
X9969643Y-10200500D01*
X9969643Y-10143357D01*
X9983928Y-10071929D01*
X9998214Y-10029072D01*
X10012500Y-10000500D01*
X10041071Y-9957643D01*
X10055357Y-9943357D01*
X10141071Y-9986214D02*
X10326786Y-9986214D01*
X10226786Y-10100500D01*
X10269643Y-10100500D01*
X10298214Y-10114786D01*
X10312500Y-10129072D01*
X10326786Y-10157643D01*
X10326786Y-10229072D01*
X10312500Y-10257643D01*
X10298214Y-10271929D01*
X10269643Y-10286214D01*
X10183928Y-10286214D01*
X10155357Y-10271929D01*
X10141071Y-10257643D01*
X10683928Y-10286214D02*
X10683928Y-9986214D01*
X10812500Y-10286214D02*
X10812500Y-10129072D01*
X10798214Y-10100500D01*
X10769643Y-10086214D01*
X10726786Y-10086214D01*
X10698214Y-10100500D01*
X10683928Y-10114786D01*
X10998214Y-10286214D02*
X10969643Y-10271929D01*
X10955357Y-10257643D01*
X10941071Y-10229072D01*
X10941071Y-10143357D01*
X10955357Y-10114786D01*
X10969643Y-10100500D01*
X10998214Y-10086214D01*
X11041071Y-10086214D01*
X11069643Y-10100500D01*
X11083928Y-10114786D01*
X11098214Y-10143357D01*
X11098214Y-10229072D01*
X11083928Y-10257643D01*
X11069643Y-10271929D01*
X11041071Y-10286214D01*
X10998214Y-10286214D01*
X11269643Y-10286214D02*
X11241071Y-10271929D01*
X11226786Y-10243357D01*
X11226786Y-9986214D01*
X11498214Y-10271929D02*
X11469643Y-10286214D01*
X11412500Y-10286214D01*
X11383928Y-10271929D01*
X11369643Y-10243357D01*
X11369643Y-10129072D01*
X11383928Y-10100500D01*
X11412500Y-10086214D01*
X11469643Y-10086214D01*
X11498214Y-10100500D01*
X11512500Y-10129072D01*
X11512500Y-10157643D01*
X11369643Y-10186214D01*
X11626786Y-10271929D02*
X11655357Y-10286214D01*
X11712500Y-10286214D01*
X11741071Y-10271929D01*
X11755357Y-10243357D01*
X11755357Y-10229072D01*
X11741071Y-10200500D01*
X11712500Y-10186214D01*
X11669643Y-10186214D01*
X11641071Y-10171929D01*
X11626786Y-10143357D01*
X11626786Y-10129072D01*
X11641071Y-10100500D01*
X11669643Y-10086214D01*
X11712500Y-10086214D01*
X11741071Y-10100500D01*
X11855357Y-10400500D02*
X11869643Y-10386214D01*
X11898214Y-10343357D01*
X11912500Y-10314786D01*
X11926786Y-10271929D01*
X11941071Y-10200500D01*
X11941071Y-10143357D01*
X11926786Y-10071929D01*
X11912500Y-10029072D01*
X11898214Y-10000500D01*
X11869643Y-9957643D01*
X11855357Y-9943357D01*
X4747500Y-10596500D02*
X4797500Y-10546500D01*
X4747500Y-10496500D01*
X4697500Y-10546500D01*
X4747500Y-10596500D01*
X5241071Y-10682214D02*
X5069643Y-10682214D01*
X5155357Y-10682214D02*
X5155357Y-10382214D01*
X5126786Y-10425072D01*
X5098214Y-10453643D01*
X5069643Y-10467929D01*
X5369643Y-10653643D02*
X5383928Y-10667929D01*
X5369643Y-10682214D01*
X5355357Y-10667929D01*
X5369643Y-10653643D01*
X5369643Y-10682214D01*
X5569643Y-10382214D02*
X5598214Y-10382214D01*
X5626786Y-10396500D01*
X5641071Y-10410786D01*
X5655357Y-10439357D01*
X5669643Y-10496500D01*
X5669643Y-10567929D01*
X5655357Y-10625072D01*
X5641071Y-10653643D01*
X5626786Y-10667929D01*
X5598214Y-10682214D01*
X5569643Y-10682214D01*
X5541071Y-10667929D01*
X5526786Y-10653643D01*
X5512500Y-10625072D01*
X5498214Y-10567929D01*
X5498214Y-10496500D01*
X5512500Y-10439357D01*
X5526786Y-10410786D01*
X5541071Y-10396500D01*
X5569643Y-10382214D01*
X5855357Y-10382214D02*
X5883928Y-10382214D01*
X5912500Y-10396500D01*
X5926786Y-10410786D01*
X5941071Y-10439357D01*
X5955357Y-10496500D01*
X5955357Y-10567929D01*
X5941071Y-10625072D01*
X5926786Y-10653643D01*
X5912500Y-10667929D01*
X5883928Y-10682214D01*
X5855357Y-10682214D01*
X5826786Y-10667929D01*
X5812500Y-10653643D01*
X5798214Y-10625072D01*
X5783928Y-10567929D01*
X5783928Y-10496500D01*
X5798214Y-10439357D01*
X5812500Y-10410786D01*
X5826786Y-10396500D01*
X5855357Y-10382214D01*
X6141071Y-10382214D02*
X6169643Y-10382214D01*
X6198214Y-10396500D01*
X6212500Y-10410786D01*
X6226786Y-10439357D01*
X6241071Y-10496500D01*
X6241071Y-10567929D01*
X6226786Y-10625072D01*
X6212500Y-10653643D01*
X6198214Y-10667929D01*
X6169643Y-10682214D01*
X6141071Y-10682214D01*
X6112500Y-10667929D01*
X6098214Y-10653643D01*
X6083928Y-10625072D01*
X6069643Y-10567929D01*
X6069643Y-10496500D01*
X6083928Y-10439357D01*
X6098214Y-10410786D01*
X6112500Y-10396500D01*
X6141071Y-10382214D01*
X6369643Y-10682214D02*
X6369643Y-10482214D01*
X6369643Y-10510786D02*
X6383928Y-10496500D01*
X6412500Y-10482214D01*
X6455357Y-10482214D01*
X6483928Y-10496500D01*
X6498214Y-10525072D01*
X6498214Y-10682214D01*
X6498214Y-10525072D02*
X6512500Y-10496500D01*
X6541071Y-10482214D01*
X6583928Y-10482214D01*
X6612500Y-10496500D01*
X6626786Y-10525072D01*
X6626786Y-10682214D01*
X6769643Y-10682214D02*
X6769643Y-10482214D01*
X6769643Y-10510786D02*
X6783928Y-10496500D01*
X6812500Y-10482214D01*
X6855357Y-10482214D01*
X6883928Y-10496500D01*
X6898214Y-10525072D01*
X6898214Y-10682214D01*
X6898214Y-10525072D02*
X6912500Y-10496500D01*
X6941071Y-10482214D01*
X6983928Y-10482214D01*
X7012500Y-10496500D01*
X7026786Y-10525072D01*
X7026786Y-10682214D01*
X7612500Y-10367929D02*
X7355357Y-10753643D01*
X7998214Y-10382214D02*
X8026786Y-10382214D01*
X8055357Y-10396500D01*
X8069643Y-10410786D01*
X8083928Y-10439357D01*
X8098214Y-10496500D01*
X8098214Y-10567929D01*
X8083928Y-10625072D01*
X8069643Y-10653643D01*
X8055357Y-10667929D01*
X8026786Y-10682214D01*
X7998214Y-10682214D01*
X7969643Y-10667929D01*
X7955357Y-10653643D01*
X7941071Y-10625072D01*
X7926786Y-10567929D01*
X7926786Y-10496500D01*
X7941071Y-10439357D01*
X7955357Y-10410786D01*
X7969643Y-10396500D01*
X7998214Y-10382214D01*
X8226786Y-10653643D02*
X8241071Y-10667929D01*
X8226786Y-10682214D01*
X8212500Y-10667929D01*
X8226786Y-10653643D01*
X8226786Y-10682214D01*
X8426786Y-10382214D02*
X8455357Y-10382214D01*
X8483928Y-10396500D01*
X8498214Y-10410786D01*
X8512500Y-10439357D01*
X8526786Y-10496500D01*
X8526786Y-10567929D01*
X8512500Y-10625072D01*
X8498214Y-10653643D01*
X8483928Y-10667929D01*
X8455357Y-10682214D01*
X8426786Y-10682214D01*
X8398214Y-10667929D01*
X8383928Y-10653643D01*
X8369643Y-10625072D01*
X8355357Y-10567929D01*
X8355357Y-10496500D01*
X8369643Y-10439357D01*
X8383928Y-10410786D01*
X8398214Y-10396500D01*
X8426786Y-10382214D01*
X8626786Y-10382214D02*
X8812500Y-10382214D01*
X8712500Y-10496500D01*
X8755357Y-10496500D01*
X8783928Y-10510786D01*
X8798214Y-10525072D01*
X8812500Y-10553643D01*
X8812500Y-10625072D01*
X8798214Y-10653643D01*
X8783928Y-10667929D01*
X8755357Y-10682214D01*
X8669643Y-10682214D01*
X8641071Y-10667929D01*
X8626786Y-10653643D01*
X8955357Y-10682214D02*
X9012500Y-10682214D01*
X9041071Y-10667929D01*
X9055357Y-10653643D01*
X9083928Y-10610786D01*
X9098214Y-10553643D01*
X9098214Y-10439357D01*
X9083928Y-10410786D01*
X9069643Y-10396500D01*
X9041071Y-10382214D01*
X8983928Y-10382214D01*
X8955357Y-10396500D01*
X8941071Y-10410786D01*
X8926786Y-10439357D01*
X8926786Y-10510786D01*
X8941071Y-10539357D01*
X8955357Y-10553643D01*
X8983928Y-10567929D01*
X9041071Y-10567929D01*
X9069643Y-10553643D01*
X9083928Y-10539357D01*
X9098214Y-10510786D01*
X9355357Y-10482214D02*
X9355357Y-10682214D01*
X9283928Y-10367929D02*
X9212500Y-10582214D01*
X9398214Y-10582214D01*
X9498214Y-10382214D02*
X9498214Y-10439357D01*
X9612500Y-10382214D02*
X9612500Y-10439357D01*
X10055357Y-10796500D02*
X10041071Y-10782214D01*
X10012500Y-10739357D01*
X9998214Y-10710786D01*
X9983928Y-10667929D01*
X9969643Y-10596500D01*
X9969643Y-10539357D01*
X9983928Y-10467929D01*
X9998214Y-10425072D01*
X10012500Y-10396500D01*
X10041071Y-10353643D01*
X10055357Y-10339357D01*
X10298214Y-10382214D02*
X10241071Y-10382214D01*
X10212500Y-10396500D01*
X10198214Y-10410786D01*
X10169643Y-10453643D01*
X10155357Y-10510786D01*
X10155357Y-10625072D01*
X10169643Y-10653643D01*
X10183928Y-10667929D01*
X10212500Y-10682214D01*
X10269643Y-10682214D01*
X10298214Y-10667929D01*
X10312500Y-10653643D01*
X10326786Y-10625072D01*
X10326786Y-10553643D01*
X10312500Y-10525072D01*
X10298214Y-10510786D01*
X10269643Y-10496500D01*
X10212500Y-10496500D01*
X10183928Y-10510786D01*
X10169643Y-10525072D01*
X10155357Y-10553643D01*
X10683928Y-10682214D02*
X10683928Y-10382214D01*
X10812500Y-10682214D02*
X10812500Y-10525072D01*
X10798214Y-10496500D01*
X10769643Y-10482214D01*
X10726786Y-10482214D01*
X10698214Y-10496500D01*
X10683928Y-10510786D01*
X10998214Y-10682214D02*
X10969643Y-10667929D01*
X10955357Y-10653643D01*
X10941071Y-10625072D01*
X10941071Y-10539357D01*
X10955357Y-10510786D01*
X10969643Y-10496500D01*
X10998214Y-10482214D01*
X11041071Y-10482214D01*
X11069643Y-10496500D01*
X11083928Y-10510786D01*
X11098214Y-10539357D01*
X11098214Y-10625072D01*
X11083928Y-10653643D01*
X11069643Y-10667929D01*
X11041071Y-10682214D01*
X10998214Y-10682214D01*
X11269643Y-10682214D02*
X11241071Y-10667929D01*
X11226786Y-10639357D01*
X11226786Y-10382214D01*
X11498214Y-10667929D02*
X11469643Y-10682214D01*
X11412500Y-10682214D01*
X11383928Y-10667929D01*
X11369643Y-10639357D01*
X11369643Y-10525072D01*
X11383928Y-10496500D01*
X11412500Y-10482214D01*
X11469643Y-10482214D01*
X11498214Y-10496500D01*
X11512500Y-10525072D01*
X11512500Y-10553643D01*
X11369643Y-10582214D01*
X11626786Y-10667929D02*
X11655357Y-10682214D01*
X11712500Y-10682214D01*
X11741071Y-10667929D01*
X11755357Y-10639357D01*
X11755357Y-10625072D01*
X11741071Y-10596500D01*
X11712500Y-10582214D01*
X11669643Y-10582214D01*
X11641071Y-10567929D01*
X11626786Y-10539357D01*
X11626786Y-10525072D01*
X11641071Y-10496500D01*
X11669643Y-10482214D01*
X11712500Y-10482214D01*
X11741071Y-10496500D01*
X11855357Y-10796500D02*
X11869643Y-10782214D01*
X11898214Y-10739357D01*
X11912500Y-10710786D01*
X11926786Y-10667929D01*
X11941071Y-10596500D01*
X11941071Y-10539357D01*
X11926786Y-10467929D01*
X11912500Y-10425072D01*
X11898214Y-10396500D01*
X11869643Y-10353643D01*
X11855357Y-10339357D01*
X4497500Y-10792500D02*
X4797500Y-11092500D01*
X4797500Y-10792500D02*
X4497500Y-11092500D01*
X4797500Y-10942500D02*
G75*
G03*
X4797500Y-10942500I-150000J0D01*
G01*
X5055357Y-10778214D02*
X5241071Y-10778214D01*
X5141071Y-10892500D01*
X5183928Y-10892500D01*
X5212500Y-10906786D01*
X5226786Y-10921072D01*
X5241071Y-10949643D01*
X5241071Y-11021072D01*
X5226786Y-11049643D01*
X5212500Y-11063929D01*
X5183928Y-11078214D01*
X5098214Y-11078214D01*
X5069643Y-11063929D01*
X5055357Y-11049643D01*
X5369643Y-11049643D02*
X5383928Y-11063929D01*
X5369643Y-11078214D01*
X5355357Y-11063929D01*
X5369643Y-11049643D01*
X5369643Y-11078214D01*
X5569643Y-10778214D02*
X5598214Y-10778214D01*
X5626786Y-10792500D01*
X5641071Y-10806786D01*
X5655357Y-10835357D01*
X5669643Y-10892500D01*
X5669643Y-10963929D01*
X5655357Y-11021072D01*
X5641071Y-11049643D01*
X5626786Y-11063929D01*
X5598214Y-11078214D01*
X5569643Y-11078214D01*
X5541071Y-11063929D01*
X5526786Y-11049643D01*
X5512500Y-11021072D01*
X5498214Y-10963929D01*
X5498214Y-10892500D01*
X5512500Y-10835357D01*
X5526786Y-10806786D01*
X5541071Y-10792500D01*
X5569643Y-10778214D01*
X5855357Y-10778214D02*
X5883928Y-10778214D01*
X5912500Y-10792500D01*
X5926786Y-10806786D01*
X5941071Y-10835357D01*
X5955357Y-10892500D01*
X5955357Y-10963929D01*
X5941071Y-11021072D01*
X5926786Y-11049643D01*
X5912500Y-11063929D01*
X5883928Y-11078214D01*
X5855357Y-11078214D01*
X5826786Y-11063929D01*
X5812500Y-11049643D01*
X5798214Y-11021072D01*
X5783928Y-10963929D01*
X5783928Y-10892500D01*
X5798214Y-10835357D01*
X5812500Y-10806786D01*
X5826786Y-10792500D01*
X5855357Y-10778214D01*
X6141071Y-10778214D02*
X6169643Y-10778214D01*
X6198214Y-10792500D01*
X6212500Y-10806786D01*
X6226786Y-10835357D01*
X6241071Y-10892500D01*
X6241071Y-10963929D01*
X6226786Y-11021072D01*
X6212500Y-11049643D01*
X6198214Y-11063929D01*
X6169643Y-11078214D01*
X6141071Y-11078214D01*
X6112500Y-11063929D01*
X6098214Y-11049643D01*
X6083928Y-11021072D01*
X6069643Y-10963929D01*
X6069643Y-10892500D01*
X6083928Y-10835357D01*
X6098214Y-10806786D01*
X6112500Y-10792500D01*
X6141071Y-10778214D01*
X6369643Y-11078214D02*
X6369643Y-10878214D01*
X6369643Y-10906786D02*
X6383928Y-10892500D01*
X6412500Y-10878214D01*
X6455357Y-10878214D01*
X6483928Y-10892500D01*
X6498214Y-10921072D01*
X6498214Y-11078214D01*
X6498214Y-10921072D02*
X6512500Y-10892500D01*
X6541071Y-10878214D01*
X6583928Y-10878214D01*
X6612500Y-10892500D01*
X6626786Y-10921072D01*
X6626786Y-11078214D01*
X6769643Y-11078214D02*
X6769643Y-10878214D01*
X6769643Y-10906786D02*
X6783928Y-10892500D01*
X6812500Y-10878214D01*
X6855357Y-10878214D01*
X6883928Y-10892500D01*
X6898214Y-10921072D01*
X6898214Y-11078214D01*
X6898214Y-10921072D02*
X6912500Y-10892500D01*
X6941071Y-10878214D01*
X6983928Y-10878214D01*
X7012500Y-10892500D01*
X7026786Y-10921072D01*
X7026786Y-11078214D01*
X7612500Y-10763929D02*
X7355357Y-11149643D01*
X7998214Y-10778214D02*
X8026786Y-10778214D01*
X8055357Y-10792500D01*
X8069643Y-10806786D01*
X8083928Y-10835357D01*
X8098214Y-10892500D01*
X8098214Y-10963929D01*
X8083928Y-11021072D01*
X8069643Y-11049643D01*
X8055357Y-11063929D01*
X8026786Y-11078214D01*
X7998214Y-11078214D01*
X7969643Y-11063929D01*
X7955357Y-11049643D01*
X7941071Y-11021072D01*
X7926786Y-10963929D01*
X7926786Y-10892500D01*
X7941071Y-10835357D01*
X7955357Y-10806786D01*
X7969643Y-10792500D01*
X7998214Y-10778214D01*
X8226786Y-11049643D02*
X8241071Y-11063929D01*
X8226786Y-11078214D01*
X8212500Y-11063929D01*
X8226786Y-11049643D01*
X8226786Y-11078214D01*
X8526786Y-11078214D02*
X8355357Y-11078214D01*
X8441071Y-11078214D02*
X8441071Y-10778214D01*
X8412500Y-10821072D01*
X8383928Y-10849643D01*
X8355357Y-10863929D01*
X8812500Y-11078214D02*
X8641071Y-11078214D01*
X8726786Y-11078214D02*
X8726786Y-10778214D01*
X8698214Y-10821072D01*
X8669643Y-10849643D01*
X8641071Y-10863929D01*
X8983928Y-10906786D02*
X8955357Y-10892500D01*
X8941071Y-10878214D01*
X8926786Y-10849643D01*
X8926786Y-10835357D01*
X8941071Y-10806786D01*
X8955357Y-10792500D01*
X8983928Y-10778214D01*
X9041071Y-10778214D01*
X9069643Y-10792500D01*
X9083928Y-10806786D01*
X9098214Y-10835357D01*
X9098214Y-10849643D01*
X9083928Y-10878214D01*
X9069643Y-10892500D01*
X9041071Y-10906786D01*
X8983928Y-10906786D01*
X8955357Y-10921072D01*
X8941071Y-10935357D01*
X8926786Y-10963929D01*
X8926786Y-11021072D01*
X8941071Y-11049643D01*
X8955357Y-11063929D01*
X8983928Y-11078214D01*
X9041071Y-11078214D01*
X9069643Y-11063929D01*
X9083928Y-11049643D01*
X9098214Y-11021072D01*
X9098214Y-10963929D01*
X9083928Y-10935357D01*
X9069643Y-10921072D01*
X9041071Y-10906786D01*
X9383928Y-11078214D02*
X9212500Y-11078214D01*
X9298214Y-11078214D02*
X9298214Y-10778214D01*
X9269643Y-10821072D01*
X9241071Y-10849643D01*
X9212500Y-10863929D01*
X9498214Y-10778214D02*
X9498214Y-10835357D01*
X9612500Y-10778214D02*
X9612500Y-10835357D01*
X10055357Y-11192500D02*
X10041071Y-11178214D01*
X10012500Y-11135357D01*
X9998214Y-11106786D01*
X9983928Y-11063929D01*
X9969643Y-10992500D01*
X9969643Y-10935357D01*
X9983928Y-10863929D01*
X9998214Y-10821072D01*
X10012500Y-10792500D01*
X10041071Y-10749643D01*
X10055357Y-10735357D01*
X10155357Y-10806786D02*
X10169643Y-10792500D01*
X10198214Y-10778214D01*
X10269643Y-10778214D01*
X10298214Y-10792500D01*
X10312500Y-10806786D01*
X10326786Y-10835357D01*
X10326786Y-10863929D01*
X10312500Y-10906786D01*
X10141071Y-11078214D01*
X10326786Y-11078214D01*
X10683928Y-11078214D02*
X10683928Y-10778214D01*
X10812500Y-11078214D02*
X10812500Y-10921072D01*
X10798214Y-10892500D01*
X10769643Y-10878214D01*
X10726786Y-10878214D01*
X10698214Y-10892500D01*
X10683928Y-10906786D01*
X10998214Y-11078214D02*
X10969643Y-11063929D01*
X10955357Y-11049643D01*
X10941071Y-11021072D01*
X10941071Y-10935357D01*
X10955357Y-10906786D01*
X10969643Y-10892500D01*
X10998214Y-10878214D01*
X11041071Y-10878214D01*
X11069643Y-10892500D01*
X11083928Y-10906786D01*
X11098214Y-10935357D01*
X11098214Y-11021072D01*
X11083928Y-11049643D01*
X11069643Y-11063929D01*
X11041071Y-11078214D01*
X10998214Y-11078214D01*
X11269643Y-11078214D02*
X11241071Y-11063929D01*
X11226786Y-11035357D01*
X11226786Y-10778214D01*
X11498214Y-11063929D02*
X11469643Y-11078214D01*
X11412500Y-11078214D01*
X11383928Y-11063929D01*
X11369643Y-11035357D01*
X11369643Y-10921072D01*
X11383928Y-10892500D01*
X11412500Y-10878214D01*
X11469643Y-10878214D01*
X11498214Y-10892500D01*
X11512500Y-10921072D01*
X11512500Y-10949643D01*
X11369643Y-10978214D01*
X11626786Y-11063929D02*
X11655357Y-11078214D01*
X11712500Y-11078214D01*
X11741071Y-11063929D01*
X11755357Y-11035357D01*
X11755357Y-11021072D01*
X11741071Y-10992500D01*
X11712500Y-10978214D01*
X11669643Y-10978214D01*
X11641071Y-10963929D01*
X11626786Y-10935357D01*
X11626786Y-10921072D01*
X11641071Y-10892500D01*
X11669643Y-10878214D01*
X11712500Y-10878214D01*
X11741071Y-10892500D01*
X11855357Y-11192500D02*
X11869643Y-11178214D01*
X11898214Y-11135357D01*
X11912500Y-11106786D01*
X11926786Y-11063929D01*
X11941071Y-10992500D01*
X11941071Y-10935357D01*
X11926786Y-10863929D01*
X11912500Y-10821072D01*
X11898214Y-10792500D01*
X11869643Y-10749643D01*
X11855357Y-10735357D01*
M02*
