(kicad_pcb (version 20171130) (host pcbnew "(5.1.0)-1")

  (general
    (thickness 1.6)
    (drawings 4)
    (tracks 29)
    (zones 0)
    (modules 4)
    (nets 8)
  )

  (page A4)
  (layers
    (0 F.Cu signal)
    (31 B.Cu signal)
    (32 B.Adhes user)
    (33 F.Adhes user)
    (34 B.Paste user)
    (35 F.Paste user)
    (36 B.SilkS user hide)
    (37 F.SilkS user)
    (38 B.Mask user)
    (39 F.Mask user hide)
    (40 Dwgs.User user)
    (41 Cmts.User user)
    (42 Eco1.User user)
    (43 Eco2.User user)
    (44 Edge.Cuts user)
    (45 Margin user)
    (46 B.CrtYd user)
    (47 F.CrtYd user)
    (48 B.Fab user)
    (49 F.Fab user)
  )

  (setup
    (last_trace_width 0.25)
    (trace_clearance 0.2)
    (zone_clearance 0.508)
    (zone_45_only no)
    (trace_min 0.2)
    (via_size 0.6)
    (via_drill 0.4)
    (via_min_size 0.4)
    (via_min_drill 0.3)
    (uvia_size 0.3)
    (uvia_drill 0.1)
    (uvias_allowed no)
    (uvia_min_size 0.2)
    (uvia_min_drill 0.1)
    (edge_width 0.15)
    (segment_width 0.2)
    (pcb_text_width 0.3)
    (pcb_text_size 1.5 1.5)
    (mod_edge_width 0.15)
    (mod_text_size 1 1)
    (mod_text_width 0.15)
    (pad_size 1.524 1.524)
    (pad_drill 0.762)
    (pad_to_mask_clearance 0)
    (aux_axis_origin 0 0)
    (visible_elements 7FFCFFFF)
    (pcbplotparams
      (layerselection 0x010fc_ffffffff)
      (usegerberextensions true)
      (usegerberattributes false)
      (usegerberadvancedattributes false)
      (creategerberjobfile false)
      (excludeedgelayer true)
      (linewidth 0.100000)
      (plotframeref false)
      (viasonmask false)
      (mode 1)
      (useauxorigin false)
      (hpglpennumber 1)
      (hpglpenspeed 20)
      (hpglpendiameter 15.000000)
      (psnegative false)
      (psa4output false)
      (plotreference false)
      (plotvalue false)
      (plotinvisibletext false)
      (padsonsilk false)
      (subtractmaskfromsilk false)
      (outputformat 1)
      (mirror false)
      (drillshape 0)
      (scaleselection 1)
      (outputdirectory "gerber/"))
  )

  (net 0 "")
  (net 1 "Net-(P4-Pad2)")
  (net 2 +9V)
  (net 3 U_POSITION1)
  (net 4 U_POSITION3)
  (net 5 "Net-(P1-Pad1)")
  (net 6 "Net-(P2-Pad1)")
  (net 7 GND)

  (net_class Default "Ceci est la Netclass par défaut"
    (clearance 0.2)
    (trace_width 0.25)
    (via_dia 0.6)
    (via_drill 0.4)
    (uvia_dia 0.3)
    (uvia_drill 0.1)
    (add_net +9V)
    (add_net GND)
    (add_net "Net-(P1-Pad1)")
    (add_net "Net-(P2-Pad1)")
    (add_net "Net-(P4-Pad2)")
    (add_net U_POSITION1)
    (add_net U_POSITION3)
  )

  (module "21_DiskioPi-03:SM04B-SRSS-TB(LF)(SN)" (layer F.Cu) (tedit 5DF1137A) (tstamp 5ACDD602)
    (at 123.78 84.775 180)
    (descr "LED 0805 smd package")
    (tags "LED 0805 SMD")
    (path /5AC4BF6F)
    (attr smd)
    (fp_text reference P3 (at 0.08 2.525 180) (layer F.SilkS)
      (effects (font (size 1 1) (thickness 0.15)))
    )
    (fp_text value CONN_01X04 (at -0.58 1.7 180) (layer F.Fab)
      (effects (font (size 1 1) (thickness 0.15)))
    )
    (fp_line (start -3 0.325) (end -3 4.575) (layer F.SilkS) (width 0.15))
    (fp_line (start -3 4.575) (end 3 4.575) (layer F.SilkS) (width 0.15))
    (fp_line (start 3 0.325) (end 3 4.575) (layer F.SilkS) (width 0.15))
    (fp_line (start -3 0.325) (end 3 0.325) (layer F.SilkS) (width 0.15))
    (pad "" smd rect (at 2.8 3.625) (size 1.2 1.8) (layers F.Cu F.Paste F.Mask))
    (pad "" smd rect (at -2.8 3.625) (size 1.2 1.8) (layers F.Cu F.Paste F.Mask))
    (pad 4 smd rect (at 1.5 0) (size 0.6 1.55) (layers F.Cu F.Paste F.Mask)
      (net 7 GND))
    (pad 3 smd rect (at 0.5 0) (size 0.6 1.55) (layers F.Cu F.Paste F.Mask)
      (net 2 +9V))
    (pad 2 smd rect (at -0.5 0) (size 0.6 1.55) (layers F.Cu F.Paste F.Mask)
      (net 4 U_POSITION3))
    (pad 1 smd rect (at -1.5 0) (size 0.6 1.55) (layers F.Cu F.Paste F.Mask)
      (net 3 U_POSITION1))
  )

  (module diskioPi:SS314MAH4 (layer F.Cu) (tedit 5DF11311) (tstamp 5AD0880C)
    (at 112.1 83.5)
    (descr "LED 0805 smd package")
    (tags "LED 0805 SMD")
    (path /5ACDE053)
    (attr smd)
    (fp_text reference P4 (at 0.2 2.85) (layer F.SilkS)
      (effects (font (size 1 1) (thickness 0.15)))
    )
    (fp_text value SS314MAH4 (at -3.205 -0.55) (layer F.Fab)
      (effects (font (size 1 1) (thickness 0.15)))
    )
    (fp_line (start -0.75 6.325) (end 0.75 6.325) (layer F.SilkS) (width 0.15))
    (fp_line (start 0.75 4.325) (end 0.75 6.325) (layer F.SilkS) (width 0.15))
    (fp_line (start -0.75 4.325) (end -0.75 6.325) (layer F.SilkS) (width 0.15))
    (fp_line (start -6.25 4.325) (end 6.25 4.325) (layer F.SilkS) (width 0.15))
    (fp_line (start 6.25 -1.275) (end 6.25 4.325) (layer F.SilkS) (width 0.15))
    (fp_line (start -6.25 -1.275) (end -6.25 4.325) (layer F.SilkS) (width 0.15))
    (fp_line (start -6.25 -1.275) (end 6.25 -1.275) (layer F.SilkS) (width 0.15))
    (pad "" smd rect (at 6.55 3.395 180) (size 1.7 1.7) (layers F.Cu F.Paste F.Mask))
    (pad "" smd rect (at -6.55 3.395 180) (size 1.7 1.7) (layers F.Cu F.Paste F.Mask))
    (pad 5 smd rect (at 4 0 180) (size 1 2.55) (layers F.Cu F.Paste F.Mask)
      (net 4 U_POSITION3))
    (pad 3 smd rect (at 0 0 180) (size 1 2.55) (layers F.Cu F.Paste F.Mask)
      (net 2 +9V))
    (pad 4 smd rect (at 2 0 180) (size 1 2.55) (layers F.Cu F.Paste F.Mask)
      (net 1 "Net-(P4-Pad2)"))
    (pad 2 smd rect (at -2 0 180) (size 1 2.55) (layers F.Cu F.Paste F.Mask)
      (net 1 "Net-(P4-Pad2)"))
    (pad 1 smd rect (at -4 0 180) (size 1 2.55) (layers F.Cu F.Paste F.Mask)
      (net 3 U_POSITION1))
    (model LEDs.3dshapes/LED-0805.wrl
      (at (xyz 0 0 0))
      (scale (xyz 1 1 1))
      (rotate (xyz 0 0 0))
    )
  )

  (module lib_robot:Hole_3mm (layer F.Cu) (tedit 58636DFD) (tstamp 5AC4E534)
    (at 102.6 84)
    (descr "Through hole pin header")
    (tags "pin header")
    (path /5AC4C13A)
    (fp_text reference P1 (at -2.4638 -2.2606) (layer F.SilkS) hide
      (effects (font (size 1 1) (thickness 0.15)))
    )
    (fp_text value Hole (at 0 -3.1) (layer F.Fab)
      (effects (font (size 1 1) (thickness 0.15)))
    )
    (pad 1 thru_hole circle (at 0 0) (size 4 4) (drill 3) (layers *.Cu *.Mask F.SilkS)
      (net 5 "Net-(P1-Pad1)"))
    (model Pin_Headers.3dshapes/Pin_Header_Straight_1x01.wrl
      (at (xyz 0 0 0))
      (scale (xyz 1 1 1))
      (rotate (xyz 0 0 90))
    )
  )

  (module lib_robot:Hole_3mm (layer F.Cu) (tedit 58636DFD) (tstamp 5AC4E539)
    (at 130.9 84)
    (descr "Through hole pin header")
    (tags "pin header")
    (path /5AC4C306)
    (fp_text reference P2 (at -1.9 -2.9) (layer F.SilkS) hide
      (effects (font (size 1 1) (thickness 0.15)))
    )
    (fp_text value Hole (at 0 -3.1) (layer F.Fab)
      (effects (font (size 1 1) (thickness 0.15)))
    )
    (pad 1 thru_hole circle (at 0 0) (size 4 4) (drill 3) (layers *.Cu *.Mask F.SilkS)
      (net 6 "Net-(P2-Pad1)"))
    (model Pin_Headers.3dshapes/Pin_Header_Straight_1x01.wrl
      (at (xyz 0 0 0))
      (scale (xyz 1 1 1))
      (rotate (xyz 0 0 90))
    )
  )

  (gr_line (start 100 88) (end 133.5 88) (angle 90) (layer Edge.Cuts) (width 0.15) (tstamp 5AC4C103))
  (gr_line (start 133.5 80) (end 133.5 88) (angle 90) (layer Edge.Cuts) (width 0.15) (tstamp 5AC4C0F1))
  (gr_line (start 100 80) (end 100 88) (angle 90) (layer Edge.Cuts) (width 0.15))
  (gr_line (start 100 80) (end 133.5 80) (angle 90) (layer Edge.Cuts) (width 0.15))

  (segment (start 114.1 83.5) (end 114.1 81.6) (width 0.25) (layer F.Cu) (net 1) (status 400000))
  (segment (start 110.1 81.4) (end 110.1 83.5) (width 0.25) (layer F.Cu) (net 1) (tstamp 5AF99865) (status 800000))
  (segment (start 110.6 80.9) (end 110.1 81.4) (width 0.25) (layer F.Cu) (net 1) (tstamp 5AF99864))
  (segment (start 113.4 80.9) (end 110.6 80.9) (width 0.25) (layer F.Cu) (net 1) (tstamp 5AF99863))
  (segment (start 114.1 81.6) (end 113.4 80.9) (width 0.25) (layer F.Cu) (net 1) (tstamp 5AF99862))
  (segment (start 112.18 83.42) (end 112.18 81.56) (width 0.25) (layer F.Cu) (net 2) (status 400000))
  (segment (start 112.49 81.25) (end 112.18 81.56) (width 0.25) (layer B.Cu) (net 2) (tstamp 5AF99902))
  (via (at 112.18 81.56) (size 0.6) (drill 0.4) (layers F.Cu B.Cu) (net 2))
  (via (at 115.42 81.25) (size 0.6) (drill 0.4) (layers F.Cu B.Cu) (net 2))
  (segment (start 118.18 81.25) (end 115.42 81.25) (width 0.25) (layer F.Cu) (net 2) (tstamp 5AF998FD))
  (segment (start 119.55 82.62) (end 118.18 81.25) (width 0.25) (layer F.Cu) (net 2) (tstamp 5AF998FB))
  (segment (start 115.42 81.25) (end 112.49 81.25) (width 0.25) (layer B.Cu) (net 2))
  (segment (start 112.18 83.42) (end 112.1 83.5) (width 0.25) (layer F.Cu) (net 2) (tstamp 5AF99906) (status C00000))
  (segment (start 112.5 83.4) (end 112.4 83.5) (width 0.25) (layer F.Cu) (net 2) (tstamp 5AF58A77))
  (segment (start 122.15 82.62) (end 119.55 82.62) (width 0.25) (layer F.Cu) (net 2))
  (segment (start 123.28 83.75) (end 122.15 82.62) (width 0.25) (layer F.Cu) (net 2))
  (segment (start 123.28 84.775) (end 123.28 83.75) (width 0.25) (layer F.Cu) (net 2))
  (segment (start 125.28 85.8) (end 125.28 84.775) (width 0.25) (layer F.Cu) (net 3))
  (segment (start 108.1 85.15) (end 108.44 85.49) (width 0.25) (layer F.Cu) (net 3))
  (segment (start 108.1 83.5) (end 108.1 85.15) (width 0.25) (layer F.Cu) (net 3))
  (segment (start 108.44 85.49) (end 119.99 85.49) (width 0.25) (layer F.Cu) (net 3))
  (segment (start 119.99 85.49) (end 121.25 86.75) (width 0.25) (layer F.Cu) (net 3))
  (segment (start 121.25 86.75) (end 124.33 86.75) (width 0.25) (layer F.Cu) (net 3))
  (segment (start 124.33 86.75) (end 125.28 85.8) (width 0.25) (layer F.Cu) (net 3))
  (segment (start 118.63641 83.5) (end 116.1 83.5) (width 0.25) (layer F.Cu) (net 4))
  (segment (start 121.38641 86.25) (end 118.63641 83.5) (width 0.25) (layer F.Cu) (net 4))
  (segment (start 123.83 86.25) (end 121.38641 86.25) (width 0.25) (layer F.Cu) (net 4))
  (segment (start 124.28 84.775) (end 124.28 85.8) (width 0.25) (layer F.Cu) (net 4))
  (segment (start 124.28 85.8) (end 123.83 86.25) (width 0.25) (layer F.Cu) (net 4))

)
