(export (version D)
  (design
    (source "/home/guillaume/DiskioPi/Git/diskio-pi-embedded-electronics/Carte Réseau/kicad/carteReseau.sch")
    (date "sam. 06 févr. 2021 09:04:28")
    (tool "Eeschema 5.1.9-73d0e3b20d~88~ubuntu20.10.1")
    (sheet (number 1) (name /) (tstamps /)
      (title_block
        (title "Carte Reseau")
        (company "Projet Diskio Pi - 0.3")
        (rev 0.1)
        (date 05/04/2018)
        (source carteReseau.sch)
        (comment (number 1) (value ""))
        (comment (number 2) (value ""))
        (comment (number 3) (value ""))
        (comment (number 4) (value "")))))
  (components
    (comp (ref P1)
      (value CONN_01X08)
      (footprint diskioPi:JST-B8B-XH-A)
      (fields
        (field (name "Code commande") 1516284)
        (field (name Distributeur) Farnell)
        (field (name Prix) 0,313)
        (field (name "Réf fab") "B8B-XH-A (LF)(SN) "))
      (libsource (lib carteReseau-rescue) (part CONN_01X08-conn) (description ""))
      (sheetpath (names /) (tstamps /))
      (tstamp 5AC4C5FD))
    (comp (ref J1)
      (value RJ45)
      (footprint diskioPi:RJSSE-5080)
      (fields
        (field (name "Code commande") 2709044)
        (field (name Distributeur) Farnell)
        (field (name Prix) 1,12)
        (field (name "Réf fab") RJSSE5080))
      (libsource (lib carteReseau-rescue) (part RJ45-conn) (description ""))
      (sheetpath (names /) (tstamps /))
      (tstamp 5AC5CD66))
    (comp (ref P3)
      (value Hole)
      (footprint lib_robot:Hole_4mm)
      (fields
        (field (name "Code commande") Value)
        (field (name Distributeur) Farnell)
        (field (name Prix) 0.0)
        (field (name "Réf fab") Value))
      (libsource (lib carteReseau-rescue) (part Hole-MACE_LIB) (description ""))
      (sheetpath (names /) (tstamps /))
      (tstamp 5AC5D24D))
    (comp (ref P5)
      (value Hole)
      (footprint lib_robot:Hole_4mm)
      (fields
        (field (name "Code commande") Value)
        (field (name Distributeur) Farnell)
        (field (name Prix) 0.0)
        (field (name "Réf fab") Value))
      (libsource (lib carteReseau-rescue) (part Hole-MACE_LIB) (description ""))
      (sheetpath (names /) (tstamps /))
      (tstamp 5AC5D351))
    (comp (ref P6)
      (value Hole)
      (footprint lib_robot:Hole_4mm)
      (fields
        (field (name "Code commande") Value)
        (field (name Distributeur) Farnell)
        (field (name Prix) 0.0)
        (field (name "Réf fab") Value))
      (libsource (lib carteReseau-rescue) (part Hole-MACE_LIB) (description ""))
      (sheetpath (names /) (tstamps /))
      (tstamp 5AC5D376))
    (comp (ref P2)
      (value Hole)
      (footprint lib_robot:Hole_4mm)
      (fields
        (field (name "Code commande") Value)
        (field (name Distributeur) Farnell)
        (field (name Prix) 0.0)
        (field (name "Réf fab") Value))
      (libsource (lib carteReseau-rescue) (part Hole-MACE_LIB) (description ""))
      (sheetpath (names /) (tstamps /))
      (tstamp 5AC5D3AA))
    (comp (ref P4)
      (value Hole)
      (footprint lib_robot:Hole_4mm)
      (fields
        (field (name "Code commande") Value)
        (field (name Distributeur) Farnell)
        (field (name Prix) 0.0)
        (field (name "Réf fab") Value))
      (libsource (lib carteReseau-rescue) (part Hole-MACE_LIB) (description ""))
      (sheetpath (names /) (tstamps /))
      (tstamp 5AD23DAA))
    (comp (ref J3)
      (value "B5B-XH-A (LF)(SN) ")
      (footprint Connector_JST:JST_XH_B5B-XH-A_1x05_P2.50mm_Vertical)
      (datasheet ~)
      (fields
        (field (name "Code commande") 1516281)
        (field (name Distributeur) Farnell)
        (field (name Prix) 0,151)
        (field (name "Réf fab") "B5B-XH-A (LF)(SN) "))
      (libsource (lib Connector_Generic) (part Conn_01x05) (description "Generic connector, single row, 01x05, script generated (kicad-library-utils/schlib/autogen/connector/)"))
      (sheetpath (names /) (tstamps /))
      (tstamp 5D205574))
    (comp (ref J4)
      (value MEM2051-00-195-00-A_REVC)
      (footprint MEM2051:GCT_MEM2051-00-195-00-A_REVC)
      (fields
        (field (name MANUFACTURER) GCT))
      (libsource (lib MEM2051) (part MEM2051-00-195-00-A_REVC) (description ""))
      (sheetpath (names /) (tstamps /))
      (tstamp 5FFB816D))
    (comp (ref 006207341915000+1)
      (value 006207341915000+)
      (footprint Connectors:006207341915000+)
      (libsource (lib MOLEX_505110) (part MOLEX_200528-0150) (description ""))
      (sheetpath (names /) (tstamps /))
      (tstamp 5FFEE94B))
    (comp (ref J2)
      (value SJ2-35564A-SMT-TR)
      (footprint carte-lan:CUI_SJ2-35564A-SMT-TR)
      (fields
        (field (name MF) CUI)
        (field (name MPN) SJ2-35564A-SMT-TR)
        (field (name PART_REV) 1.0)
        (field (name STANDARD) "Manufacturer recommendation"))
      (libsource (lib audio) (part SJ2-35564A-SMT-TR) (description ""))
      (sheetpath (names /) (tstamps /))
      (tstamp 6000AB9D))
    (comp (ref R3)
      (value 50k)
      (footprint Resistors_SMD:R_0805)
      (datasheet ~)
      (libsource (lib Device) (part R) (description Resistor))
      (sheetpath (names /) (tstamps /))
      (tstamp 6020BE14))
    (comp (ref R4)
      (value 50k)
      (footprint Resistors_SMD:R_0805)
      (datasheet ~)
      (libsource (lib Device) (part R) (description Resistor))
      (sheetpath (names /) (tstamps /))
      (tstamp 6020C33B))
    (comp (ref R2)
      (value 50k)
      (footprint Resistors_SMD:R_0805)
      (datasheet ~)
      (libsource (lib Device) (part R) (description Resistor))
      (sheetpath (names /) (tstamps /))
      (tstamp 6020C750))
    (comp (ref R5)
      (value 50k)
      (footprint Resistors_SMD:R_0805)
      (datasheet ~)
      (libsource (lib Device) (part R) (description Resistor))
      (sheetpath (names /) (tstamps /))
      (tstamp 6020D288))
    (comp (ref R1)
      (value 50k)
      (footprint Resistors_SMD:R_0805)
      (datasheet ~)
      (libsource (lib Device) (part R) (description Resistor))
      (sheetpath (names /) (tstamps /))
      (tstamp 60243D23))
    (comp (ref C1)
      (value 0.1uF)
      (footprint Capacitors_SMD:C_0805)
      (datasheet ~)
      (libsource (lib Device) (part C) (description "Unpolarized capacitor"))
      (sheetpath (names /) (tstamps /))
      (tstamp 6025A275)))
  (libparts
    (libpart (lib Connector_Generic) (part Conn_01x05)
      (description "Generic connector, single row, 01x05, script generated (kicad-library-utils/schlib/autogen/connector/)")
      (docs ~)
      (footprints
        (fp Connector*:*_1x??_*))
      (fields
        (field (name Reference) J)
        (field (name Value) Conn_01x05))
      (pins
        (pin (num 1) (name Pin_1) (type passive))
        (pin (num 2) (name Pin_2) (type passive))
        (pin (num 3) (name Pin_3) (type passive))
        (pin (num 4) (name Pin_4) (type passive))
        (pin (num 5) (name Pin_5) (type passive))))
    (libpart (lib Device) (part C)
      (description "Unpolarized capacitor")
      (docs ~)
      (footprints
        (fp C_*))
      (fields
        (field (name Reference) C)
        (field (name Value) C))
      (pins
        (pin (num 1) (name ~) (type passive))
        (pin (num 2) (name ~) (type passive))))
    (libpart (lib Device) (part R)
      (description Resistor)
      (docs ~)
      (footprints
        (fp R_*))
      (fields
        (field (name Reference) R)
        (field (name Value) R))
      (pins
        (pin (num 1) (name ~) (type passive))
        (pin (num 2) (name ~) (type passive))))
    (libpart (lib MEM2051) (part MEM2051-00-195-00-A_REVC)
      (fields
        (field (name Reference) J)
        (field (name Value) MEM2051-00-195-00-A_REVC)
        (field (name Footprint) GCT_MEM2051-00-195-00-A_REVC)
        (field (name MANUFACTURER) GCT))
      (pins
        (pin (num 1) (name DAT2) (type BiDi))
        (pin (num 2) (name CD/DAT3) (type BiDi))
        (pin (num 3) (name CMD) (type BiDi))
        (pin (num 4) (name VDD) (type power_in))
        (pin (num 5) (name CLK) (type BiDi))
        (pin (num 6) (name VSS) (type power_in))
        (pin (num 7) (name DAT0) (type BiDi))
        (pin (num 8) (name DAT1) (type BiDi))
        (pin (num 9) (name CD) (type passive))
        (pin (num 10) (name SHIELD) (type passive))
        (pin (num 11) (name SHIELD) (type passive))
        (pin (num 12) (name SHIELD) (type passive))
        (pin (num 13) (name SHIELD) (type passive))))
    (libpart (lib MOLEX_505110) (part MOLEX_200528-0150)
      (fields
        (field (name Reference) MOLEX_200528-0150)
        (field (name Value) MOLEX_200528-0150))
      (pins
        (pin (num 1) (name SD-1) (type input))
        (pin (num 2) (name SD-2) (type input))
        (pin (num 3) (name SD-3) (type input))
        (pin (num 4) (name SD-4) (type input))
        (pin (num 5) (name SD-5) (type input))
        (pin (num 6) (name SD-6) (type input))
        (pin (num 7) (name SD-7) (type input))
        (pin (num 8) (name SD-8) (type input))
        (pin (num 9) (name SD-9) (type input))
        (pin (num 10) (name SD-10) (type input))
        (pin (num 11) (name SD-11) (type input))
        (pin (num 12) (name SD-12) (type input))
        (pin (num 13) (name SD-13) (type input))
        (pin (num 14) (name SD-14) (type input))
        (pin (num 15) (name SD-15) (type input))))
    (libpart (lib audio) (part SJ2-35564A-SMT-TR)
      (fields
        (field (name Reference) J)
        (field (name Value) SJ2-35564A-SMT-TR)
        (field (name Footprint) CUI_SJ2-35564A-SMT-TR)
        (field (name MPN) SJ2-35564A-SMT-TR)
        (field (name MF) CUI)
        (field (name PART_REV) 1.0)
        (field (name STANDARD) "Manufacturer recommendation"))
      (pins
        (pin (num 1) (name ~) (type passive))
        (pin (num 2) (name ~) (type passive))
        (pin (num 3) (name ~) (type passive))
        (pin (num 4) (name ~) (type passive))
        (pin (num 5) (name ~) (type passive))))
    (libpart (lib carteReseau-rescue) (part CONN_01X08-conn)
      (footprints
        (fp Pin_Header_Straight_1X08)
        (fp Pin_Header_Angled_1X08)
        (fp Socket_Strip_Straight_1X08)
        (fp Socket_Strip_Angled_1X08))
      (fields
        (field (name Reference) P)
        (field (name Value) CONN_01X08-conn))
      (pins
        (pin (num 1) (name P1) (type passive))
        (pin (num 2) (name P2) (type passive))
        (pin (num 3) (name P3) (type passive))
        (pin (num 4) (name P4) (type passive))
        (pin (num 5) (name P5) (type passive))
        (pin (num 6) (name P6) (type passive))
        (pin (num 7) (name P7) (type passive))
        (pin (num 8) (name P8) (type passive))))
    (libpart (lib carteReseau-rescue) (part Hole-MACE_LIB)
      (fields
        (field (name Reference) P)
        (field (name Value) Hole-MACE_LIB))
      (pins
        (pin (num 1) (name P1) (type passive))))
    (libpart (lib carteReseau-rescue) (part RJ45-conn)
      (fields
        (field (name Reference) J)
        (field (name Value) RJ45-conn))
      (pins
        (pin (num 1) (name ~) (type passive))
        (pin (num 2) (name ~) (type passive))
        (pin (num 3) (name ~) (type passive))
        (pin (num 4) (name ~) (type passive))
        (pin (num 5) (name ~) (type passive))
        (pin (num 6) (name ~) (type passive))
        (pin (num 7) (name ~) (type passive))
        (pin (num 8) (name ~) (type passive)))))
  (libraries
    (library (logical Connector_Generic)
      (uri /usr/share/kicad/library/Connector_Generic.lib))
    (library (logical Device)
      (uri /usr/share/kicad/library/Device.lib))
    (library (logical MEM2051)
      (uri "/home/guillaume/DiskioPi/Git/diskio-pi-embedded-electronics/Carte Réseau/kicad/MEM2051-00-195-00-A_REVC.lib"))
    (library (logical MOLEX_505110)
      (uri "/home/guillaume/DiskioPi/Git/diskio-pi-embedded-electronics/Carte Réseau/kicad/MOLEX_505110.lib"))
    (library (logical audio)
      (uri "/home/guillaume/DiskioPi/Git/diskio-pi-embedded-electronics/Carte Réseau/kicad/SJ2-35564A-SMT-TR.lib"))
    (library (logical carteReseau-rescue)
      (uri "/home/guillaume/DiskioPi/Git/diskio-pi-embedded-electronics/Carte Réseau/kicad/carteReseau-rescue.lib")))
  (nets
    (net (code 1) (name AUDIO_4)
      (node (ref J2) (pin 2))
      (node (ref J3) (pin 2)))
    (net (code 2) (name SD_DAT2)
      (node (ref R3) (pin 2))
      (node (ref J4) (pin 1))
      (node (ref 006207341915000+1) (pin 2)))
    (net (code 3) (name SD_DAT1)
      (node (ref J4) (pin 8))
      (node (ref 006207341915000+1) (pin 14))
      (node (ref R4) (pin 2)))
    (net (code 4) (name SD_DAT0)
      (node (ref 006207341915000+1) (pin 12))
      (node (ref R5) (pin 2))
      (node (ref J4) (pin 7)))
    (net (code 5) (name SD_CLK)
      (node (ref J4) (pin 5))
      (node (ref 006207341915000+1) (pin 10)))
    (net (code 6) (name AUDIO_3)
      (node (ref J3) (pin 3))
      (node (ref J2) (pin 4)))
    (net (code 7) (name AUDIO_2)
      (node (ref J3) (pin 4))
      (node (ref J2) (pin 3)))
    (net (code 8) (name SD_DAT3)
      (node (ref J4) (pin 2))
      (node (ref R2) (pin 2))
      (node (ref 006207341915000+1) (pin 4)))
    (net (code 9) (name AUDIO_1)
      (node (ref J2) (pin 1))
      (node (ref J3) (pin 5)))
    (net (code 10) (name AUDIO_5)
      (node (ref J3) (pin 1))
      (node (ref J2) (pin 5)))
    (net (code 11) (name SD_CMD)
      (node (ref R1) (pin 2))
      (node (ref J4) (pin 3))
      (node (ref 006207341915000+1) (pin 6)))
    (net (code 12) (name SD_3.3V)
      (node (ref J4) (pin 4))
      (node (ref C1) (pin 1))
      (node (ref 006207341915000+1) (pin 8))
      (node (ref R3) (pin 1))
      (node (ref R4) (pin 1))
      (node (ref R2) (pin 1))
      (node (ref R5) (pin 1))
      (node (ref R1) (pin 1)))
    (net (code 13) (name PIN8_RJ45)
      (node (ref P1) (pin 8))
      (node (ref J1) (pin 8)))
    (net (code 14) (name PIN4_RJ45)
      (node (ref P1) (pin 4))
      (node (ref J1) (pin 4)))
    (net (code 15) (name PIN5_RJ45)
      (node (ref J1) (pin 5))
      (node (ref P1) (pin 5)))
    (net (code 16) (name PIN6_RJ45)
      (node (ref J1) (pin 6))
      (node (ref P1) (pin 6)))
    (net (code 17) (name PIN7_RJ45)
      (node (ref J1) (pin 7))
      (node (ref P1) (pin 7)))
    (net (code 18) (name PIN3_RJ45)
      (node (ref P1) (pin 3))
      (node (ref J1) (pin 3)))
    (net (code 19) (name "Net-(P3-Pad1)")
      (node (ref P3) (pin 1)))
    (net (code 20) (name "Net-(P5-Pad1)")
      (node (ref P5) (pin 1)))
    (net (code 21) (name "Net-(P6-Pad1)")
      (node (ref P6) (pin 1)))
    (net (code 22) (name "Net-(P2-Pad1)")
      (node (ref P2) (pin 1)))
    (net (code 23) (name "Net-(P4-Pad1)")
      (node (ref P4) (pin 1)))
    (net (code 24) (name PIN1_RJ45)
      (node (ref J1) (pin 1))
      (node (ref P1) (pin 1)))
    (net (code 25) (name PIN2_RJ45)
      (node (ref P1) (pin 2))
      (node (ref J1) (pin 2)))
    (net (code 26) (name "Net-(J4-Pad9)")
      (node (ref J4) (pin 9)))
    (net (code 27) (name SD_GND)
      (node (ref 006207341915000+1) (pin 3))
      (node (ref 006207341915000+1) (pin 15))
      (node (ref 006207341915000+1) (pin 13))
      (node (ref 006207341915000+1) (pin 7))
      (node (ref 006207341915000+1) (pin 9))
      (node (ref 006207341915000+1) (pin 11))
      (node (ref C1) (pin 2))
      (node (ref 006207341915000+1) (pin 5))
      (node (ref J4) (pin 6))
      (node (ref J4) (pin 10))
      (node (ref J4) (pin 11))
      (node (ref J4) (pin 12))
      (node (ref J4) (pin 13))
      (node (ref 006207341915000+1) (pin 1)))))