(module SRP0512-4R7K (layer F.Cu) (tedit 6093809D)
  (descr "Choke, SMD, 7.3x7.3mm 4.5mm height")
  (tags "Choke SMD")
  (attr smd)
  (fp_text reference L1 (at 0 -4.45) (layer F.SilkS)
    (effects (font (size 1 1) (thickness 0.15)))
  )
  (fp_text value 4.7uH (at 0 4.45) (layer F.Fab)
    (effects (font (size 1 1) (thickness 0.15)))
  )
  (fp_line (start 2.9 1.4) (end 2.9 3.29) (layer F.SilkS) (width 0.12))
  (fp_line (start 2.9 3.29) (end -2.9 3.29) (layer F.SilkS) (width 0.12))
  (fp_line (start -2.9 3.29) (end -2.9 1.4) (layer F.SilkS) (width 0.12))
  (fp_line (start -2.9 -1.4) (end -2.9 -2.51) (layer F.SilkS) (width 0.12))
  (fp_line (start -2.9 -2.51) (end 2.9 -2.51) (layer F.SilkS) (width 0.12))
  (fp_line (start 2.9 -2.51) (end 2.9 -1.4) (layer F.SilkS) (width 0.12))
  (fp_line (start -2.7 -2.31) (end -2.7 3.09) (layer F.CrtYd) (width 0.05))
  (fp_line (start -2.7 3.09) (end 2.7 3.09) (layer F.CrtYd) (width 0.05))
  (fp_line (start 2.7 3.09) (end 2.7 -2.31) (layer F.CrtYd) (width 0.05))
  (fp_line (start 2.7 -2.31) (end -2.7 -2.31) (layer F.CrtYd) (width 0.05))
  (fp_line (start 2.9 3.29) (end 2.9 1.4) (layer F.Fab) (width 0.1))
  (fp_line (start 2.9 -2.51) (end 2.9 -1.4) (layer F.Fab) (width 0.1))
  (fp_line (start -2.9 3.29) (end -2.9 1.4) (layer F.Fab) (width 0.1))
  (fp_line (start -2.9 -2.51) (end -2.9 -1.4) (layer F.Fab) (width 0.1))
  (fp_line (start 2.9 3.29) (end -2.9 3.29) (layer F.Fab) (width 0.1))
  (fp_line (start -2.9 -2.51) (end 2.9 -2.51) (layer F.Fab) (width 0.1))
  (fp_text user %R (at 0 0.39) (layer F.Fab)
    (effects (font (size 1 1) (thickness 0.15)))
  )
  (fp_arc (start 0 0.39) (end 1.35 1.74) (angle 90) (layer F.Fab) (width 0.1))
  (fp_arc (start 0 0.39) (end -1.35 -0.96) (angle 90) (layer F.Fab) (width 0.1))
  (pad 1 smd rect (at -2.15 0) (size 1.5 2.8) (layers F.Cu F.Paste F.Mask))
  (pad 2 smd rect (at 2.15 0) (size 1.5 2.8) (layers F.Cu F.Paste F.Mask))
  (model ${KISYS3DMOD}/Inductor_SMD.3dshapes/L_7.3x7.3_H4.5.wrl
    (at (xyz 0 0 0))
    (scale (xyz 1 1 1))
    (rotate (xyz 0 0 0))
  )
)
