EESchema Schematic File Version 4
EELAYER 30 0
EELAYER END
$Descr A4 11693 8268
encoding utf-8
Sheet 2 2
Title ""
Date ""
Rev ""
Comp ""
Comment1 ""
Comment2 ""
Comment3 ""
Comment4 ""
$EndDescr
$Comp
L power:GND #PWR030
U 1 1 5CF71B4F
P 1000 6700
F 0 "#PWR030" H 1000 6450 50  0001 C CNN
F 1 "GND" H 1005 6527 50  0000 C CNN
F 2 "" H 1000 6700 50  0001 C CNN
F 3 "" H 1000 6700 50  0001 C CNN
	1    1000 6700
	1    0    0    -1  
$EndComp
$Comp
L Device:R R24
U 1 1 5CF720D0
P 1000 6200
F 0 "R24" H 1070 6246 50  0000 L CNN
F 1 "3.3k" H 1070 6155 50  0000 L CNN
F 2 "Resistor_SMD:R_0805_2012Metric" V 930 6200 50  0001 C CNN
F 3 "~" H 1000 6200 50  0001 C CNN
F 4 "9334629" H 0   0   50  0001 C CNN "Code commande"
F 5 "MC01W0805551R" H 0   0   50  0001 C CNN "Réf fabricant"
F 6 "0,0101" H 0   0   50  0001 C CNN "Prix"
	1    1000 6200
	1    0    0    -1  
$EndComp
Wire Wire Line
	1000 6350 1000 6400
Wire Wire Line
	1000 6050 1000 5950
$Comp
L power:+3.3V #PWR029
U 1 1 5CF72ABC
P 1000 5950
F 0 "#PWR029" H 1000 5800 50  0001 C CNN
F 1 "+3.3V" H 1015 6123 50  0000 C CNN
F 2 "" H 1000 5950 50  0001 C CNN
F 3 "" H 1000 5950 50  0001 C CNN
	1    1000 5950
	1    0    0    -1  
$EndComp
Wire Wire Line
	1000 6400 1550 6400
Text GLabel 1550 6400 2    50   Input ~ 0
+2.5V
$Comp
L CarteChargeur-rescue:DIP_SWITCH_1-MACE_LIB-CarteChargeur_0.5-rescue SW1
U 1 1 5CF7E15F
P 8550 1400
F 0 "SW1" V 8550 1347 60  0000 R CNN
F 1 "EVQ9P701K" H 8550 1650 60  0001 C CNN
F 2 "Lib:EVQ9P701K" H 8550 1400 60  0001 C CNN
F 3 "" H 8550 1400 60  0000 C CNN
F 4 "2079572" H 0   -200 50  0001 C CNN "Code commande"
F 5 "0,389" H 0   -200 50  0001 C CNN "Prix"
F 6 "EVQ9P701K" H 0   0   50  0001 C CNN "Réf fabricant"
	1    8550 1400
	0    -1   -1   0   
$EndComp
Text GLabel 2100 3100 0    50   Input ~ 0
+2.5V
$Comp
L power:GND #PWR031
U 1 1 5CF9A020
P 1250 3600
F 0 "#PWR031" H 1250 3350 50  0001 C CNN
F 1 "GND" H 1255 3427 50  0000 C CNN
F 2 "" H 1250 3600 50  0001 C CNN
F 3 "" H 1250 3600 50  0001 C CNN
	1    1250 3600
	1    0    0    -1  
$EndComp
Wire Wire Line
	1250 3150 1250 3300
Connection ~ 1250 3300
Wire Wire Line
	1250 2850 1250 2750
Text GLabel 1250 2750 0    50   Input ~ 0
+BATT_LEVEL
Wire Wire Line
	2750 3200 3250 3200
Text GLabel 5550 5050 0    50   Input ~ 0
+BATT_LEVEL
Wire Wire Line
	7850 6050 7450 6050
Wire Wire Line
	6800 5150 6700 5150
Wire Wire Line
	6700 5150 6700 5550
Wire Wire Line
	6700 5950 6850 5950
Connection ~ 6700 5550
Wire Wire Line
	6700 5550 6700 5950
Wire Wire Line
	6600 4950 6800 4950
$Comp
L Device:R R30
U 1 1 5CFB638D
P 6000 4650
F 0 "R30" H 6070 4696 50  0000 L CNN
F 1 "10k" H 6070 4605 50  0000 L CNN
F 2 "Resistor_SMD:R_0603_1608Metric_Pad1.05x0.95mm_HandSolder" V 5930 4650 50  0001 C CNN
F 3 "~" H 6000 4650 50  0001 C CNN
F 4 "2447315" H 0   0   50  0001 C CNN "Code commande"
F 5 "MCWR06X2702FTL" H 0   0   50  0001 C CNN "Réf fabricant"
F 6 "0,006" H 0   0   50  0001 C CNN "Prix"
	1    6000 4650
	1    0    0    -1  
$EndComp
$Comp
L power:GND #PWR034
U 1 1 5CFB6393
P 6000 4800
F 0 "#PWR034" H 6000 4550 50  0001 C CNN
F 1 "GND" H 6005 4627 50  0000 C CNN
F 2 "" H 6000 4800 50  0001 C CNN
F 3 "" H 6000 4800 50  0001 C CNN
	1    6000 4800
	1    0    0    -1  
$EndComp
Wire Wire Line
	6000 4350 6000 4450
Wire Wire Line
	6000 4050 6000 3950
$Comp
L Device:R R29
U 1 1 5CFB639B
P 6000 4200
F 0 "R29" H 6070 4246 50  0000 L CNN
F 1 "1k" H 6070 4155 50  0000 L CNN
F 2 "Resistor_SMD:R_0603_1608Metric_Pad1.05x0.95mm_HandSolder" V 5930 4200 50  0001 C CNN
F 3 "~" H 6000 4200 50  0001 C CNN
F 4 "2694685" H 0   0   50  0001 C CNN "Code commande"
F 5 "MCWR06X102 JTL" H 0   0   50  0001 C CNN "Réf fabricant"
F 6 "0,0054" H 0   0   50  0001 C CNN "Prix"
	1    6000 4200
	1    0    0    -1  
$EndComp
Connection ~ 6000 4450
Wire Wire Line
	6000 4450 6000 4500
Wire Wire Line
	6750 6150 6850 6150
Text GLabel 6750 6150 0    50   Input ~ 0
+2.5V
$Comp
L power:+3.3V #PWR033
U 1 1 5CFBA45F
P 6000 3950
F 0 "#PWR033" H 6000 3800 50  0001 C CNN
F 1 "+3.3V" H 6015 4123 50  0000 C CNN
F 2 "" H 6000 3950 50  0001 C CNN
F 3 "" H 6000 3950 50  0001 C CNN
	1    6000 3950
	1    0    0    -1  
$EndComp
$Comp
L Device:R R28
U 1 1 5CFBD2B6
P 5550 5750
F 0 "R28" H 5620 5796 50  0000 L CNN
F 1 "10.5" H 5620 5705 50  0000 L CNN
F 2 "Resistor_SMD:R_0603_1608Metric_Pad1.05x0.95mm_HandSolder" V 5480 5750 50  0001 C CNN
F 3 "~" H 5550 5750 50  0001 C CNN
F 4 "2447315" H 0   0   50  0001 C CNN "Code commande"
F 5 "MCWR06X2702FTL" H 0   0   50  0001 C CNN "Réf fabricant"
F 6 "0,006" H 0   0   50  0001 C CNN "Prix"
	1    5550 5750
	1    0    0    -1  
$EndComp
$Comp
L power:GND #PWR032
U 1 1 5CFBD2BC
P 5550 5900
F 0 "#PWR032" H 5550 5650 50  0001 C CNN
F 1 "GND" H 5555 5727 50  0000 C CNN
F 2 "" H 5550 5900 50  0001 C CNN
F 3 "" H 5550 5900 50  0001 C CNN
	1    5550 5900
	1    0    0    -1  
$EndComp
Wire Wire Line
	5550 5450 5550 5550
Wire Wire Line
	5550 5150 5550 5050
Connection ~ 5550 5550
Wire Wire Line
	5550 5550 5550 5600
Wire Wire Line
	5550 5550 6700 5550
$Comp
L Device:R R31
U 1 1 5CFDC754
P 8550 1750
F 0 "R31" H 8620 1796 50  0000 L CNN
F 1 "10k" H 8620 1705 50  0000 L CNN
F 2 "Resistor_SMD:R_0805_2012Metric" V 8480 1750 50  0001 C CNN
F 3 "~" H 8550 1750 50  0001 C CNN
F 4 "2447315" H 0   0   50  0001 C CNN "Code commande"
F 5 "0,006" H 0   0   50  0001 C CNN "Prix"
F 6 "MCWR06X2702FTL" H 0   0   50  0001 C CNN "Réf fabricant"
	1    8550 1750
	1    0    0    -1  
$EndComp
$Comp
L power:GND #PWR035
U 1 1 5CFDCD8A
P 8550 1900
F 0 "#PWR035" H 8550 1650 50  0001 C CNN
F 1 "GND" H 8555 1727 50  0000 C CNN
F 2 "" H 8550 1900 50  0001 C CNN
F 3 "" H 8550 1900 50  0001 C CNN
	1    8550 1900
	1    0    0    -1  
$EndComp
Text GLabel 9600 1150 0    50   Input ~ 0
+BATT_LEVEL
Text GLabel 10100 1150 2    50   Input ~ 0
+BATT
Wire Wire Line
	8550 1200 8550 1150
Text GLabel 8550 1150 1    50   Input ~ 0
+BATT_LEVEL
Connection ~ 8550 1600
Wire Wire Line
	8550 1600 8900 1600
$Comp
L Device:C C14
U 1 1 5CFEE9D0
P 8900 1750
F 0 "C14" H 9015 1796 50  0000 L CNN
F 1 "1uF" H 9015 1705 50  0000 L CNN
F 2 "Capacitor_SMD:C_0805_2012Metric" H 8938 1600 50  0001 C CNN
F 3 "~" H 8900 1750 50  0001 C CNN
F 4 "2522443" H 0   0   50  0001 C CNN "Code commande"
F 5 "0,0464" H 0   0   50  0001 C CNN "Prix"
F 6 "C0805C104Z3VACTU" H 0   0   50  0001 C CNN "Réf fabricant"
	1    8900 1750
	1    0    0    -1  
$EndComp
Connection ~ 8900 1600
$Comp
L power:GND #PWR036
U 1 1 5CFEEEC7
P 8900 1900
F 0 "#PWR036" H 8900 1650 50  0001 C CNN
F 1 "GND" H 8905 1727 50  0000 C CNN
F 2 "" H 8900 1900 50  0001 C CNN
F 3 "" H 8900 1900 50  0001 C CNN
	1    8900 1900
	1    0    0    -1  
$EndComp
Text Notes 2400 2300 0    50   ~ 0
LM324DT
$Comp
L CarteChargeur-rescue:LM324DT-MACE_LIB-CarteChargeur_0.5-rescue U4
U 2 1 5D04438A
P 2450 3200
F 0 "U4" H 2600 3450 50  0000 L CNN
F 1 "LM324DT" H 2500 3550 50  0000 L CNN
F 2 "Lib:SO-14_LM324DT" H 2400 3300 50  0001 C CNN
F 3 "op_amps/lm324.pdf" H 2794 3109 50  0001 L CNN
F 4 "2382609" H 0   0   50  0001 C CNN "Code commande"
F 5 "0,273" H 0   0   50  0001 C CNN "Prix"
F 6 "LM324DT" H 0   0   50  0001 C CNN "Réf fabricant"
	2    2450 3200
	1    0    0    -1  
$EndComp
$Comp
L CarteChargeur-rescue:LM324DT-MACE_LIB-CarteChargeur_0.5-rescue U4
U 3 1 5D0472A7
P 7100 5050
F 0 "U4" H 7200 4850 50  0000 C CNN
F 1 "LM324DT" H 7300 4750 50  0000 C CNN
F 2 "Lib:SO-14_LM324DT" H 7050 5150 50  0001 C CNN
F 3 "op_amps/lm324.pdf" H 7100 4661 50  0001 C CNN
F 4 "2382609" H -100 600 50  0001 C CNN "Code commande"
F 5 "0,273" H -100 600 50  0001 C CNN "Prix"
F 6 "LM324DT" H -100 600 50  0001 C CNN "Réf fabricant"
	3    7100 5050
	1    0    0    1   
$EndComp
$Comp
L CarteChargeur-rescue:LM324DT-MACE_LIB-CarteChargeur_0.5-rescue U4
U 4 1 5D0483E5
P 7150 6050
F 0 "U4" H 7150 5850 50  0000 C CNN
F 1 "LM324DT" H 7250 5750 50  0000 C CNN
F 2 "Lib:SO-14_LM324DT" H 7100 6150 50  0001 C CNN
F 3 "op_amps/lm324.pdf" H 7150 5661 50  0001 C CNN
F 4 "2382609" H -100 600 50  0001 C CNN "Code commande"
F 5 "0,273" H -100 600 50  0001 C CNN "Prix"
F 6 "LM324DT" H -100 600 50  0001 C CNN "Réf fabricant"
	4    7150 6050
	1    0    0    1   
$EndComp
$Comp
L power:GND #PWR038
U 1 1 5D04A5F5
P 2350 3500
F 0 "#PWR038" H 2350 3250 50  0001 C CNN
F 1 "GND" H 2355 3327 50  0000 C CNN
F 2 "" H 2350 3500 50  0001 C CNN
F 3 "" H 2350 3500 50  0001 C CNN
	1    2350 3500
	1    0    0    -1  
$EndComp
$Comp
L power:GND #PWR039
U 1 1 5D04BAA2
P 7050 5750
F 0 "#PWR039" H 7050 5500 50  0001 C CNN
F 1 "GND" H 7055 5577 50  0000 C CNN
F 2 "" H 7050 5750 50  0001 C CNN
F 3 "" H 7050 5750 50  0001 C CNN
	1    7050 5750
	-1   0    0    1   
$EndComp
$Comp
L power:GND #PWR040
U 1 1 5D04D446
P 7000 4750
F 0 "#PWR040" H 7000 4500 50  0001 C CNN
F 1 "GND" H 7005 4577 50  0000 C CNN
F 2 "" H 7000 4750 50  0001 C CNN
F 3 "" H 7000 4750 50  0001 C CNN
	1    7000 4750
	-1   0    0    1   
$EndComp
Text GLabel 2350 2700 2    50   Input ~ 0
+BATT_LEVEL
Wire Wire Line
	2350 2900 2350 2700
Wire Wire Line
	2300 1900 2300 2000
Text GLabel 2300 2000 2    50   Input ~ 0
+BATT_LEVEL
$Comp
L power:GND #PWR037
U 1 1 5D04AE02
P 2300 1300
F 0 "#PWR037" H 2300 1050 50  0001 C CNN
F 1 "GND" H 2305 1127 50  0000 C CNN
F 2 "" H 2300 1300 50  0001 C CNN
F 3 "" H 2300 1300 50  0001 C CNN
	1    2300 1300
	-1   0    0    1   
$EndComp
$Comp
L CarteChargeur-rescue:LM324DT-MACE_LIB-CarteChargeur_0.5-rescue U4
U 1 1 5D042510
P 2400 1600
F 0 "U4" H 2500 1750 50  0000 L CNN
F 1 "LM324DT" H 2450 1850 50  0000 L CNN
F 2 "Lib:SO-14_LM324DT" H 2350 1700 50  0001 C CNN
F 3 "op_amps/lm324.pdf" H 2744 1509 50  0001 L CNN
F 4 "2382609" H 0   0   50  0001 C CNN "Code commande"
F 5 "0,273" H 0   0   50  0001 C CNN "Prix"
F 6 "LM324DT" H 0   0   50  0001 C CNN "Réf fabricant"
	1    2400 1600
	1    0    0    1   
$EndComp
Text Notes 2600 1200 0    50   ~ 0
Gestion led bleu (led RGB, BATT LEVEL >7.95V)
Connection ~ 1250 1700
Wire Wire Line
	1250 1550 1250 1700
$Comp
L power:GND #PWR028
U 1 1 5CF7CD33
P 1250 2000
F 0 "#PWR028" H 1250 1750 50  0001 C CNN
F 1 "GND" H 1255 1827 50  0000 C CNN
F 2 "" H 1250 2000 50  0001 C CNN
F 3 "" H 1250 2000 50  0001 C CNN
	1    1250 2000
	1    0    0    -1  
$EndComp
$Comp
L Device:R R13
U 1 1 5CF7C8AD
P 1250 1850
F 0 "R13" H 1320 1896 50  0000 L CNN
F 1 "10k" H 1320 1805 50  0000 L CNN
F 2 "Resistor_SMD:R_0805_2012Metric" V 1180 1850 50  0001 C CNN
F 3 "~" H 1250 1850 50  0001 C CNN
F 4 "2447315" H 0   0   50  0001 C CNN "Code commande"
F 5 "0,006" H 0   0   50  0001 C CNN "Prix"
F 6 "MCWR06X2702FTL" H 0   0   50  0001 C CNN "Réf fabricant"
	1    1250 1850
	1    0    0    -1  
$EndComp
$Comp
L Device:R R12
U 1 1 5CF7C2F4
P 1250 1400
F 0 "R12" H 1320 1446 50  0000 L CNN
F 1 "22k" H 1320 1355 50  0000 L CNN
F 2 "Resistor_SMD:R_0805_2012Metric" V 1180 1400 50  0001 C CNN
F 3 "~" H 1250 1400 50  0001 C CNN
F 4 "2074402" H 0   0   50  0001 C CNN "Code commande"
F 5 "0,0202" H 0   0   50  0001 C CNN "Prix"
F 6 "MCSR08X2152FTL" H 0   0   50  0001 C CNN "Réf fabricant"
	1    1250 1400
	1    0    0    -1  
$EndComp
Text GLabel 2050 1500 0    50   Input ~ 0
+2.5V
Wire Wire Line
	1250 1250 1250 1150
Text GLabel 1250 1150 0    50   Input ~ 0
+BATT_LEVEL
Text GLabel 9950 1600 2    39   Input ~ 0
ENABLE_LEVEL
Text Notes 7450 2800 0    79   ~ 0
La led RGB est éteinte lorsque le bouton n'est pas appuyer
$Comp
L CarteChargeur-rescue:HEF4081BT-MACE_LIB-CarteChargeur_0.5-rescue U5
U 1 1 5D06D6F1
P 3600 1700
F 0 "U5" H 3600 2025 50  0000 C CNN
F 1 "HEF4081BT" H 3600 1934 50  0000 C CNN
F 2 "Lib:SO-14_HEF4081B" H 3600 1700 50  0001 C CNN
F 3 "https://assets.nexperia.com/documents/data-sheet/HEF4093B.pdf" H 3600 1700 50  0001 C CNN
F 4 "1085290" H 0   0   50  0001 C CNN "Code commande"
F 5 "0,357" H 0   0   50  0001 C CNN "Prix"
F 6 "HEF4081BT" H 0   0   50  0001 C CNN "Réf fabricant"
	1    3600 1700
	1    0    0    -1  
$EndComp
$Comp
L CarteChargeur-rescue:HEF4081BT-MACE_LIB-CarteChargeur_0.5-rescue U5
U 2 1 5D078C07
P 3550 3300
F 0 "U5" H 3550 3625 50  0000 C CNN
F 1 "HEF4081BT" H 3550 3534 50  0000 C CNN
F 2 "Lib:SO-14_HEF4081B" H 3550 3300 50  0001 C CNN
F 3 "https://assets.nexperia.com/documents/data-sheet/HEF4093B.pdf" H 3550 3300 50  0001 C CNN
F 4 "1085290" H 0   0   50  0001 C CNN "Code commande"
F 5 "0,357" H 0   0   50  0001 C CNN "Prix"
F 6 "HEF4081BT" H 0   0   50  0001 C CNN "Réf fabricant"
	2    3550 3300
	1    0    0    -1  
$EndComp
Text GLabel 3300 1800 0    39   Input ~ 0
ENABLE_LEVEL
Wire Wire Line
	2700 1600 3300 1600
Text GLabel 3250 3400 0    39   Input ~ 0
ENABLE_LEVEL
Text GLabel 3900 1700 2    39   Input ~ 0
LED_BLUE
Text GLabel 3850 3300 2    39   Input ~ 0
LED_RED
$Comp
L CarteChargeur-rescue:HEF4081BT-MACE_LIB-CarteChargeur_0.5-rescue U5
U 3 1 5D081E68
P 9950 5500
F 0 "U5" H 9950 5825 50  0000 C CNN
F 1 "HEF4081BT" H 9950 5734 50  0000 C CNN
F 2 "Lib:SO-14_HEF4081B" H 9950 5500 50  0001 C CNN
F 3 "https://assets.nexperia.com/documents/data-sheet/HEF4093B.pdf" H 9950 5500 50  0001 C CNN
F 4 "1085290" H 1000 600 50  0001 C CNN "Code commande"
F 5 "0,357" H 1000 600 50  0001 C CNN "Prix"
F 6 "HEF4081BT" H 1000 600 50  0001 C CNN "Réf fabricant"
	3    9950 5500
	1    0    0    -1  
$EndComp
Text GLabel 9650 5600 0    39   Input ~ 0
ENABLE_LEVEL
Wire Wire Line
	8950 5400 9650 5400
Text GLabel 10250 5500 2    39   Input ~ 0
LED_GREEN
Text GLabel 7050 6350 2    50   Input ~ 0
+BATT_LEVEL
Text GLabel 7000 5350 2    50   Input ~ 0
+BATT_LEVEL
Wire Wire Line
	7400 5050 7850 5050
$Comp
L CarteChargeur-rescue:HEF4081BT-MACE_LIB-CarteChargeur_0.5-rescue U5
U 5 1 5D0AB736
P 3450 5650
F 0 "U5" H 3680 5696 50  0000 L CNN
F 1 "HEF4081BT" H 3680 5605 50  0000 L CNN
F 2 "Lib:SO-14_HEF4081B" H 3450 5650 50  0001 C CNN
F 3 "https://assets.nexperia.com/documents/data-sheet/HEF4093B.pdf" H 3450 5650 50  0001 C CNN
F 4 "1085290" H 0   0   50  0001 C CNN "Code commande"
F 5 "0,357" H 0   0   50  0001 C CNN "Prix"
F 6 "HEF4081BT" H 0   0   50  0001 C CNN "Réf fabricant"
	5    3450 5650
	1    0    0    -1  
$EndComp
$Comp
L power:GND #PWR0101
U 1 1 5D0AC7DD
P 3450 6150
F 0 "#PWR0101" H 3450 5900 50  0001 C CNN
F 1 "GND" H 3455 5977 50  0000 C CNN
F 2 "" H 3450 6150 50  0001 C CNN
F 3 "" H 3450 6150 50  0001 C CNN
	1    3450 6150
	1    0    0    -1  
$EndComp
Text GLabel 3450 5150 1    50   Input ~ 0
+BATT_LEVEL
$Comp
L Device:C C15
U 1 1 5D0AD3FC
P 3000 5650
F 0 "C15" H 3115 5696 50  0000 L CNN
F 1 "100nF" H 3115 5605 50  0000 L CNN
F 2 "Capacitor_SMD:C_0805_2012Metric" H 3038 5500 50  0001 C CNN
F 3 "~" H 3000 5650 50  0001 C CNN
F 4 "2522443" H 0   0   50  0001 C CNN "Code commande"
F 5 "0,0464" H 0   0   50  0001 C CNN "Prix"
F 6 "C0805C104Z3VACTU" H 0   0   50  0001 C CNN "Réf fabricant"
	1    3000 5650
	1    0    0    -1  
$EndComp
Text GLabel 3000 5500 1    50   Input ~ 0
+BATT_LEVEL
$Comp
L power:GND #PWR0102
U 1 1 5D0ADC0B
P 3000 5800
F 0 "#PWR0102" H 3000 5550 50  0001 C CNN
F 1 "GND" H 3005 5627 50  0000 C CNN
F 2 "" H 3000 5800 50  0001 C CNN
F 3 "" H 3000 5800 50  0001 C CNN
	1    3000 5800
	1    0    0    -1  
$EndComp
Text Notes 7100 3950 0    50   ~ 0
Gestion led verte (led RGB)
Wire Wire Line
	1250 1700 2100 1700
Wire Wire Line
	2100 1500 2050 1500
Wire Wire Line
	6600 4450 6600 4950
Wire Wire Line
	6000 4450 6600 4450
Wire Wire Line
	7850 5050 7850 5400
Text Notes 7050 3750 0    79   ~ 16
Windows comparator
Text Notes 6350 4300 0    50   ~ 0
niveau haut : 8.2V
Text Notes 5650 6250 0    50   ~ 0
niveau bas: 7.4V
$Comp
L CarteChargeur-rescue:BSS138-MACE_LIB-CarteChargeur_0.5-rescue Q4
U 1 1 5D191AB1
P 8050 5400
AR Path="/5D191AB1" Ref="Q4"  Part="1" 
AR Path="/5CF6D8CF/5D191AB1" Ref="Q4"  Part="1" 
F 0 "Q4" H 8240 5446 50  0000 L CNN
F 1 "BSS138" H 8240 5355 50  0000 L CNN
F 2 "Lib:SOT-23_BSS138" H 8250 5500 29  0001 C CNN
F 3 "" H 8050 5400 60  0000 C CNN
F 4 "3127245" H 0   0   50  0001 C CNN "Code commande"
F 5 "0,122" H 0   0   50  0001 C CNN "Prix"
F 6 "BSS138Q-7-F" H 0   0   50  0001 C CNN "Réf fabricant"
	1    8050 5400
	1    0    0    -1  
$EndComp
Connection ~ 7850 5400
Wire Wire Line
	7850 5400 7850 6050
Wire Wire Line
	8150 5600 8150 5650
$Comp
L power:GND #PWR024
U 1 1 5D1933F5
P 8150 5650
F 0 "#PWR024" H 8150 5400 50  0001 C CNN
F 1 "GND" H 8155 5477 50  0000 C CNN
F 2 "" H 8150 5650 50  0001 C CNN
F 3 "" H 8150 5650 50  0001 C CNN
	1    8150 5650
	1    0    0    -1  
$EndComp
$Comp
L Device:R R14
U 1 1 5D1939A0
P 8150 5050
F 0 "R14" H 8220 5096 50  0000 L CNN
F 1 "10k" H 8220 5005 50  0000 L CNN
F 2 "Resistor_SMD:R_0805_2012Metric" V 8080 5050 50  0001 C CNN
F 3 "~" H 8150 5050 50  0001 C CNN
F 4 "2447315" H 0   0   50  0001 C CNN "Code commande"
F 5 "0,006" H 0   0   50  0001 C CNN "Prix"
F 6 "MCWR06X2702FTL" H 0   0   50  0001 C CNN "Réf fabricant"
	1    8150 5050
	1    0    0    -1  
$EndComp
Text GLabel 8150 4750 2    50   Input ~ 0
+BATT_LEVEL
Wire Wire Line
	8150 4900 8150 4750
Wire Wire Line
	8150 5200 8950 5200
Wire Wire Line
	8950 5200 8950 5400
Connection ~ 8150 5200
Wire Notes Line
	4850 3550 11100 3550
Wire Notes Line
	11100 3600 11100 6400
Wire Notes Line
	11100 6450 4800 6450
Wire Notes Line
	4800 6400 4800 3600
Wire Wire Line
	1250 3300 2150 3300
Wire Wire Line
	2150 3100 2100 3100
$Comp
L Device:R R21
U 1 1 5D7D2B61
P 1000 6550
F 0 "R21" H 1070 6596 50  0000 L CNN
F 1 "10k" H 1070 6505 50  0000 L CNN
F 2 "Resistor_SMD:R_0805_2012Metric" V 930 6550 50  0001 C CNN
F 3 "~" H 1000 6550 50  0001 C CNN
F 4 "2447315" H 0   350 50  0001 C CNN "Code commande"
F 5 "MCWR06X2702FTL" H 0   350 50  0001 C CNN "Réf fabricant"
F 6 "0,006" H 0   0   50  0001 C CNN "Prix"
	1    1000 6550
	1    0    0    -1  
$EndComp
Connection ~ 1000 6400
Wire Wire Line
	8900 1600 9950 1600
Wire Wire Line
	9600 1150 10100 1150
$Comp
L Device:R R27
U 1 1 5CFBD2C4
P 5550 5300
F 0 "R27" H 5620 5346 50  0000 L CNN
F 1 "20.5k" H 5620 5255 50  0000 L CNN
F 2 "Resistor_SMD:R_0603_1608Metric_Pad1.05x0.95mm_HandSolder" V 5480 5300 50  0001 C CNN
F 3 "~" H 5550 5300 50  0001 C CNN
F 4 "2073424" H 0   0   50  0001 C CNN "Code commande"
F 5 "0,0057" H 0   0   50  0001 C CNN "Prix"
F 6 "MCMR06X203 JTL" H 0   0   50  0001 C CNN "Réf fabricant"
	1    5550 5300
	1    0    0    -1  
$EndComp
Text Notes 1350 5800 0    39   ~ 0
(3.23V)
Text Notes 1600 6550 0    39   ~ 0
(2.42V)
Text Notes 2550 3850 0    50   ~ 0
Gestion led jaune (led RGB, BATT LEVEL < 7.5V)\n            led rouge (BATT LEVEL < 7.4V)\n\nEclair RPi4 < 7.36V
$Comp
L Device:R R25
U 1 1 5CF9A014
P 1250 3000
F 0 "R25" H 1320 3046 50  0000 L CNN
F 1 "21.5k" H 1320 2955 50  0000 L CNN
F 2 "Resistor_SMD:R_0805_2012Metric" V 1180 3000 50  0001 C CNN
F 3 "~" H 1250 3000 50  0001 C CNN
F 4 "2447603" H 0   0   50  0001 C CNN "Code commande"
F 5 "0,0097" H 0   0   50  0001 C CNN "Prix"
F 6 "MCWR08X2002FTL" H 0   0   50  0001 C CNN "Réf fabricant"
	1    1250 3000
	1    0    0    -1  
$EndComp
$Comp
L Device:R R26
U 1 1 5CF9A01A
P 1250 3450
F 0 "R26" H 1320 3496 50  0000 L CNN
F 1 "10.5k" H 1320 3405 50  0000 L CNN
F 2 "Resistor_SMD:R_0805_2012Metric" V 1180 3450 50  0001 C CNN
F 3 "~" H 1250 3450 50  0001 C CNN
F 4 "2447315" H 0   0   50  0001 C CNN "Code commande"
F 5 "0,006" H 0   0   50  0001 C CNN "Prix"
F 6 "MCWR06X2702FTL" H 0   0   50  0001 C CNN "Réf fabricant"
	1    1250 3450
	1    0    0    -1  
$EndComp
$EndSCHEMATC
