(module 1041612 (layer F.Cu) (tedit 5ED4CECF)
  (fp_text reference Crystal (at 0.3 -0.1) (layer F.SilkS)
    (effects (font (size 0.8 0.8) (thickness 0.15)))
  )
  (fp_text value 1041612 (at 0 3.7) (layer F.Fab)
    (effects (font (size 1 1) (thickness 0.15)))
  )
  (fp_line (start -2.7 2) (end 3.3 2) (layer F.SilkS) (width 0.12))
  (fp_line (start -3.1 -2.5) (end -3.1 2.4) (layer F.CrtYd) (width 0.05))
  (fp_line (start 3.3 -2.1) (end 3.3 -1.7) (layer F.SilkS) (width 0.12))
  (fp_line (start 3.6 -2.5) (end -3.1 -2.5) (layer F.CrtYd) (width 0.05))
  (fp_line (start 3.6 2.4) (end 3.6 -2.5) (layer F.CrtYd) (width 0.05))
  (fp_line (start -2.7 0.3) (end -2.7 -0.3) (layer F.SilkS) (width 0.12))
  (fp_line (start 3.3 2) (end 3.3 1.7) (layer F.SilkS) (width 0.12))
  (fp_line (start 3.3 -0.3) (end 3.3 0.3) (layer F.SilkS) (width 0.12))
  (fp_line (start -2.7 -1.7) (end -2.7 -2.1) (layer F.SilkS) (width 0.12))
  (fp_line (start -2.7 1.7) (end -2.7 2) (layer F.SilkS) (width 0.12))
  (fp_line (start -3.1 2.4) (end 3.6 2.4) (layer F.CrtYd) (width 0.05))
  (fp_line (start -2.7 -2.1) (end 3.3 -2.1) (layer F.SilkS) (width 0.12))
  (pad 3 smd rect (at 2.2 -1.35) (size 2 1.2) (layers F.Cu F.Paste F.Mask))
  (pad 2 smd rect (at 2.2 1.25) (size 2 1.2) (layers F.Cu F.Paste F.Mask))
  (pad 4 smd rect (at -1.55 -1.35) (size 2 1.2) (layers F.Cu F.Paste F.Mask))
  (pad 1 smd rect (at -1.55 1.25) (size 2 1.2) (layers F.Cu F.Paste F.Mask))
)
