G04 #@! TF.GenerationSoftware,KiCad,Pcbnew,5.1.9-73d0e3b20d~88~ubuntu20.10.1*
G04 #@! TF.CreationDate,2021-04-28T19:47:55+02:00*
G04 #@! TF.ProjectId,SATAtoUSB3,53415441-746f-4555-9342-332e6b696361,rev?*
G04 #@! TF.SameCoordinates,Original*
G04 #@! TF.FileFunction,Copper,L3,Inr*
G04 #@! TF.FilePolarity,Positive*
%FSLAX46Y46*%
G04 Gerber Fmt 4.6, Leading zero omitted, Abs format (unit mm)*
G04 Created by KiCad (PCBNEW 5.1.9-73d0e3b20d~88~ubuntu20.10.1) date 2021-04-28 19:47:55*
%MOMM*%
%LPD*%
G01*
G04 APERTURE LIST*
G04 #@! TA.AperFunction,ComponentPad*
%ADD10R,1.700000X1.700000*%
G04 #@! TD*
G04 #@! TA.AperFunction,ComponentPad*
%ADD11O,1.700000X1.700000*%
G04 #@! TD*
G04 #@! TA.AperFunction,ComponentPad*
%ADD12O,3.600000X1.100000*%
G04 #@! TD*
G04 #@! TA.AperFunction,ComponentPad*
%ADD13O,2.100000X1.100000*%
G04 #@! TD*
G04 #@! TA.AperFunction,ViaPad*
%ADD14C,0.600000*%
G04 #@! TD*
G04 #@! TA.AperFunction,ViaPad*
%ADD15C,0.800000*%
G04 #@! TD*
G04 #@! TA.AperFunction,ViaPad*
%ADD16C,0.400000*%
G04 #@! TD*
G04 #@! TA.AperFunction,Conductor*
%ADD17C,0.500000*%
G04 #@! TD*
G04 #@! TA.AperFunction,Conductor*
%ADD18C,0.200000*%
G04 #@! TD*
G04 APERTURE END LIST*
D10*
X146800000Y-85750000D03*
D11*
X146800000Y-88290000D03*
D10*
X139860000Y-77300000D03*
D11*
X142400000Y-77300000D03*
D12*
X102640000Y-78800000D03*
X102640000Y-88040000D03*
D13*
X107500000Y-87740000D03*
X107500000Y-79100000D03*
D14*
X117000000Y-82350000D03*
X117065189Y-81262644D03*
X132274222Y-82922007D03*
D15*
X133350000Y-85800000D03*
D14*
X146050000Y-79200000D03*
X147050000Y-78200000D03*
X148050000Y-79200000D03*
X145050000Y-79200000D03*
X147050000Y-79200000D03*
X145050000Y-78200000D03*
X146050000Y-78200000D03*
X148050000Y-78200000D03*
X146050000Y-80200000D03*
X148050000Y-80200000D03*
X145050000Y-80200000D03*
X147050000Y-80200000D03*
X148050000Y-81200000D03*
X147050000Y-81200000D03*
X146050000Y-81200000D03*
X145050000Y-81200000D03*
X126050000Y-90300000D03*
D15*
X122750000Y-92900000D03*
X113400000Y-93600000D03*
X137800000Y-78300000D03*
D14*
X134950000Y-80550000D03*
D15*
X125000000Y-86874990D03*
X123775010Y-86874990D03*
D14*
X122466282Y-82064117D03*
X132000000Y-76250000D03*
D16*
X124726226Y-81138576D03*
D14*
X132513188Y-84043934D03*
X127893738Y-78561602D03*
D16*
X121300000Y-80800010D03*
X121767150Y-83367150D03*
X133250000Y-83250000D03*
D14*
X142850000Y-80750000D03*
D16*
X127699993Y-86419916D03*
X128900000Y-86599996D03*
X124100000Y-82600000D03*
X124232129Y-85782129D03*
X124599990Y-84100000D03*
X128820451Y-78661602D03*
X130234361Y-78661602D03*
X134400000Y-81300000D03*
X134399998Y-83200032D03*
D14*
X132500000Y-81700000D03*
X124550000Y-80200000D03*
X118440743Y-76284255D03*
X124449994Y-90200000D03*
X131875000Y-93075000D03*
X131100000Y-93700000D03*
X132575000Y-93725000D03*
D15*
X110507516Y-80567597D03*
D14*
X109346443Y-81953565D03*
X111150024Y-79050000D03*
X118325000Y-77875000D03*
D15*
X110000012Y-84899988D03*
D14*
X105500000Y-83041271D03*
D16*
X126892934Y-87227233D03*
X132900000Y-88100000D03*
X126154532Y-87074990D03*
X127242220Y-90000010D03*
X117000000Y-84000000D03*
X123500000Y-83050000D03*
X112000008Y-84750000D03*
X108365722Y-80900004D03*
X107499996Y-85699992D03*
X123478166Y-83651891D03*
X117000004Y-84800000D03*
X122450000Y-89200000D03*
X128550000Y-87150000D03*
X125299990Y-79024990D03*
X127364387Y-79086612D03*
D14*
X117700000Y-75450000D03*
D16*
X113850000Y-82350000D03*
X111706917Y-82346928D03*
X124250000Y-81449989D03*
X107389360Y-82800010D03*
X109800000Y-84050002D03*
X135100000Y-86900000D03*
X137350004Y-85550000D03*
X124150000Y-79500000D03*
X126550010Y-79460966D03*
X126050000Y-72750000D03*
X128194269Y-77624659D03*
X130500000Y-73100000D03*
X130249994Y-76150000D03*
X134300000Y-76250000D03*
X129438505Y-78057949D03*
X132550000Y-74700000D03*
X130999996Y-78300000D03*
X109900000Y-85700000D03*
X123950000Y-84350000D03*
X106600000Y-81650000D03*
X109475000Y-86125000D03*
X124085472Y-85094128D03*
X105750000Y-81400000D03*
X127850000Y-87100000D03*
X121750000Y-88600000D03*
X129050000Y-87500000D03*
X115950000Y-88450000D03*
X130000000Y-87500010D03*
X116700000Y-89150000D03*
X118600000Y-91750000D03*
X114250000Y-93900000D03*
X119200000Y-92300000D03*
X115000000Y-93900000D03*
X112850000Y-91400000D03*
X110400000Y-94350000D03*
X113700000Y-92150000D03*
X111450000Y-94300000D03*
X112000012Y-84200000D03*
X107650002Y-81350000D03*
X107450000Y-85100000D03*
D17*
X131000000Y-80200000D02*
X132500000Y-81700000D01*
X124550000Y-80200000D02*
X131000000Y-80200000D01*
D18*
X124250000Y-81449989D02*
X118700011Y-81449989D01*
X118700011Y-81449989D02*
X118300000Y-81850000D01*
X114350000Y-81850000D02*
X113850000Y-82350000D01*
X118300000Y-81850000D02*
X114350000Y-81850000D01*
X109757843Y-85700000D02*
X108307843Y-84250000D01*
X109900000Y-85700000D02*
X109757843Y-85700000D01*
X109900000Y-85700000D02*
X122600000Y-85700000D01*
X122600000Y-85700000D02*
X123950000Y-84350000D01*
X108307843Y-84250000D02*
X108236766Y-84250000D01*
X108236766Y-84250000D02*
X106600000Y-82613234D01*
X106600000Y-82613234D02*
X106600000Y-82050000D01*
X106600000Y-82050000D02*
X106600000Y-81650000D01*
X109475000Y-86125000D02*
X123054600Y-86125000D01*
X123054600Y-86125000D02*
X124085472Y-85094128D01*
X106200000Y-82778922D02*
X106200000Y-81850000D01*
X107900011Y-84478933D02*
X106200000Y-82778922D01*
X106200000Y-81850000D02*
X105750000Y-81400000D01*
X107900011Y-84550011D02*
X107900011Y-84478933D01*
X109475000Y-86125000D02*
X107900011Y-84550011D01*
X115950000Y-88450000D02*
X115950000Y-88450000D01*
X128850001Y-87699999D02*
X129050000Y-87500000D01*
X116700001Y-87699999D02*
X128850001Y-87699999D01*
X115950000Y-88450000D02*
X116700001Y-87699999D01*
X116700000Y-89150000D02*
X116700000Y-89150000D01*
X130000000Y-87500010D02*
X129450010Y-88050000D01*
X129450010Y-88050000D02*
X117800000Y-88050000D01*
X117800000Y-88050000D02*
X116700000Y-89150000D01*
X110400000Y-94350000D02*
X110400000Y-94350000D01*
X112850000Y-91400000D02*
X112850000Y-91867157D01*
X112850000Y-91867157D02*
X112267157Y-92450000D01*
X112267157Y-92450000D02*
X111567156Y-92450000D01*
X111567156Y-92450000D02*
X110750000Y-93267156D01*
X110750000Y-94000000D02*
X110400000Y-94350000D01*
X110750000Y-93267156D02*
X110750000Y-94000000D01*
X111450000Y-94300000D02*
X111450000Y-94300000D01*
X113132843Y-92150000D02*
X112432843Y-92850000D01*
X113700000Y-92150000D02*
X113132843Y-92150000D01*
X112432843Y-92850000D02*
X111732844Y-92850000D01*
X111732844Y-92850000D02*
X111150000Y-93432844D01*
X111150000Y-93432844D02*
X111150000Y-94000000D01*
X111150000Y-94000000D02*
X111450000Y-94300000D01*
M02*
