Reference, Value, Footprint, Datasheet, Code commande, Distributeur, Prix, Réf fab
"P1","Hole","lib_robot:Hole_4mm","","Value","Farnell","0.0","Value"
"P2","Hole","lib_robot:Hole_4mm","","Value","Farnell","0.0","Value"
"P3","Hole","lib_robot:Hole_4mm","","Value","Farnell","0.0","Value"
"P4","Hole","lib_robot:Hole_4mm","","Value","Farnell","0.0","Value"
"P5","Hole","lib_robot:Hole_4mm","","Value","Farnell","0.0","Value"
"P6","Hole","lib_robot:Hole_4mm","","Value","Farnell","0.0","Value"
"P7","Hole","lib_robot:Hole_4mm","","Value","Farnell","0.0","Value"
"P8","Hole","lib_robot:Hole_4mm","","Value","Farnell","0.0","Value"
"FID1","FIDUCIAL","lib_robot:FIDUCIAL","","Value","?","0.0","Value"
"FID3","FIDUCIAL","lib_robot:FIDUCIAL","","Value","?","0.0","Value"
"FID2","FIDUCIAL","lib_robot:FIDUCIAL","","Value","?","0.0","Value"
"FID4","FIDUCIAL","lib_robot:FIDUCIAL","","Value","?","0.0","Value"
"J3","Logo_Open_Hardware_Large","lib_robot:OSHW","~"
"J4","Logo_Open_Hardware_Large","Symbol:OSHW-Logo2_7.3x6mm_SilkScreen","~"
"U3","LM3150MHXNOPB","diskioPi:LM3150MHXNOPB","","2781846","Farnell","3,19","LM3150MHX/NOPB"
"R3","200k","Resistors_SMD:R_0805_HandSoldering","","2447601","Farnell","0,0308","MCWR08X2003FTL"
"C2","100nF","Capacitors_SMD:C_0805_HandSoldering","","2522443","Farnell","0,0464","C0805C104Z3VACTU"
"C1","10uF","Capacitors_SMD:C_0805_HandSoldering","","2346924","Farnell","0,199","C2012X5R1C106K085AC"
"C3","15nF","Capacitors_SMD:C_0805_HandSoldering","","1759250","Farnell","0,0416","MC0805F153Z500CT "
"C30","1uF","Capacitors_SMD:C_0805_HandSoldering","","1759432","Farnell","0,0828","MC0805F105Z500CT"
"C29","680nF","Capacitors_SMD:C_0805_HandSoldering","","1759158","Farnell","0,076","MC0805F684Z160CT "
"R18","1k","Resistors_SMD:R_0805_HandSoldering","","1653004","Farnell","0,0083","MC01W080551K"
"Q3","CSD17307Q5A","diskioPi:CSD17307Q5A","","827-4833","RS","0,519","CSD17307Q5A"
"L7","2.7uH","lib_robot:SER1360-272KLD","","2288809","farnell","1,67","SER1360-272KLD"
"C31","680pF","Capacitors_SMD:C_0805_HandSoldering","","1759285","Farnell","0,0643","MC0805B681K101CT "
"R19","80.6K","Resistors_SMD:R_0805_HandSoldering","","2073847","Farnell","0,0132","MCMR08X8062FTL"
"R20","10.2K","Resistors_SMD:R_0805_HandSoldering","","2138976","Farnell","0,0308 ","CRCW080510K2FKEA."
"Q4","CSD17577Q5A","diskioPi:CSD17307Q5A","","595-CSD17577Q5AT ","Mouser","0,774","CSD17577Q5A"
"CON1","BARREL_JACK","diskioPi:FC681465","","1854514","Farnell","1,87 ","FC681465"
"P17","CONN_01X04","diskioPi:SM04B-SRSS-TB(LF)(SN)","","1830839","Farnell","0,523","SM04B-SRSS-TB(LF)(SN)"
"P19","CONN_01X02","diskioPi:SM02B-PASS-TB(LF)(SN)","","2399343","Farnell","0,445","SM02B-PASS-TB(LF)(SN)"
"P20","CONN_01X02","diskioPi:BM02B-PASS-1-TFT(LF)(SN)","","2399305","Farnell","0,445","BM02B-PASS-1-TFT(LF)(SN)"
"C33","150uF","lib_robot:MCVVT016M151EA6L","","2611357","Farnell","0,114","MCVVT016M151EA6L"
"C35","100uF","lib_robot:MCVVT016M101EA1L","","2611356","Farnell","0,123","MCVVT016M101EA1L"
"R4","10","Resistors_SMD:R_0805_HandSoldering","","9333690","Farnell","0,0101","MC01W0805510R"
"C36","10uF","Capacitors_SMD:C_0805_HandSoldering","","2346924","Farnell","0,199","C2012X5R1C106K085AC"
"C37","10uF","Capacitors_SMD:C_0805_HandSoldering","","2346924","Farnell","0,199","C2012X5R1C106K085AC"
"J1","Conn_01x03","lib_robot:SM03B-PASS-TB","~","2399346","Farnell","0,501","SM03B-PASS-TB(LF)(SN) "
"D3","MBRS410LT3G","lib_robot:DO_214AB_S4G","~","1702812","Farnell","1,11","S4G R7"
"C9","100nF","Capacitor_SMD:C_0805_2012Metric","","2522443","Farnell","0,0464","C0805C104Z3VACTU"
"L1","INDUCTOR","Inductor_SMD:L_1806_4516Metric","","74279245","Farnell","0,383","74279245"
"C10","100nF","Capacitor_SMD:C_0805_2012Metric","","2522443","Farnell","0,0464","C0805C104Z3VACTU"
"C13","150uF","lib_robot:MCVVT016M151EA6L","","2611357","Farnell","0,114","MCVVT016M151EA6L"
"GL850G1","GL850G-SSOP-28","diskioPi:GL850G","","Value","Aliexpress","0,237","GL850G"
"P9","USB_A","lib_robot:USB-A-S-RA-TSMT","","2112370","Farnell","0,527","USB-A-S-RA-TSMT "
"P10","USB_A","lib_robot:USB-A-S-RA-TSMT","","2112370","Farnell","0,527","USB-A-S-RA-TSMT "
"Y1","Crystal","diskioPi:QCL12.0000F18B23B","","2508453","Farnell","0,185","QCL12.0000F18B23B "
"C5","33pF","Capacitors_SMD:C_0805_HandSoldering","","2497030","Farnell","0,0912","0805N330J500CT"
"C6","33pF","Capacitors_SMD:C_0805_HandSoldering","","2497030","Farnell","0,0912","0805N330J500CT"
"R5","10k","Resistors_SMD:R_0805_HandSoldering","","2447553","Farnell","0,0101","MCWR08X1002FTL"
"C15","1uF","Capacitors_SMD:C_0805_HandSoldering","","1759432","Farnell","0,0828","MC0805F105Z500CT"
"R6","47k","Resistors_SMD:R_0805_HandSoldering","","2447664","Farnell","0,0097","MCWR08X4702FTL"
"R7","47K","Resistors_SMD:R_0805_HandSoldering","","2447664","Farnell","0,0097","MCWR08X4702FTL"
"C16","10uF","Capacitors_SMD:C_0805_HandSoldering","","2346924","Farnell","0,199","C2012X5R1C106K085AC"
"C17","100nF","Capacitors_SMD:C_0805_HandSoldering","","2522443","Farnell","0,0464","C0805C104Z3VACTU"
"C18","100nF","Capacitors_SMD:C_0805_HandSoldering","","2522443","Farnell","0,0464","C0805C104Z3VACTU"
"C19","100nF","Capacitor_SMD:C_0805_2012Metric","","2522443","Farnell","0,0464","C0805C104Z3VACTU"
"C20","100nF","Capacitor_SMD:C_0805_2012Metric","","2522443","Farnell","0,0464","C0805C104Z3VACTU"
"C21","100nF","Capacitor_SMD:C_0805_2012Metric","","2522443","Farnell","0,0464","C0805C104Z3VACTU"
"C23","10uF","Capacitors_SMD:C_0805_HandSoldering","","2346924","Farnell","0,199","C2012X5R1C106K085AC"
"R9","680","Resistors_SMD:R_0805_HandSoldering","","2447705","Farnell","0,0097","MCWR08X6800FTL"
"C8","100nF","Capacitors_SMD:C_0805_HandSoldering","","2522443","Farnell","0,0464","C0805C104Z3VACTU"
"C12","10uF","Capacitors_SMD:C_0805_HandSoldering","","2346924","Farnell","0,199","C2012X5R1C106K085AC"
"C7","100nF","Capacitors_SMD:C_0805_HandSoldering","","2522443","Farnell","0,0464","C0805C104Z3VACTU"
"C11","10uF","Capacitors_SMD:C_0805_HandSoldering","","2346924","Farnell","0,199","C2012X5R1C106K085AC"
"L2","L_Small","Resistors_SMD:R_0805_HandSoldering","","1838838","Farnell","0,138","2508056017Y2"
"P13","USB_A","diskioPi:B4B-PH-SM4-TB(LF)(SN)","","9491929","Farnell","0,689","B4B-PH-SM4-TB(LF)(SN)"
"P14","USB_A","lib_robot:10033526-N3212LF","","2886145","Farnell","0,459","10033526-N3212LF"
"R11","30k","Resistors_SMD:R_0805_HandSoldering","","2073736","Farnell","0,0105","MCMR08X303 JTL "
"R12","30k","Resistors_SMD:R_0805_HandSoldering","","2073736","Farnell","0,0105","MCMR08X303 JTL "
"L3","L_Small","Resistors_SMD:R_0805_HandSoldering","","1838838","Farnell","0,138","2508056017Y2"
"L6","L_Small","Resistors_SMD:R_0805_HandSoldering","","1838838","Farnell","0,138","2508056017Y2"
"C22","100nF","Capacitors_SMD:C_0805_HandSoldering","","2522443","Farnell","0,0464","C0805C104Z3VACTU"
"R2","10k","Resistors_SMD:R_0805_HandSoldering","","2447553","Farnell","0,0101","MCWR08X1002FTL"
"P12","USB_A","lib_robot:B4B-PH-SM4-TB(LF)(SN)","","9491929","Farnell","0,689","B4B-PH-SM4-TB(LF)(SN)"
"L4","L_Small","Resistor_SMD:R_0805_2012Metric_Pad1.15x1.40mm_HandSolder","","1838838","Farnell","0,138","2508056017Y2"
"C14","10uF","Capacitor_SMD:C_0805_2012Metric_Pad1.15x1.40mm_HandSolder","","2346924","Farnell","0,199","C2012X5R1C106K085AC"
"C24","100nF","Capacitor_SMD:C_0805_2012Metric_Pad1.15x1.40mm_HandSolder","","2522443","Farnell","0,0464","C0805C104Z3VACTU"
"U2","IP4220CZ6","lib_robot:TSOP_6-IP4220CZ6","","2319344","Farnell","0,104","IP4220CZ6,125"
"U5","LM311DT","lib_robot:LM311DT","","2382617","Farnell","0,359","LM311DT"
"R14","10k","Resistors_SMD:R_0805_HandSoldering","","2447553","Farnell","0,0101","MCWR08X1002FTL"
"C25","100nF","Capacitors_SMD:C_0805_HandSoldering","","2522443","Farnell","0,0464","C0805C104Z3VACTU"
"R15","1K","Resistors_SMD:R_0805_HandSoldering","","9333711","Farnell","0,0083","MC01W080551K"
"R16","499","Resistors_SMD:R_0805_HandSoldering","","2073789","Farnell","0,0135","MCMR08X4990FTL"
"RV2","82PR1KLF","lib_robot:82PR1KLF","","858-82PR1KLF ","Farnell","0,271","82PR1KLF "
"D2","D","lib_robot:MURA240T3G","","2463414","Farnell","0,306","MURA240T3G"
"C4","100nF","Capacitor_SMD:C_0805_2012Metric","","2522443","Farnell","0,0464","C0805C104Z3VACTU"
"Q2","IRFML8244","lib_robot:SOT-23_IRFML8244","","1857298","Farnell","0,28","IRFML8244"
"P15","CONN_01X04","lib_robot:DF13-4P-1.25H","","2916344","Farnell","0,396","DF13-4P-1.25H "
"D6","BAS19","lib_robot:SOT-23_BAS19","","9843833","Farnell","0,095","BAS19"
"D7","BAS19","lib_robot:SOT-23_BAS19","","9843833","Farnell","0,095","BAS19"
"J2","MC34641","lib_robot:MC34641","~","1675773","Farnell","","MC34641"
"J5","Conn_01x02","Connector_PinHeader_2.54mm:PinHeader_1x02_P2.54mm_Vertical","~","2356153","Farnell","","61301011121"
"Q6","Q_NPN_BCE","TO_SOT_Packages_SMD:SOT-23","","2627984","Farnell","0,139","MMBT2222ALT3G"
"R21","10k","Resistors_SMD:R_0805_HandSoldering","","2447553","Farnell","0,0101","MCWR08X1002FTL"
"R22","10k","Resistors_SMD:R_0805_HandSoldering","","2447553","Farnell","0,0101","MCWR08X1002FTL"
"R25","220","Resistors_SMD:R_0805_HandSoldering","","2447606","Farnell","0,0096","MCWR08X2200FTL"
"D4","LED","lib_robot:0805_KPT-2012","","2099239","Farnell","0,154 ","KPT-2012SGC"
"Q5","IPB80P04P4L04ATMA1","lib_robot:IPB80P04P4L04ATMA1","","2839456","Farnell","1,34","IPB80P04P4L04ATMA1"
"R24","100k","Resistors_SMD:R_0805_HandSoldering","","2446868","Farnell","0,0019","MCWR08X1003FTL"
"R23","100k","Resistors_SMD:R_0805_HandSoldering","","2446868","Farnell","0,0019","MCWR08X1003FTL"
"P18","CONN_01X02","diskioPi:S2B-PH-SM4-TB(LF)(SN)","","9492615","Farnell","0,504","S2B-PH-SM4-TB(LF)(SN)"
"R13","10k","Resistors_SMD:R_0805_HandSoldering","","2447553","Farnell","0,0101","MCWR08X1002FTL"
"R28","10k","Resistors_SMD:R_0805_HandSoldering","","2447553","Farnell","0,0101","MCWR08X1002FTL"
"R8","10k","Resistors_SMD:R_0805_HandSoldering","","2447553","Farnell","0,0101","MCWR08X1002FTL"
"R10","10k","Resistors_SMD:R_0805_HandSoldering","","2447553","Farnell","0,0101","MCWR08X1002FTL"
"Q1","BSS138","TO_SOT_Packages_SMD:SOT-23","","1859849","Farnell","0,171","BSS138P,215 "
"R29","10k","Resistors_SMD:R_0805_HandSoldering","","2447553","Farnell","0,0101","MCWR08X1002FTL"
"D1","BAS19","lib_robot:SOT-23_BAS19","","9843833","Farnell","0,095","BAS19"
"D5","BAS19","lib_robot:SOT-23_BAS19","","9843833","Farnell","0,095","BAS19"
"P11","614004184726","lib_robot:614004184726","","2617113","Farnell","0,975","614004184726"
"U1","LMC555CMX","lib_robot:SOIC-8_LMC555CMX","","3006903","Farnell","0,936","LMC555CMX"
"C27","100nF","Capacitors_SMD:C_0805_HandSoldering","","2522443","Farnell","0,0464","C0805C104Z3VACTU"
"R17","1M","Resistors_SMD:R_0805_HandSoldering","","9333746","Farnell","0,0111","MC01W080551M"
"C28","10nF","Capacitors_SMD:C_0805_HandSoldering","","2581081","Farnell","0,119","C0805C103M5RACTU"
"C26","10uF","Capacitors_SMD:C_0805_HandSoldering","","2346924","Farnell","0,199","C2012X5R1C106K085AC"
"U6","Micro_HDMI_Connector","diskioPi:10029449-111RLF","","2751197","Farnell","0,472","10029449-111RLF"
"MOLEX-5051","MOLEX-505110-1992","lib_robot:MOLEX-5051102091","","2523141","Farnell","0,584","MOLEX-505110-1992"
