(export (version D)
  (design
    (source "/home/guillaume/DiskioPi/Git/diskio-pi-embedded-electronics/Carte Fille/Kicad/CarteMere.sch")
    (date "mar. 27 avril 2021 18:04:02")
    (tool "Eeschema 5.1.9-73d0e3b20d~88~ubuntu20.10.1")
    (sheet (number 1) (name /) (tstamps /)
      (title_block
        (title "Carte mere Diskio Pi")
        (company)
        (rev 0.1)
        (date 09/05/2018)
        (source CarteMere.sch)
        (comment (number 1) (value ""))
        (comment (number 2) (value ""))
        (comment (number 3) (value ""))
        (comment (number 4) (value ""))))
    (sheet (number 2) (name /StepDown/) (tstamps /5AC62C5C/)
      (title_block
        (title "Carte mere Diskio Pi")
        (company)
        (rev 0.1)
        (date 09/05/2018)
        (source StepDown.sch)
        (comment (number 1) (value ""))
        (comment (number 2) (value ""))
        (comment (number 3) (value ""))
        (comment (number 4) (value ""))))
    (sheet (number 3) (name /HUB_USB/) (tstamps /5AC62C5F/)
      (title_block
        (title "Carte mere Diskio Pi")
        (company)
        (rev 0.1)
        (date 09/05/2018)
        (source HUB_USB.sch)
        (comment (number 1) (value ""))
        (comment (number 2) (value ""))
        (comment (number 3) (value ""))
        (comment (number 4) (value ""))))
    (sheet (number 4) (name /Ventilo/) (tstamps /5AC62D94/)
      (title_block
        (title "Carte mere Diskio Pi")
        (company)
        (rev 0.1)
        (date 09/05/2018)
        (source Ventilo.sch)
        (comment (number 1) (value ""))
        (comment (number 2) (value ""))
        (comment (number 3) (value ""))
        (comment (number 4) (value ""))))
    (sheet (number 5) (name /InterrupteurPower/) (tstamps /5AC62DB0/)
      (title_block
        (title "Carte mere Diskio Pi")
        (company)
        (rev 0.1)
        (date 09/05/2018)
        (source InterrupteurPower.sch)
        (comment (number 1) (value ""))
        (comment (number 2) (value ""))
        (comment (number 3) (value ""))
        (comment (number 4) (value ""))))
    (sheet (number 6) (name /Timer/) (tstamps /5AC62DCE/)
      (title_block
        (title "Carte mere Diskio Pi")
        (company)
        (rev 0.1)
        (date 09/05/2018)
        (source Timer.sch)
        (comment (number 1) (value ""))
        (comment (number 2) (value ""))
        (comment (number 3) (value ""))
        (comment (number 4) (value ""))))
    (sheet (number 7) (name /HDMI/) (tstamps /5AD8C780/)
      (title_block
        (title "Carte mere Diskio Pi")
        (company)
        (rev 0.1)
        (date 09/05/2018)
        (source HDMI.sch)
        (comment (number 1) (value ""))
        (comment (number 2) (value ""))
        (comment (number 3) (value ""))
        (comment (number 4) (value "")))))
  (components
    (comp (ref P1)
      (value Hole)
      (footprint lib_CarteFille:Hole_4mm)
      (fields
        (field (name "Code commande") Value)
        (field (name Distributeur) Farnell)
        (field (name Prix) 0.0)
        (field (name "Réf fab") Value))
      (libsource (lib CarteMere-rescue) (part Hole) (description ""))
      (sheetpath (names /) (tstamps /))
      (tstamp 5AC630E6))
    (comp (ref P2)
      (value Hole)
      (footprint lib_CarteFille:Hole_4mm)
      (fields
        (field (name "Code commande") Value)
        (field (name Distributeur) Farnell)
        (field (name Prix) 0.0)
        (field (name "Réf fab") Value))
      (libsource (lib CarteMere-rescue) (part Hole) (description ""))
      (sheetpath (names /) (tstamps /))
      (tstamp 5AC63227))
    (comp (ref P3)
      (value Hole)
      (footprint lib_CarteFille:Hole_4mm)
      (fields
        (field (name "Code commande") Value)
        (field (name Distributeur) Farnell)
        (field (name Prix) 0.0)
        (field (name "Réf fab") Value))
      (libsource (lib CarteMere-rescue) (part Hole) (description ""))
      (sheetpath (names /) (tstamps /))
      (tstamp 5AC6324B))
    (comp (ref P4)
      (value Hole)
      (footprint lib_CarteFille:Hole_4mm)
      (fields
        (field (name "Code commande") Value)
        (field (name Distributeur) Farnell)
        (field (name Prix) 0.0)
        (field (name "Réf fab") Value))
      (libsource (lib CarteMere-rescue) (part Hole) (description ""))
      (sheetpath (names /) (tstamps /))
      (tstamp 5AC63272))
    (comp (ref P5)
      (value Hole)
      (footprint lib_CarteFille:Hole_4mm)
      (fields
        (field (name "Code commande") Value)
        (field (name Distributeur) Farnell)
        (field (name Prix) 0.0)
        (field (name "Réf fab") Value))
      (libsource (lib CarteMere-rescue) (part Hole) (description ""))
      (sheetpath (names /) (tstamps /))
      (tstamp 5AC6338C))
    (comp (ref P6)
      (value Hole)
      (footprint lib_CarteFille:Hole_4mm)
      (fields
        (field (name "Code commande") Value)
        (field (name Distributeur) Farnell)
        (field (name Prix) 0.0)
        (field (name "Réf fab") Value))
      (libsource (lib CarteMere-rescue) (part Hole) (description ""))
      (sheetpath (names /) (tstamps /))
      (tstamp 5AC63396))
    (comp (ref P7)
      (value Hole)
      (footprint lib_CarteFille:Hole_4mm)
      (fields
        (field (name "Code commande") Value)
        (field (name Distributeur) Farnell)
        (field (name Prix) 0.0)
        (field (name "Réf fab") Value))
      (libsource (lib CarteMere-rescue) (part Hole) (description ""))
      (sheetpath (names /) (tstamps /))
      (tstamp 5AC633A0))
    (comp (ref P8)
      (value Hole)
      (footprint lib_CarteFille:Hole_4mm)
      (fields
        (field (name "Code commande") Value)
        (field (name Distributeur) Farnell)
        (field (name Prix) 0.0)
        (field (name "Réf fab") Value))
      (libsource (lib CarteMere-rescue) (part Hole) (description ""))
      (sheetpath (names /) (tstamps /))
      (tstamp 5AC633AA))
    (comp (ref FID1)
      (value FIDUCIAL)
      (footprint lib_CarteFille:FIDUCIAL)
      (fields
        (field (name "Code commande") Value)
        (field (name Distributeur) ?)
        (field (name Prix) 0.0)
        (field (name "Réf fab") Value))
      (libsource (lib CarteMere-rescue) (part FIDUCIAL) (description ""))
      (sheetpath (names /) (tstamps /))
      (tstamp 5B2D55F7))
    (comp (ref FID3)
      (value FIDUCIAL)
      (footprint lib_CarteFille:FIDUCIAL)
      (fields
        (field (name "Code commande") Value)
        (field (name Distributeur) ?)
        (field (name Prix) 0.0)
        (field (name "Réf fab") Value))
      (libsource (lib CarteMere-rescue) (part FIDUCIAL) (description ""))
      (sheetpath (names /) (tstamps /))
      (tstamp 5B2D56E0))
    (comp (ref FID2)
      (value FIDUCIAL)
      (footprint lib_CarteFille:FIDUCIAL)
      (fields
        (field (name "Code commande") Value)
        (field (name Distributeur) ?)
        (field (name Prix) 0.0)
        (field (name "Réf fab") Value))
      (libsource (lib CarteMere-rescue) (part FIDUCIAL) (description ""))
      (sheetpath (names /) (tstamps /))
      (tstamp 5B2D572A))
    (comp (ref FID4)
      (value FIDUCIAL)
      (footprint lib_CarteFille:FIDUCIAL)
      (fields
        (field (name "Code commande") Value)
        (field (name Distributeur) ?)
        (field (name Prix) 0.0)
        (field (name "Réf fab") Value))
      (libsource (lib CarteMere-rescue) (part FIDUCIAL) (description ""))
      (sheetpath (names /) (tstamps /))
      (tstamp 5B2D5777))
    (comp (ref J3)
      (value Logo_Open_Hardware_Large)
      (footprint lib_robot:OSHW)
      (datasheet ~)
      (libsource (lib Graphic) (part Logo_Open_Hardware_Large) (description "Open Hardware logo, large"))
      (sheetpath (names /) (tstamps /))
      (tstamp 5D6B4F96))
    (comp (ref U3)
      (value LM3150MHXNOPB)
      (footprint diskioPi:LM3150MHXNOPB)
      (fields
        (field (name "Code commande") 2781846)
        (field (name Distributeur) Farnell)
        (field (name Prix) 3,19)
        (field (name "Réf fab") LM3150MHX/NOPB))
      (libsource (lib CarteMere-rescue) (part LM3150MHXNOPB) (description ""))
      (sheetpath (names /StepDown/) (tstamps /5AC62C5C/))
      (tstamp 5AC7431C))
    (comp (ref R3)
      (value 200k)
      (footprint Resistors_SMD:R_0805_HandSoldering)
      (fields
        (field (name "Code commande") 2447601)
        (field (name Distributeur) Farnell)
        (field (name Prix) 0,0308)
        (field (name "Réf fab") MCWR08X2003FTL))
      (libsource (lib CarteMere-rescue) (part R) (description ""))
      (sheetpath (names /StepDown/) (tstamps /5AC62C5C/))
      (tstamp 5AC75709))
    (comp (ref C2)
      (value 100nF)
      (footprint Capacitors_SMD:C_0805_HandSoldering)
      (fields
        (field (name "Code commande") 2522443)
        (field (name Distributeur) Farnell)
        (field (name Prix) 0,0464)
        (field (name "Réf fab") C0805C104Z3VACTU))
      (libsource (lib CarteMere-rescue) (part C) (description ""))
      (sheetpath (names /StepDown/) (tstamps /5AC62C5C/))
      (tstamp 5AC74059))
    (comp (ref C1)
      (value 10uF)
      (footprint Capacitors_SMD:C_0805_HandSoldering)
      (fields
        (field (name "Code commande") 2346924)
        (field (name Distributeur) Farnell)
        (field (name Prix) 0,199)
        (field (name "Réf fab") C2012X5R1C106K085AC))
      (libsource (lib CarteMere-rescue) (part C) (description ""))
      (sheetpath (names /StepDown/) (tstamps /5AC62C5C/))
      (tstamp 5AC740C1))
    (comp (ref C3)
      (value 15nF)
      (footprint Capacitors_SMD:C_0805_HandSoldering)
      (fields
        (field (name "Code commande") 1759250)
        (field (name Distributeur) Farnell)
        (field (name Prix) 0,0416)
        (field (name "Réf fab") "MC0805F153Z500CT "))
      (libsource (lib CarteMere-rescue) (part C) (description ""))
      (sheetpath (names /StepDown/) (tstamps /5AC62C5C/))
      (tstamp 5AC743BD))
    (comp (ref C30)
      (value 1uF)
      (footprint Capacitors_SMD:C_0805_HandSoldering)
      (fields
        (field (name "Code commande") 1759432)
        (field (name Distributeur) Farnell)
        (field (name Prix) 0,0828)
        (field (name "Réf fab") MC0805F105Z500CT))
      (libsource (lib CarteMere-rescue) (part C) (description ""))
      (sheetpath (names /StepDown/) (tstamps /5AC62C5C/))
      (tstamp 5AD73EFF))
    (comp (ref C29)
      (value 680nF)
      (footprint Capacitors_SMD:C_0805_HandSoldering)
      (fields
        (field (name "Code commande") 1759158)
        (field (name Distributeur) Farnell)
        (field (name Prix) 0,076)
        (field (name "Réf fab") "MC0805F684Z160CT "))
      (libsource (lib CarteMere-rescue) (part C) (description ""))
      (sheetpath (names /StepDown/) (tstamps /5AC62C5C/))
      (tstamp 5AD741C4))
    (comp (ref R18)
      (value 1k)
      (footprint Resistors_SMD:R_0805_HandSoldering)
      (fields
        (field (name "Code commande") 1653004)
        (field (name Distributeur) Farnell)
        (field (name Prix) 0,0083)
        (field (name "Réf fab") MC01W080551K))
      (libsource (lib CarteMere-rescue) (part R) (description ""))
      (sheetpath (names /StepDown/) (tstamps /5AC62C5C/))
      (tstamp 5AD744D2))
    (comp (ref Q3)
      (value CSD17307Q5A)
      (footprint diskioPi:CSD17307Q5A)
      (fields
        (field (name "Code commande") 827-4833)
        (field (name Distributeur) RS)
        (field (name Prix) 0,519)
        (field (name "Réf fab") CSD17307Q5A))
      (libsource (lib CarteMere-rescue) (part CSD17307Q5A) (description ""))
      (sheetpath (names /StepDown/) (tstamps /5AC62C5C/))
      (tstamp 5AD77E90))
    (comp (ref L7)
      (value 2.7uH)
      (footprint lib_CarteFille:SER1360-272KLD)
      (fields
        (field (name "Code commande") 2288809)
        (field (name Distributeur) farnell)
        (field (name Prix) 1,67)
        (field (name "Réf fab") SER1360-272KLD))
      (libsource (lib CarteMere-rescue) (part L) (description ""))
      (sheetpath (names /StepDown/) (tstamps /5AC62C5C/))
      (tstamp 5AD79670))
    (comp (ref C31)
      (value 680pF)
      (footprint Capacitors_SMD:C_0805_HandSoldering)
      (fields
        (field (name "Code commande") 1759285)
        (field (name Distributeur) Farnell)
        (field (name Prix) 0,0643)
        (field (name "Réf fab") "MC0805B681K101CT "))
      (libsource (lib CarteMere-rescue) (part C) (description ""))
      (sheetpath (names /StepDown/) (tstamps /5AC62C5C/))
      (tstamp 5AD79D68))
    (comp (ref R19)
      (value 80.6K)
      (footprint Resistors_SMD:R_0805_HandSoldering)
      (fields
        (field (name "Code commande") 2073847)
        (field (name Distributeur) Farnell)
        (field (name Prix) 0,0132)
        (field (name "Réf fab") MCMR08X8062FTL))
      (libsource (lib CarteMere-rescue) (part R) (description ""))
      (sheetpath (names /StepDown/) (tstamps /5AC62C5C/))
      (tstamp 5AD79E21))
    (comp (ref R20)
      (value 10.2K)
      (footprint Resistors_SMD:R_0805_HandSoldering)
      (fields
        (field (name "Code commande") 2138976)
        (field (name Distributeur) Farnell)
        (field (name Prix) "0,0308 ")
        (field (name "Réf fab") CRCW080510K2FKEA.))
      (libsource (lib CarteMere-rescue) (part R) (description ""))
      (sheetpath (names /StepDown/) (tstamps /5AC62C5C/))
      (tstamp 5AD79E71))
    (comp (ref Q4)
      (value CSD17577Q5A)
      (footprint diskioPi:CSD17307Q5A)
      (fields
        (field (name "Code commande") "595-CSD17577Q5AT ")
        (field (name Distributeur) Mouser)
        (field (name Prix) 0,774)
        (field (name "Réf fab") CSD17577Q5A))
      (libsource (lib CarteMere-rescue) (part CSD17577Q5A) (description ""))
      (sheetpath (names /StepDown/) (tstamps /5AC62C5C/))
      (tstamp 5AD7D1C0))
    (comp (ref CON1)
      (value BARREL_JACK)
      (footprint diskioPi:FC681465)
      (fields
        (field (name "Code commande") 1854514)
        (field (name Distributeur) Farnell)
        (field (name Prix) "1,87 ")
        (field (name "Réf fab") FC681465))
      (libsource (lib CarteMere-rescue) (part BARREL_JACK) (description ""))
      (sheetpath (names /StepDown/) (tstamps /5AC62C5C/))
      (tstamp 5AD84497))
    (comp (ref P17)
      (value CONN_01X04)
      (footprint "diskioPi:SM04B-SRSS-TB(LF)(SN)")
      (fields
        (field (name "Code commande") 1830839)
        (field (name Distributeur) Farnell)
        (field (name Prix) 0,523)
        (field (name "Réf fab") "SM04B-SRSS-TB(LF)(SN)"))
      (libsource (lib CarteMere-rescue) (part CONN_01X04) (description ""))
      (sheetpath (names /StepDown/) (tstamps /5AC62C5C/))
      (tstamp 5AD9CF72))
    (comp (ref P19)
      (value CONN_01X02)
      (footprint "diskioPi:SM02B-PASS-TB(LF)(SN)")
      (fields
        (field (name "Code commande") 2399343)
        (field (name Distributeur) Farnell)
        (field (name Prix) 0,445)
        (field (name "Réf fab") "SM02B-PASS-TB(LF)(SN)"))
      (libsource (lib CarteMere-rescue) (part CONN_01X02) (description ""))
      (sheetpath (names /StepDown/) (tstamps /5AC62C5C/))
      (tstamp 5ADA16DE))
    (comp (ref P20)
      (value CONN_01X02)
      (footprint "diskioPi:BM02B-PASS-1-TFT(LF)(SN)")
      (fields
        (field (name "Code commande") 2399305)
        (field (name Distributeur) Farnell)
        (field (name Prix) 0,445)
        (field (name "Réf fab") "BM02B-PASS-1-TFT(LF)(SN)"))
      (libsource (lib CarteMere-rescue) (part CONN_01X02) (description ""))
      (sheetpath (names /StepDown/) (tstamps /5AC62C5C/))
      (tstamp 5ADA3F98))
    (comp (ref C33)
      (value 150uF)
      (footprint lib_CarteFille:MCVVT016M151EA6L)
      (fields
        (field (name "Code commande") 2611357)
        (field (name Distributeur) Farnell)
        (field (name Prix) 0,114)
        (field (name "Réf fab") MCVVT016M151EA6L))
      (libsource (lib CarteMere-rescue) (part CP) (description ""))
      (sheetpath (names /StepDown/) (tstamps /5AC62C5C/))
      (tstamp 5AE0229F))
    (comp (ref C35)
      (value 100uF)
      (footprint lib_CarteFille:AVX-TAJC-0-0-0)
      (fields
        (field (name "Code commande") 2611356)
        (field (name Distributeur) Farnell)
        (field (name Prix) 0,123)
        (field (name "Réf fab") MCVVT016M101EA1L))
      (libsource (lib CarteMere-rescue) (part CP) (description ""))
      (sheetpath (names /StepDown/) (tstamps /5AC62C5C/))
      (tstamp 5AE02EAD))
    (comp (ref R4)
      (value 10)
      (footprint Resistors_SMD:R_0805_HandSoldering)
      (fields
        (field (name "Code commande") 9333690)
        (field (name Distributeur) Farnell)
        (field (name Prix) 0,0101)
        (field (name "Réf fab") MC01W0805510R))
      (libsource (lib CarteMere-rescue) (part R) (description ""))
      (sheetpath (names /StepDown/) (tstamps /5AC62C5C/))
      (tstamp 5AEB051F))
    (comp (ref C36)
      (value 10uF)
      (footprint Capacitors_SMD:C_0805_HandSoldering)
      (fields
        (field (name "Code commande") 2346924)
        (field (name Distributeur) Farnell)
        (field (name Prix) 0,199)
        (field (name "Réf fab") C2012X5R1C106K085AC))
      (libsource (lib CarteMere-rescue) (part C) (description ""))
      (sheetpath (names /StepDown/) (tstamps /5AC62C5C/))
      (tstamp 5AEC35BC))
    (comp (ref C37)
      (value 10uF)
      (footprint Capacitors_SMD:C_0805_HandSoldering)
      (fields
        (field (name "Code commande") 2346924)
        (field (name Distributeur) Farnell)
        (field (name Prix) 0,199)
        (field (name "Réf fab") C2012X5R1C106K085AC))
      (libsource (lib CarteMere-rescue) (part C) (description ""))
      (sheetpath (names /StepDown/) (tstamps /5AC62C5C/))
      (tstamp 5AFC3C87))
    (comp (ref J1)
      (value Conn_01x03)
      (footprint lib_CarteFille:SM03B-PASS-TB)
      (datasheet ~)
      (fields
        (field (name "Code commande") 2399346)
        (field (name Distributeur) Farnell)
        (field (name Prix) 0,501)
        (field (name "Réf fab") "SM03B-PASS-TB(LF)(SN) "))
      (libsource (lib Connector_Generic) (part Conn_01x03) (description "Generic connector, single row, 01x03, script generated (kicad-library-utils/schlib/autogen/connector/)"))
      (sheetpath (names /StepDown/) (tstamps /5AC62C5C/))
      (tstamp 5D67D8F6))
    (comp (ref C9)
      (value 10uF)
      (footprint Capacitor_SMD:C_0805_2012Metric)
      (fields
        (field (name "Code commande") 2346924)
        (field (name Distributeur) Farnell)
        (field (name Prix) 0,0464)
        (field (name "Réf fab") C2012X5R1C106K085AC))
      (libsource (lib CarteMere-rescue) (part C) (description ""))
      (sheetpath (names /StepDown/) (tstamps /5AC62C5C/))
      (tstamp 5D8186DE))
    (comp (ref L1)
      (value 1uH)
      (footprint lib_robot:MP002789)
      (fields
        (field (name "Code commande") "3370439 ")
        (field (name Distributeur) Farnell)
        (field (name Prix) 0,383)
        (field (name "Réf fab") "MP002789 "))
      (libsource (lib LIB_CARTE_MERE_DISKIOPI) (part INDUCTOR) (description ""))
      (sheetpath (names /StepDown/) (tstamps /5AC62C5C/))
      (tstamp 5D81923E))
    (comp (ref C10)
      (value 100nF)
      (footprint Capacitor_SMD:C_0805_2012Metric)
      (fields
        (field (name "Code commande") 2522443)
        (field (name Distributeur) Farnell)
        (field (name Prix) 0,0464)
        (field (name "Réf fab") C0805C104Z3VACTU))
      (libsource (lib CarteMere-rescue) (part C) (description ""))
      (sheetpath (names /StepDown/) (tstamps /5AC62C5C/))
      (tstamp 5D819D07))
    (comp (ref C13)
      (value 150uF)
      (footprint lib_CarteFille:MCVVT016M151EA6L)
      (fields
        (field (name "Code commande") 2611357)
        (field (name Distributeur) Farnell)
        (field (name Prix) 0,114)
        (field (name "Réf fab") MCVVT016M151EA6L))
      (libsource (lib CarteMere-rescue) (part CP) (description ""))
      (sheetpath (names /StepDown/) (tstamps /5AC62C5C/))
      (tstamp 5DB84A0B))
    (comp (ref D6)
      (value MBRS410LT3G)
      (footprint lib_CarteFille:DO_214AB_S4G)
      (datasheet ~)
      (fields
        (field (name "Code commande") 1702812)
        (field (name Distributeur) Farnell)
        (field (name Prix) 1,11)
        (field (name "Réf fab") "S4G R7"))
      (libsource (lib Device) (part D) (description Diode))
      (sheetpath (names /StepDown/) (tstamps /5AC62C5C/))
      (tstamp 5FC936D3))
    (comp (ref D3)
      (value MBRS410LT3G)
      (footprint lib_CarteFille:DO_214AB_S4G)
      (datasheet ~)
      (fields
        (field (name "Code commande") 1702812)
        (field (name Distributeur) Farnell)
        (field (name Prix) 1,11)
        (field (name "Réf fab") MBRS410LT3G))
      (libsource (lib Device) (part D) (description Diode))
      (sheetpath (names /StepDown/) (tstamps /5AC62C5C/))
      (tstamp 5D6AA803))
    (comp (ref C32)
      (value 33pF)
      (footprint Capacitor_SMD:C_0805_2012Metric)
      (fields
        (field (name "Code commande") 2497030)
        (field (name Distributeur) Farnell)
        (field (name Prix) 0,0828)
        (field (name "Réf fab") 0805N330J500CT))
      (libsource (lib CarteMere-rescue) (part C) (description ""))
      (sheetpath (names /StepDown/) (tstamps /5AC62C5C/))
      (tstamp 607ECBC7))
    (comp (ref GL850G1)
      (value GL850G-SSOP-28)
      (footprint diskioPi:GL850G)
      (fields
        (field (name "Code commande") Value)
        (field (name Distributeur) Aliexpress)
        (field (name Prix) 0,237)
        (field (name "Réf fab") GL850G))
      (libsource (lib CarteMere-rescue) (part GL850G-SSOP-28) (description ""))
      (sheetpath (names /HUB_USB/) (tstamps /5AC62C5F/))
      (tstamp 5AC723C4))
    (comp (ref P9)
      (value USB_A)
      (footprint lib_CarteFille:USB-A-S-RA-TSMT)
      (fields
        (field (name "Code commande") 2112370)
        (field (name Distributeur) Farnell)
        (field (name Prix) 0,527)
        (field (name "Réf fab") "USB-A-S-RA-TSMT "))
      (libsource (lib CarteMere-rescue) (part USB_A) (description ""))
      (sheetpath (names /HUB_USB/) (tstamps /5AC62C5F/))
      (tstamp 5AD44DBB))
    (comp (ref P10)
      (value USB_A)
      (footprint lib_CarteFille:USB-A-S-RA-TSMT)
      (fields
        (field (name "Code commande") 2112370)
        (field (name Distributeur) Farnell)
        (field (name Prix) 0,527)
        (field (name "Réf fab") "USB-A-S-RA-TSMT "))
      (libsource (lib CarteMere-rescue) (part USB_A) (description ""))
      (sheetpath (names /HUB_USB/) (tstamps /5AC62C5F/))
      (tstamp 5AD4666A))
    (comp (ref Y1)
      (value Crystal)
      (footprint diskioPi:QCL12.0000F18B23B)
      (fields
        (field (name "Code commande") 2508453)
        (field (name Distributeur) Farnell)
        (field (name Prix) 0,185)
        (field (name "Réf fab") "QCL12.0000F18B23B "))
      (libsource (lib CarteMere-rescue) (part Crystal) (description ""))
      (sheetpath (names /HUB_USB/) (tstamps /5AC62C5F/))
      (tstamp 5AD4809E))
    (comp (ref C5)
      (value 33pF)
      (footprint Capacitors_SMD:C_0805_HandSoldering)
      (fields
        (field (name "Code commande") 2497030)
        (field (name Distributeur) Farnell)
        (field (name Prix) 0,0912)
        (field (name "Réf fab") 0805N330J500CT))
      (libsource (lib CarteMere-rescue) (part C) (description ""))
      (sheetpath (names /HUB_USB/) (tstamps /5AC62C5F/))
      (tstamp 5AD48563))
    (comp (ref C6)
      (value 33pF)
      (footprint Capacitors_SMD:C_0805_HandSoldering)
      (fields
        (field (name "Code commande") 2497030)
        (field (name Distributeur) Farnell)
        (field (name Prix) 0,0912)
        (field (name "Réf fab") 0805N330J500CT))
      (libsource (lib CarteMere-rescue) (part C) (description ""))
      (sheetpath (names /HUB_USB/) (tstamps /5AC62C5F/))
      (tstamp 5AD485EB))
    (comp (ref R5)
      (value 10k)
      (footprint Resistors_SMD:R_0805_HandSoldering)
      (fields
        (field (name "Code commande") 2447553)
        (field (name Distributeur) Farnell)
        (field (name Prix) 0,0101)
        (field (name "Réf fab") MCWR08X1002FTL))
      (libsource (lib CarteMere-rescue) (part R) (description ""))
      (sheetpath (names /HUB_USB/) (tstamps /5AC62C5F/))
      (tstamp 5AD49482))
    (comp (ref C15)
      (value 1uF)
      (footprint Capacitors_SMD:C_0805_HandSoldering)
      (fields
        (field (name "Code commande") 1759432)
        (field (name Distributeur) Farnell)
        (field (name Prix) 0,0828)
        (field (name "Réf fab") MC0805F105Z500CT))
      (libsource (lib CarteMere-rescue) (part C) (description ""))
      (sheetpath (names /HUB_USB/) (tstamps /5AC62C5F/))
      (tstamp 5AD496C5))
    (comp (ref R6)
      (value 47k)
      (footprint Resistors_SMD:R_0805_HandSoldering)
      (fields
        (field (name "Code commande") 2447664)
        (field (name Distributeur) Farnell)
        (field (name Prix) 0,0097)
        (field (name "Réf fab") MCWR08X4702FTL))
      (libsource (lib CarteMere-rescue) (part R) (description ""))
      (sheetpath (names /HUB_USB/) (tstamps /5AC62C5F/))
      (tstamp 5AD4988A))
    (comp (ref R7)
      (value 47K)
      (footprint Resistors_SMD:R_0805_HandSoldering)
      (fields
        (field (name "Code commande") 2447664)
        (field (name Distributeur) Farnell)
        (field (name Prix) 0,0097)
        (field (name "Réf fab") MCWR08X4702FTL))
      (libsource (lib CarteMere-rescue) (part R) (description ""))
      (sheetpath (names /HUB_USB/) (tstamps /5AC62C5F/))
      (tstamp 5AD4B174))
    (comp (ref C16)
      (value 10uF)
      (footprint Capacitors_SMD:C_0805_HandSoldering)
      (fields
        (field (name "Code commande") 2346924)
        (field (name Distributeur) Farnell)
        (field (name Prix) 0,199)
        (field (name "Réf fab") C2012X5R1C106K085AC))
      (libsource (lib CarteMere-rescue) (part CP) (description ""))
      (sheetpath (names /HUB_USB/) (tstamps /5AC62C5F/))
      (tstamp 5AD4C24E))
    (comp (ref C17)
      (value 100nF)
      (footprint Capacitors_SMD:C_0805_HandSoldering)
      (fields
        (field (name "Code commande") 2522443)
        (field (name Distributeur) Farnell)
        (field (name Prix) 0,0464)
        (field (name "Réf fab") C0805C104Z3VACTU))
      (libsource (lib CarteMere-rescue) (part C) (description ""))
      (sheetpath (names /HUB_USB/) (tstamps /5AC62C5F/))
      (tstamp 5AD4C55A))
    (comp (ref C18)
      (value 100nF)
      (footprint Capacitors_SMD:C_0805_HandSoldering)
      (fields
        (field (name "Code commande") 2522443)
        (field (name Distributeur) Farnell)
        (field (name Prix) 0,0464)
        (field (name "Réf fab") C0805C104Z3VACTU))
      (libsource (lib CarteMere-rescue) (part C) (description ""))
      (sheetpath (names /HUB_USB/) (tstamps /5AC62C5F/))
      (tstamp 5AD4C93B))
    (comp (ref C19)
      (value 100nF)
      (footprint Capacitor_SMD:C_0805_2012Metric)
      (fields
        (field (name "Code commande") 2522443)
        (field (name Distributeur) Farnell)
        (field (name Prix) 0,0464)
        (field (name "Réf fab") C0805C104Z3VACTU))
      (libsource (lib CarteMere-rescue) (part C) (description ""))
      (sheetpath (names /HUB_USB/) (tstamps /5AC62C5F/))
      (tstamp 5AD4D255))
    (comp (ref C20)
      (value 100nF)
      (footprint Capacitor_SMD:C_0805_2012Metric)
      (fields
        (field (name "Code commande") 2522443)
        (field (name Distributeur) Farnell)
        (field (name Prix) 0,0464)
        (field (name "Réf fab") C0805C104Z3VACTU))
      (libsource (lib CarteMere-rescue) (part C) (description ""))
      (sheetpath (names /HUB_USB/) (tstamps /5AC62C5F/))
      (tstamp 5AD4D2D8))
    (comp (ref C21)
      (value 100nF)
      (footprint Capacitor_SMD:C_0805_2012Metric)
      (fields
        (field (name "Code commande") 2522443)
        (field (name Distributeur) Farnell)
        (field (name Prix) 0,0464)
        (field (name "Réf fab") C0805C104Z3VACTU))
      (libsource (lib CarteMere-rescue) (part C) (description ""))
      (sheetpath (names /HUB_USB/) (tstamps /5AC62C5F/))
      (tstamp 5AD4D346))
    (comp (ref C23)
      (value 10uF)
      (footprint Capacitors_SMD:C_0805_HandSoldering)
      (fields
        (field (name "Code commande") 2346924)
        (field (name Distributeur) Farnell)
        (field (name Prix) 0,199)
        (field (name "Réf fab") C2012X5R1C106K085AC))
      (libsource (lib CarteMere-rescue) (part CP) (description ""))
      (sheetpath (names /HUB_USB/) (tstamps /5AC62C5F/))
      (tstamp 5AD4D7E5))
    (comp (ref R9)
      (value 680)
      (footprint Resistors_SMD:R_0805_HandSoldering)
      (fields
        (field (name "Code commande") 2447705)
        (field (name Distributeur) Farnell)
        (field (name Prix) 0,0097)
        (field (name "Réf fab") MCWR08X6800FTL))
      (libsource (lib CarteMere-rescue) (part R) (description ""))
      (sheetpath (names /HUB_USB/) (tstamps /5AC62C5F/))
      (tstamp 5AD4EDD8))
    (comp (ref C8)
      (value 100nF)
      (footprint Capacitors_SMD:C_0805_HandSoldering)
      (fields
        (field (name "Code commande") 2522443)
        (field (name Distributeur) Farnell)
        (field (name Prix) 0,0464)
        (field (name "Réf fab") C0805C104Z3VACTU))
      (libsource (lib CarteMere-rescue) (part C) (description ""))
      (sheetpath (names /HUB_USB/) (tstamps /5AC62C5F/))
      (tstamp 5AD5824F))
    (comp (ref C12)
      (value 10uF)
      (footprint Capacitors_SMD:C_0805_HandSoldering)
      (fields
        (field (name "Code commande") 2346924)
        (field (name Distributeur) Farnell)
        (field (name Prix) 0,199)
        (field (name "Réf fab") C2012X5R1C106K085AC))
      (libsource (lib CarteMere-rescue) (part CP) (description ""))
      (sheetpath (names /HUB_USB/) (tstamps /5AC62C5F/))
      (tstamp 5AD5825F))
    (comp (ref C7)
      (value 100nF)
      (footprint Capacitors_SMD:C_0805_HandSoldering)
      (fields
        (field (name "Code commande") 2522443)
        (field (name Distributeur) Farnell)
        (field (name Prix) 0,0464)
        (field (name "Réf fab") C0805C104Z3VACTU))
      (libsource (lib CarteMere-rescue) (part C) (description ""))
      (sheetpath (names /HUB_USB/) (tstamps /5AC62C5F/))
      (tstamp 5AD587A6))
    (comp (ref C11)
      (value 10uF)
      (footprint Capacitors_SMD:C_0805_HandSoldering)
      (fields
        (field (name "Code commande") 2346924)
        (field (name Distributeur) Farnell)
        (field (name Prix) 0,199)
        (field (name "Réf fab") C2012X5R1C106K085AC))
      (libsource (lib CarteMere-rescue) (part CP) (description ""))
      (sheetpath (names /HUB_USB/) (tstamps /5AC62C5F/))
      (tstamp 5AD587B6))
    (comp (ref L2)
      (value L_Small)
      (footprint Resistors_SMD:R_0805_HandSoldering)
      (fields
        (field (name "Code commande") 1838838)
        (field (name Distributeur) Farnell)
        (field (name Prix) 0,138)
        (field (name "Réf fab") 2508056017Y2))
      (libsource (lib CarteMere-rescue) (part L_Small) (description ""))
      (sheetpath (names /HUB_USB/) (tstamps /5AC62C5F/))
      (tstamp 5AD587C2))
    (comp (ref P13)
      (value USB_A)
      (footprint "diskioPi:B4B-PH-SM4-TB(LF)(SN)")
      (fields
        (field (name "Code commande") 9491929)
        (field (name Distributeur) Farnell)
        (field (name Prix) 0,689)
        (field (name "Réf fab") "B4B-PH-SM4-TB(LF)(SN)"))
      (libsource (lib CarteMere-rescue) (part USB_A) (description ""))
      (sheetpath (names /HUB_USB/) (tstamps /5AC62C5F/))
      (tstamp 5AD5A7F9))
    (comp (ref P14)
      (value USB_A)
      (footprint lib_CarteFille:10033526-N3212LF)
      (fields
        (field (name "Code commande") 2886145)
        (field (name Distributeur) Farnell)
        (field (name Prix) 0,459)
        (field (name "Réf fab") 10033526-N3212LF))
      (libsource (lib CarteMere-rescue) (part USB_A) (description ""))
      (sheetpath (names /HUB_USB/) (tstamps /5AC62C5F/))
      (tstamp 5AD5AFEE))
    (comp (ref R11)
      (value 30k)
      (footprint Resistors_SMD:R_0805_HandSoldering)
      (fields
        (field (name "Code commande") 2073736)
        (field (name Distributeur) Farnell)
        (field (name Prix) 0,0105)
        (field (name "Réf fab") "MCMR08X303 JTL "))
      (libsource (lib CarteMere-rescue) (part R) (description ""))
      (sheetpath (names /HUB_USB/) (tstamps /5AC62C5F/))
      (tstamp 5AD5BE5D))
    (comp (ref R12)
      (value 30k)
      (footprint Resistors_SMD:R_0805_HandSoldering)
      (fields
        (field (name "Code commande") 2073736)
        (field (name Distributeur) Farnell)
        (field (name Prix) 0,0105)
        (field (name "Réf fab") "MCMR08X303 JTL "))
      (libsource (lib CarteMere-rescue) (part R) (description ""))
      (sheetpath (names /HUB_USB/) (tstamps /5AC62C5F/))
      (tstamp 5AD5C16E))
    (comp (ref L3)
      (value L_Small)
      (footprint Resistors_SMD:R_0805_HandSoldering)
      (fields
        (field (name "Code commande") 1838838)
        (field (name Distributeur) Farnell)
        (field (name Prix) 0,138)
        (field (name "Réf fab") 2508056017Y2))
      (libsource (lib CarteMere-rescue) (part L_Small) (description ""))
      (sheetpath (names /HUB_USB/) (tstamps /5AC62C5F/))
      (tstamp 5AE05F0C))
    (comp (ref L6)
      (value L_Small)
      (footprint Resistors_SMD:R_0805_HandSoldering)
      (fields
        (field (name "Code commande") 1838838)
        (field (name Distributeur) Farnell)
        (field (name Prix) 0,138)
        (field (name "Réf fab") 2508056017Y2))
      (libsource (lib CarteMere-rescue) (part L_Small) (description ""))
      (sheetpath (names /HUB_USB/) (tstamps /5AC62C5F/))
      (tstamp 5AE07659))
    (comp (ref C22)
      (value 100nF)
      (footprint Capacitors_SMD:C_0805_HandSoldering)
      (fields
        (field (name "Code commande") 2522443)
        (field (name Distributeur) Farnell)
        (field (name Prix) 0,0464)
        (field (name "Réf fab") C0805C104Z3VACTU))
      (libsource (lib CarteMere-rescue) (part C) (description ""))
      (sheetpath (names /HUB_USB/) (tstamps /5AC62C5F/))
      (tstamp 5AE1FD9D))
    (comp (ref R2)
      (value 10k)
      (footprint Resistors_SMD:R_0805_HandSoldering)
      (fields
        (field (name "Code commande") 2447553)
        (field (name Distributeur) Farnell)
        (field (name Prix) 0,0101)
        (field (name "Réf fab") MCWR08X1002FTL))
      (libsource (lib CarteMere-rescue) (part R) (description ""))
      (sheetpath (names /HUB_USB/) (tstamps /5AC62C5F/))
      (tstamp 5AE250D3))
    (comp (ref P12)
      (value USB_A)
      (footprint "lib_robot:B4B-PH-SM4-TB(LF)(SN)")
      (fields
        (field (name "Code commande") 9491929)
        (field (name Distributeur) Farnell)
        (field (name Prix) 0,689)
        (field (name "Réf fab") "B4B-PH-SM4-TB(LF)(SN)"))
      (libsource (lib CarteMere-rescue) (part USB_A) (description ""))
      (sheetpath (names /HUB_USB/) (tstamps /5AC62C5F/))
      (tstamp 5DC26277))
    (comp (ref L4)
      (value L_Small)
      (footprint Resistor_SMD:R_0805_2012Metric_Pad1.15x1.40mm_HandSolder)
      (fields
        (field (name "Code commande") 1838838)
        (field (name Distributeur) Farnell)
        (field (name Prix) 0,138)
        (field (name "Réf fab") 2508056017Y2))
      (libsource (lib CarteMere-rescue) (part L_Small) (description ""))
      (sheetpath (names /HUB_USB/) (tstamps /5AC62C5F/))
      (tstamp 5E6402B9))
    (comp (ref C14)
      (value 10uF)
      (footprint Capacitor_SMD:C_0805_2012Metric_Pad1.15x1.40mm_HandSolder)
      (fields
        (field (name "Code commande") 2346924)
        (field (name Distributeur) Farnell)
        (field (name Prix) 0,199)
        (field (name "Réf fab") C2012X5R1C106K085AC))
      (libsource (lib CarteMere-rescue) (part CP) (description ""))
      (sheetpath (names /HUB_USB/) (tstamps /5AC62C5F/))
      (tstamp 5E641613))
    (comp (ref C24)
      (value 100nF)
      (footprint Capacitor_SMD:C_0805_2012Metric_Pad1.15x1.40mm_HandSolder)
      (fields
        (field (name "Code commande") 2522443)
        (field (name Distributeur) Farnell)
        (field (name Prix) 0,0464)
        (field (name "Réf fab") C0805C104Z3VACTU))
      (libsource (lib CarteMere-rescue) (part C) (description ""))
      (sheetpath (names /HUB_USB/) (tstamps /5AC62C5F/))
      (tstamp 5E63F841))
    (comp (ref U2)
      (value IP4220CZ6)
      (footprint lib_CarteFille:TSOP_6-IP4220CZ6)
      (fields
        (field (name "Code commande") 2319344)
        (field (name Distributeur) Farnell)
        (field (name Prix) 0,104)
        (field (name "Réf fab") IP4220CZ6,125))
      (libsource (lib LIB_CARTE_MERE_DISKIOPI) (part IP4220CZ6) (description ""))
      (sheetpath (names /HUB_USB/) (tstamps /5AC62C5F/))
      (tstamp 5E743E5C))
    (comp (ref U5)
      (value LM311DT)
      (footprint lib_CarteFille:LM311DT)
      (fields
        (field (name "Code commande") 2382617)
        (field (name Distributeur) Farnell)
        (field (name Prix) 0,359)
        (field (name "Réf fab") LM311DT))
      (libsource (lib CarteMere-rescue) (part LM311DT) (description ""))
      (sheetpath (names /Ventilo/) (tstamps /5AC62D94/))
      (tstamp 5AD6EB44))
    (comp (ref R14)
      (value 10k)
      (footprint Resistors_SMD:R_0805_HandSoldering)
      (fields
        (field (name "Code commande") 2447553)
        (field (name Distributeur) Farnell)
        (field (name Prix) 0,0101)
        (field (name "Réf fab") MCWR08X1002FTL))
      (libsource (lib CarteMere-rescue) (part R) (description ""))
      (sheetpath (names /Ventilo/) (tstamps /5AC62D94/))
      (tstamp 5AD6EEE7))
    (comp (ref C25)
      (value 100nF)
      (footprint Capacitors_SMD:C_0805_HandSoldering)
      (fields
        (field (name "Code commande") 2522443)
        (field (name Distributeur) Farnell)
        (field (name Prix) 0,0464)
        (field (name "Réf fab") C0805C104Z3VACTU))
      (libsource (lib CarteMere-rescue) (part C) (description ""))
      (sheetpath (names /Ventilo/) (tstamps /5AC62D94/))
      (tstamp 5AD6F7E1))
    (comp (ref R15)
      (value 1K)
      (footprint Resistors_SMD:R_0805_HandSoldering)
      (fields
        (field (name "Code commande") 9333711)
        (field (name Distributeur) Farnell)
        (field (name Prix) 0,0083)
        (field (name "Réf fab") MC01W080551K))
      (libsource (lib CarteMere-rescue) (part R) (description ""))
      (sheetpath (names /Ventilo/) (tstamps /5AC62D94/))
      (tstamp 5AD7019C))
    (comp (ref R16)
      (value 499)
      (footprint Resistors_SMD:R_0805_HandSoldering)
      (fields
        (field (name "Code commande") 2073789)
        (field (name Distributeur) Farnell)
        (field (name Prix) 0,0135)
        (field (name "Réf fab") MCMR08X4990FTL))
      (libsource (lib CarteMere-rescue) (part R) (description ""))
      (sheetpath (names /Ventilo/) (tstamps /5AC62D94/))
      (tstamp 5AD70404))
    (comp (ref RV2)
      (value 82PR1KLF)
      (footprint lib_CarteFille:82PR1KLF)
      (fields
        (field (name "Code commande") "858-82PR1KLF ")
        (field (name Distributeur) Farnell)
        (field (name Prix) 0,271)
        (field (name "Réf fab") "82PR1KLF "))
      (libsource (lib CarteMere-rescue) (part POT) (description ""))
      (sheetpath (names /Ventilo/) (tstamps /5AC62D94/))
      (tstamp 5AD70566))
    (comp (ref D2)
      (value D)
      (footprint lib_CarteFille:MURA240T3G)
      (fields
        (field (name "Code commande") 2463414)
        (field (name Distributeur) Farnell)
        (field (name Prix) 0,306)
        (field (name "Réf fab") MURA240T3G))
      (libsource (lib CarteMere-rescue) (part D) (description ""))
      (sheetpath (names /Ventilo/) (tstamps /5AC62D94/))
      (tstamp 5AD71521))
    (comp (ref C4)
      (value 100nF)
      (footprint Capacitor_SMD:C_0805_2012Metric)
      (fields
        (field (name "Code commande") 2522443)
        (field (name Distributeur) Farnell)
        (field (name Prix) 0,0464)
        (field (name "Réf fab") C0805C104Z3VACTU))
      (libsource (lib CarteMere-rescue) (part C) (description ""))
      (sheetpath (names /Ventilo/) (tstamps /5AC62D94/))
      (tstamp 5D23DEAF))
    (comp (ref Q2)
      (value IRFML8244)
      (footprint lib_CarteFille:SOT-23_IRFML8244)
      (fields
        (field (name "Code commande") 1857298)
        (field (name Distributeur) Farnell)
        (field (name Prix) 0,28)
        (field (name "Réf fab") IRFML8244))
      (libsource (lib CarteMere-rescue) (part IRFML8244) (description ""))
      (sheetpath (names /Ventilo/) (tstamps /5AC62D94/))
      (tstamp 5AD6F28C))
    (comp (ref P15)
      (value CONN_01X04)
      (footprint lib_CarteFille:22-05-3041_MOLEX)
      (fields
        (field (name "Code commande") 1756798)
        (field (name Distributeur) Farnell)
        (field (name Prix) 0,396)
        (field (name "Réf fab") "22-05-3041 "))
      (libsource (lib CarteMere-rescue) (part CONN_01X04) (description ""))
      (sheetpath (names /Ventilo/) (tstamps /5AC62D94/))
      (tstamp 5ADEE898))
    (comp (ref R21)
      (value 10k)
      (footprint Resistors_SMD:R_0805_HandSoldering)
      (fields
        (field (name "Code commande") 2447553)
        (field (name Distributeur) Farnell)
        (field (name Prix) 0,0101)
        (field (name "Réf fab") MCWR08X1002FTL))
      (libsource (lib CarteMere-rescue) (part R) (description ""))
      (sheetpath (names /InterrupteurPower/) (tstamps /5AC62DB0/))
      (tstamp 5AD7F320))
    (comp (ref R22)
      (value 10k)
      (footprint Resistors_SMD:R_0805_HandSoldering)
      (fields
        (field (name "Code commande") 2447553)
        (field (name Distributeur) Farnell)
        (field (name Prix) 0,0101)
        (field (name "Réf fab") MCWR08X1002FTL))
      (libsource (lib CarteMere-rescue) (part R) (description ""))
      (sheetpath (names /InterrupteurPower/) (tstamps /5AC62DB0/))
      (tstamp 5AD7F3B9))
    (comp (ref R25)
      (value 220)
      (footprint Resistors_SMD:R_0805_HandSoldering)
      (fields
        (field (name "Code commande") 2447606)
        (field (name Distributeur) Farnell)
        (field (name Prix) 0,0096)
        (field (name "Réf fab") MCWR08X2200FTL))
      (libsource (lib CarteMere-rescue) (part R) (description ""))
      (sheetpath (names /InterrupteurPower/) (tstamps /5AC62DB0/))
      (tstamp 5AD803AF))
    (comp (ref D4)
      (value LED)
      (footprint lib_CarteFille:0805_KPT-2012)
      (fields
        (field (name "Code commande") 2099239)
        (field (name Distributeur) Farnell)
        (field (name Prix) "0,154 ")
        (field (name "Réf fab") KPT-2012SGC))
      (libsource (lib CarteMere-rescue) (part LED) (description ""))
      (sheetpath (names /InterrupteurPower/) (tstamps /5AC62DB0/))
      (tstamp 5AD80474))
    (comp (ref Q5)
      (value IPB80P04P4L04ATMA1)
      (footprint lib_CarteFille:IPB80P04P4L04ATMA1)
      (fields
        (field (name "Code commande") 2839456)
        (field (name Distributeur) Farnell)
        (field (name Prix) 1,34)
        (field (name "Réf fab") IPB80P04P4L04ATMA1))
      (libsource (lib CarteMere-rescue) (part IPB80P04P4L04ATMA1) (description ""))
      (sheetpath (names /InterrupteurPower/) (tstamps /5AC62DB0/))
      (tstamp 5AD7ECF5))
    (comp (ref R24)
      (value 100k)
      (footprint Resistors_SMD:R_0805_HandSoldering)
      (fields
        (field (name "Code commande") 2446868)
        (field (name Distributeur) Farnell)
        (field (name Prix) 0,0019)
        (field (name "Réf fab") MCWR08X1003FTL))
      (libsource (lib CarteMere-rescue) (part R) (description ""))
      (sheetpath (names /InterrupteurPower/) (tstamps /5AC62DB0/))
      (tstamp 5AD82AD1))
    (comp (ref R23)
      (value 100k)
      (footprint Resistors_SMD:R_0805_HandSoldering)
      (fields
        (field (name "Code commande") 2446868)
        (field (name Distributeur) Farnell)
        (field (name Prix) 0,0019)
        (field (name "Réf fab") MCWR08X1003FTL))
      (libsource (lib CarteMere-rescue) (part R) (description ""))
      (sheetpath (names /InterrupteurPower/) (tstamps /5AC62DB0/))
      (tstamp 5AD82B45))
    (comp (ref P18)
      (value CONN_01X02)
      (footprint "diskioPi:S2B-PH-SM4-TB(LF)(SN)")
      (fields
        (field (name "Code commande") 9492615)
        (field (name Distributeur) Farnell)
        (field (name Prix) 0,504)
        (field (name "Réf fab") "S2B-PH-SM4-TB(LF)(SN)"))
      (libsource (lib CarteMere-rescue) (part CONN_01X02) (description ""))
      (sheetpath (names /InterrupteurPower/) (tstamps /5AC62DB0/))
      (tstamp 5ADA0BDF))
    (comp (ref R13)
      (value 10k)
      (footprint Resistors_SMD:R_0805_HandSoldering)
      (fields
        (field (name "Code commande") 2447553)
        (field (name Distributeur) Farnell)
        (field (name Prix) 0,0101)
        (field (name "Réf fab") MCWR08X1002FTL))
      (libsource (lib CarteMere-rescue) (part R) (description ""))
      (sheetpath (names /InterrupteurPower/) (tstamps /5AC62DB0/))
      (tstamp 5AF581AC))
    (comp (ref R28)
      (value 10k)
      (footprint Resistors_SMD:R_0805_HandSoldering)
      (fields
        (field (name "Code commande") 2447553)
        (field (name Distributeur) Farnell)
        (field (name Prix) 0,0101)
        (field (name "Réf fab") MCWR08X1002FTL))
      (libsource (lib CarteMere-rescue) (part R) (description ""))
      (sheetpath (names /InterrupteurPower/) (tstamps /5AC62DB0/))
      (tstamp 5AF582B0))
    (comp (ref R8)
      (value 10k)
      (footprint Resistors_SMD:R_0805_HandSoldering)
      (fields
        (field (name "Code commande") 2447553)
        (field (name Distributeur) Farnell)
        (field (name Prix) 0,0101)
        (field (name "Réf fab") MCWR08X1002FTL))
      (libsource (lib CarteMere-rescue) (part R) (description ""))
      (sheetpath (names /InterrupteurPower/) (tstamps /5AC62DB0/))
      (tstamp 5AF58E79))
    (comp (ref R10)
      (value 10k)
      (footprint Resistors_SMD:R_0805_HandSoldering)
      (fields
        (field (name "Code commande") 2447553)
        (field (name Distributeur) Farnell)
        (field (name Prix) 0,0101)
        (field (name "Réf fab") MCWR08X1002FTL))
      (libsource (lib CarteMere-rescue) (part R) (description ""))
      (sheetpath (names /InterrupteurPower/) (tstamps /5AC62DB0/))
      (tstamp 5AF58E7F))
    (comp (ref Q1)
      (value BSS138)
      (footprint TO_SOT_Packages_SMD:SOT-23)
      (fields
        (field (name "Code commande") 1859849)
        (field (name Distributeur) Farnell)
        (field (name Prix) 0,171)
        (field (name "Réf fab") "BSS138P,215 "))
      (libsource (lib CarteMere-rescue) (part BSS138) (description ""))
      (sheetpath (names /InterrupteurPower/) (tstamps /5AC62DB0/))
      (tstamp 5AF590C0))
    (comp (ref R29)
      (value 10k)
      (footprint Resistors_SMD:R_0805_HandSoldering)
      (fields
        (field (name "Code commande") 2447553)
        (field (name Distributeur) Farnell)
        (field (name Prix) 0,0101)
        (field (name "Réf fab") MCWR08X1002FTL))
      (libsource (lib CarteMere-rescue) (part R) (description ""))
      (sheetpath (names /InterrupteurPower/) (tstamps /5AC62DB0/))
      (tstamp 5AF593AE))
    (comp (ref D1)
      (value BAS19)
      (footprint lib_CarteFille:SOT-23_BAS19)
      (fields
        (field (name "Code commande") 9843833)
        (field (name Distributeur) Farnell)
        (field (name Prix) 0,095)
        (field (name "Réf fab") BAS19))
      (libsource (lib CarteMere-rescue) (part BAS19) (description ""))
      (sheetpath (names /InterrupteurPower/) (tstamps /5AC62DB0/))
      (tstamp 5AF5E13B))
    (comp (ref D5)
      (value BAS19)
      (footprint lib_CarteFille:SOT-23_BAS19)
      (fields
        (field (name "Code commande") 9843833)
        (field (name Distributeur) Farnell)
        (field (name Prix) 0,095)
        (field (name "Réf fab") BAS19))
      (libsource (lib CarteMere-rescue) (part BAS19) (description ""))
      (sheetpath (names /InterrupteurPower/) (tstamps /5AC62DB0/))
      (tstamp 5AF5E224))
    (comp (ref P11)
      (value 614004184726)
      (footprint lib_CarteFille:614004184726)
      (fields
        (field (name "Code commande") 2617113)
        (field (name Distributeur) Farnell)
        (field (name Prix) 0,975)
        (field (name "Réf fab") 614004184726))
      (libsource (lib CarteMere-rescue) (part CONN_01X04) (description ""))
      (sheetpath (names /InterrupteurPower/) (tstamps /5AC62DB0/))
      (tstamp 5D17F0D8))
    (comp (ref D8)
      (value MBRS410LT3G)
      (footprint lib_CarteFille:DO_214AB_S4G)
      (datasheet ~)
      (fields
        (field (name "Code commande") 1702812)
        (field (name Distributeur) Farnell)
        (field (name Prix) 1,11)
        (field (name "Réf fab") "S4G R7"))
      (libsource (lib Device) (part D) (description Diode))
      (sheetpath (names /InterrupteurPower/) (tstamps /5AC62DB0/))
      (tstamp 5FFDF252))
    (comp (ref J2)
      (value Conn_01x02)
      (footprint Connector_PinHeader_2.54mm:PinHeader_1x02_P2.54mm_Vertical)
      (datasheet ~)
      (libsource (lib Connector_Generic) (part Conn_01x02) (description "Generic connector, single row, 01x02, script generated (kicad-library-utils/schlib/autogen/connector/)"))
      (sheetpath (names /InterrupteurPower/) (tstamps /5AC62DB0/))
      (tstamp 5FFDDC69))
    (comp (ref Q6)
      (value BSS138)
      (footprint TO_SOT_Packages_SMD:SOT-23)
      (libsource (lib CarteMere-rescue) (part BSS138-MACE_LIB) (description ""))
      (sheetpath (names /InterrupteurPower/) (tstamps /5AC62DB0/))
      (tstamp 607DB386))
    (comp (ref U1)
      (value LMC555CMX)
      (footprint lib_CarteFille:SOIC-8_LMC555CMX)
      (fields
        (field (name "Code commande") 3006903)
        (field (name Distributeur) Farnell)
        (field (name Prix) 0,936)
        (field (name "Réf fab") LMC555CMX))
      (libsource (lib CarteMere-rescue) (part LMC555CMX) (description ""))
      (sheetpath (names /Timer/) (tstamps /5AC62DCE/))
      (tstamp 5AC62E49))
    (comp (ref C27)
      (value 100nF)
      (footprint Capacitors_SMD:C_0805_HandSoldering)
      (fields
        (field (name "Code commande") 2522443)
        (field (name Distributeur) Farnell)
        (field (name Prix) 0,0464)
        (field (name "Réf fab") C0805C104Z3VACTU))
      (libsource (lib CarteMere-rescue) (part C) (description ""))
      (sheetpath (names /Timer/) (tstamps /5AC62DCE/))
      (tstamp 5AD725BB))
    (comp (ref R17)
      (value 1M)
      (footprint Resistors_SMD:R_0805_HandSoldering)
      (fields
        (field (name "Code commande") 9333746)
        (field (name Distributeur) Farnell)
        (field (name Prix) 0,0111)
        (field (name "Réf fab") MC01W080551M))
      (libsource (lib CarteMere-rescue) (part R) (description ""))
      (sheetpath (names /Timer/) (tstamps /5AC62DCE/))
      (tstamp 5AD72882))
    (comp (ref C28)
      (value 10nF)
      (footprint Capacitors_SMD:C_0805_HandSoldering)
      (fields
        (field (name "Code commande") 2581081)
        (field (name Distributeur) Farnell)
        (field (name Prix) 0,119)
        (field (name "Réf fab") C0805C103M5RACTU))
      (libsource (lib CarteMere-rescue) (part C) (description ""))
      (sheetpath (names /Timer/) (tstamps /5AC62DCE/))
      (tstamp 5AD72D4E))
    (comp (ref C26)
      (value 10uF)
      (footprint Capacitors_SMD:C_0805_HandSoldering)
      (fields
        (field (name "Code commande") 2346924)
        (field (name Distributeur) Farnell)
        (field (name Prix) 0,199)
        (field (name "Réf fab") C2012X5R1C106K085AC))
      (libsource (lib CarteMere-rescue) (part C) (description ""))
      (sheetpath (names /Timer/) (tstamps /5AC62DCE/))
      (tstamp 5AD734C5))
    (comp (ref R1)
      (value 10k)
      (footprint Resistor_SMD:R_0805_2012Metric_Pad1.15x1.40mm_HandSolder)
      (fields
        (field (name "Code commande") 2447553)
        (field (name Distributeur) Farnell)
        (field (name Prix) 0,0111)
        (field (name "Réf fab") MCWR08X1002FTL))
      (libsource (lib CarteMere-rescue) (part R) (description ""))
      (sheetpath (names /Timer/) (tstamps /5AC62DCE/))
      (tstamp 607E4D4B))
    (comp (ref U6)
      (value Micro_HDMI_Connector)
      (footprint diskioPi:10029449-111RLF)
      (fields
        (field (name "Code commande") 2751197)
        (field (name Distributeur) Farnell)
        (field (name Prix) 0,472)
        (field (name "Réf fab") 10029449-111RLF))
      (libsource (lib CarteMere-rescue) (part Micro_HDMI_Connector) (description ""))
      (sheetpath (names /HDMI/) (tstamps /5AD8C780/))
      (tstamp 5AD8C9D0))
    (comp (ref MOLEX-5051)
      (value MOLEX-505110-2091)
      (footprint lib_CarteFille:MOLEX-5051102091)
      (fields
        (field (name "Code commande") 2500020)
        (field (name Distributeur) Farnell)
        (field (name Prix) 0,584)
        (field (name "Réf fab") MOLEX-505110-2091))
      (libsource (lib CarteMere-rescue) (part MOLEX-505110-1992-CarteMere-rescue-CarteMere-rescue) (description ""))
      (sheetpath (names /HDMI/) (tstamps /5AD8C780/))
      (tstamp 5AD9B48F)))
  (libparts
    (libpart (lib CarteMere-rescue) (part BARREL_JACK)
      (fields
        (field (name Reference) CON)
        (field (name Value) BARREL_JACK))
      (pins
        (pin (num 1) (name ~) (type passive))
        (pin (num 2) (name ~) (type passive))
        (pin (num 3) (name ~) (type passive))))
    (libpart (lib CarteMere-rescue) (part BAS19)
      (footprints
        (fp Diode_*)
        (fp D-Pak_TO252AA)
        (fp *SingleDiode)
        (fp *_Diode_*)
        (fp *SingleDiode*))
      (fields
        (field (name Reference) D)
        (field (name Value) BAS19))
      (pins
        (pin (num 1) (name A) (type passive))
        (pin (num 3) (name K) (type passive))))
    (libpart (lib CarteMere-rescue) (part BSS138)
      (footprints
        (fp SOT-23*))
      (fields
        (field (name Reference) Q)
        (field (name Value) BSS138)
        (field (name Footprint) SOT-23))
      (pins
        (pin (num 1) (name G) (type passive))
        (pin (num 2) (name S) (type passive))
        (pin (num 3) (name D) (type passive))))
    (libpart (lib CarteMere-rescue) (part BSS138-MACE_LIB)
      (fields
        (field (name Reference) Q)
        (field (name Value) BSS138-MACE_LIB))
      (pins
        (pin (num 1) (name G) (type input))
        (pin (num 2) (name S) (type passive))
        (pin (num 3) (name D) (type passive))))
    (libpart (lib CarteMere-rescue) (part C)
      (footprints
        (fp C?)
        (fp C_????_*)
        (fp C_????)
        (fp SMD*_c)
        (fp Capacitor*))
      (fields
        (field (name Reference) C)
        (field (name Value) C))
      (pins
        (pin (num 1) (name ~) (type passive))
        (pin (num 2) (name ~) (type passive))))
    (libpart (lib CarteMere-rescue) (part CONN_01X02)
      (footprints
        (fp Pin_Header_Straight_1X02)
        (fp Pin_Header_Angled_1X02)
        (fp Socket_Strip_Straight_1X02)
        (fp Socket_Strip_Angled_1X02))
      (fields
        (field (name Reference) P)
        (field (name Value) CONN_01X02))
      (pins
        (pin (num 1) (name P1) (type passive))
        (pin (num 2) (name P2) (type passive))))
    (libpart (lib CarteMere-rescue) (part CONN_01X04)
      (footprints
        (fp Pin_Header_Straight_1X04)
        (fp Pin_Header_Angled_1X04)
        (fp Socket_Strip_Straight_1X04)
        (fp Socket_Strip_Angled_1X04))
      (fields
        (field (name Reference) P)
        (field (name Value) CONN_01X04))
      (pins
        (pin (num 1) (name P1) (type passive))
        (pin (num 2) (name P2) (type passive))
        (pin (num 3) (name P3) (type passive))
        (pin (num 4) (name P4) (type passive))))
    (libpart (lib CarteMere-rescue) (part CP)
      (footprints
        (fp CP*)
        (fp Elko*)
        (fp TantalC*)
        (fp C*elec)
        (fp c_elec*)
        (fp SMD*_Pol))
      (fields
        (field (name Reference) C)
        (field (name Value) CP))
      (pins
        (pin (num 1) (name ~) (type passive))
        (pin (num 2) (name ~) (type passive))))
    (libpart (lib CarteMere-rescue) (part CSD17307Q5A)
      (fields
        (field (name Reference) Q)
        (field (name Value) CSD17307Q5A))
      (pins
        (pin (num 1) (name S) (type passive))
        (pin (num 2) (name S) (type passive))
        (pin (num 3) (name S) (type passive))
        (pin (num 4) (name G) (type passive))
        (pin (num 5) (name D) (type passive))
        (pin (num 6) (name D) (type passive))
        (pin (num 7) (name D) (type passive))
        (pin (num 8) (name D) (type passive))))
    (libpart (lib CarteMere-rescue) (part CSD17577Q5A)
      (fields
        (field (name Reference) Q)
        (field (name Value) CSD17577Q5A))
      (pins
        (pin (num 1) (name S) (type passive))
        (pin (num 2) (name S) (type passive))
        (pin (num 3) (name S) (type passive))
        (pin (num 4) (name G) (type passive))
        (pin (num 5) (name D) (type passive))
        (pin (num 6) (name D) (type passive))
        (pin (num 7) (name D) (type passive))
        (pin (num 8) (name D) (type passive))))
    (libpart (lib CarteMere-rescue) (part Crystal)
      (footprints
        (fp Crystal_*))
      (fields
        (field (name Reference) Y)
        (field (name Value) Crystal))
      (pins
        (pin (num 1) (name 1) (type passive))
        (pin (num 2) (name 2) (type passive))))
    (libpart (lib CarteMere-rescue) (part D)
      (footprints
        (fp Diode_*)
        (fp D-Pak_TO252AA)
        (fp *SingleDiode)
        (fp *_Diode_*)
        (fp *SingleDiode*))
      (fields
        (field (name Reference) D)
        (field (name Value) D))
      (pins
        (pin (num 1) (name K) (type passive))
        (pin (num 2) (name A) (type passive))))
    (libpart (lib CarteMere-rescue) (part FIDUCIAL)
      (fields
        (field (name Reference) FID)
        (field (name Value) FIDUCIAL)))
    (libpart (lib CarteMere-rescue) (part GL850G-SSOP-28)
      (fields
        (field (name Reference) GL850G)
        (field (name Value) GL850G-SSOP-28))
      (pins
        (pin (num 1) (name AVDD) (type passive))
        (pin (num 2) (name DM2) (type passive))
        (pin (num 3) (name DP2) (type passive))
        (pin (num 4) (name RREF) (type passive))
        (pin (num 5) (name AVDD) (type passive))
        (pin (num 6) (name X1) (type passive))
        (pin (num 7) (name X2) (type passive))
        (pin (num 8) (name DM3) (type passive))
        (pin (num 9) (name DP3) (type passive))
        (pin (num 10) (name AVDD) (type passive))
        (pin (num 11) (name DM4) (type passive))
        (pin (num 12) (name DP4) (type passive))
        (pin (num 13) (name RESET#) (type passive))
        (pin (num 14) (name TEST/SCL) (type passive))
        (pin (num 15) (name GND) (type passive))
        (pin (num 16) (name DVDD) (type passive))
        (pin (num 17) (name PSELF) (type passive))
        (pin (num 18) (name PGANG) (type passive))
        (pin (num 19) (name OVCUR2#) (type NotConnected))
        (pin (num 20) (name PWREN2#) (type NotConnected))
        (pin (num 21) (name OVCUR1#) (type passive))
        (pin (num 22) (name PWREN1#) (type NotConnected))
        (pin (num 23) (name V5) (type passive))
        (pin (num 24) (name V33) (type passive))
        (pin (num 25) (name DM0) (type passive))
        (pin (num 26) (name DP0) (type passive))
        (pin (num 27) (name DM1) (type passive))
        (pin (num 28) (name DP1) (type passive))))
    (libpart (lib CarteMere-rescue) (part Hole)
      (fields
        (field (name Reference) P)
        (field (name Value) Hole))
      (pins
        (pin (num 1) (name P1) (type passive))))
    (libpart (lib CarteMere-rescue) (part IPB80P04P4L04ATMA1)
      (fields
        (field (name Reference) Q)
        (field (name Value) IPB80P04P4L04ATMA1))
      (pins
        (pin (num 1) (name G) (type input))
        (pin (num 2) (name D) (type passive))
        (pin (num 3) (name S) (type passive))))
    (libpart (lib CarteMere-rescue) (part IRFML8244)
      (fields
        (field (name Reference) Q)
        (field (name Value) IRFML8244))
      (pins
        (pin (num 1) (name G) (type input))
        (pin (num 2) (name S) (type passive))
        (pin (num 3) (name D) (type passive))))
    (libpart (lib CarteMere-rescue) (part L)
      (footprints
        (fp Choke_*)
        (fp *Coil*)
        (fp Inductor_*)
        (fp L_*))
      (fields
        (field (name Reference) L)
        (field (name Value) L))
      (pins
        (pin (num 1) (name 1) (type passive))
        (pin (num 2) (name 2) (type passive))))
    (libpart (lib CarteMere-rescue) (part LED)
      (footprints
        (fp LED-3MM)
        (fp LED-5MM)
        (fp LED-10MM)
        (fp LED-0603)
        (fp LED-0805)
        (fp LED-1206)
        (fp LEDV))
      (fields
        (field (name Reference) D)
        (field (name Value) LED))
      (pins
        (pin (num 1) (name K) (type passive))
        (pin (num 2) (name A) (type passive))))
    (libpart (lib CarteMere-rescue) (part LM311DT)
      (fields
        (field (name Reference) U)
        (field (name Value) LM311DT))
      (pins
        (pin (num 1) (name GND) (type input))
        (pin (num 2) (name +) (type input))
        (pin (num 3) (name -) (type input))
        (pin (num 4) (name V-) (type input))
        (pin (num 5) (name BAL) (type passive))
        (pin (num 6) (name ~) (type passive))
        (pin (num 7) (name ~) (type output))
        (pin (num 8) (name V+) (type input))))
    (libpart (lib CarteMere-rescue) (part LM3150MHXNOPB)
      (fields
        (field (name Reference) U)
        (field (name Value) LM3150MHXNOPB))
      (pins
        (pin (num 1) (name VCC) (type power_in))
        (pin (num 2) (name VIN) (type power_in))
        (pin (num 3) (name EN) (type input))
        (pin (num 4) (name FB) (type input))
        (pin (num 5) (name SGND) (type power_in))
        (pin (num 6) (name SS) (type input))
        (pin (num 7) (name RON) (type input))
        (pin (num 8) (name ILIM) (type passive))
        (pin (num 9) (name SGND) (type power_in))
        (pin (num 10) (name SW) (type power_in))
        (pin (num 11) (name HG) (type output))
        (pin (num 12) (name BST) (type passive))
        (pin (num 13) (name LG) (type output))
        (pin (num 14) (name PGND) (type power_in))
        (pin (num 15) (name PAD) (type power_in))))
    (libpart (lib CarteMere-rescue) (part LMC555CMX)
      (fields
        (field (name Reference) U)
        (field (name Value) LMC555CMX))
      (pins
        (pin (num 1) (name GND) (type power_in))
        (pin (num 2) (name /Trigger) (type input))
        (pin (num 3) (name OUT) (type output))
        (pin (num 4) (name /Reset) (type input))
        (pin (num 5) (name Control) (type input))
        (pin (num 6) (name THR) (type input))
        (pin (num 7) (name DIS) (type input))
        (pin (num 8) (name VCC) (type power_in))))
    (libpart (lib CarteMere-rescue) (part L_Small)
      (footprints
        (fp CP*)
        (fp SM*))
      (fields
        (field (name Reference) L)
        (field (name Value) L_Small))
      (pins
        (pin (num 1) (name ~) (type passive))
        (pin (num 2) (name ~) (type passive))))
    (libpart (lib CarteMere-rescue) (part MOLEX-505110-1992-CarteMere-rescue-CarteMere-rescue)
      (fields
        (field (name Reference) MOLEX-505)
        (field (name Value) MOLEX-505110-1992-CarteMere-rescue-CarteMere-rescue))
      (pins
        (pin (num 1) (name HDMI-1) (type input))
        (pin (num 2) (name HDMI-2) (type input))
        (pin (num 3) (name HDMI-3) (type input))
        (pin (num 4) (name HDMI-4) (type input))
        (pin (num 5) (name HDMI-5) (type input))
        (pin (num 6) (name HDMI-6) (type input))
        (pin (num 7) (name HDMI-7) (type input))
        (pin (num 8) (name HDMI-8) (type input))
        (pin (num 9) (name HDMI-9) (type input))
        (pin (num 10) (name HDMI-10) (type input))
        (pin (num 11) (name HDMI-11) (type input))
        (pin (num 12) (name HDMI-12) (type input))
        (pin (num 13) (name HDMI-13) (type input))
        (pin (num 14) (name HDMI-14) (type input))
        (pin (num 15) (name HDMI-15) (type input))
        (pin (num 16) (name HDMI-16) (type input))
        (pin (num 17) (name HDMI-17) (type input))
        (pin (num 18) (name HDMI-18) (type input))
        (pin (num 19) (name HDMI-19) (type input))
        (pin (num 20) (name HDMI-20) (type input))))
    (libpart (lib CarteMere-rescue) (part Micro_HDMI_Connector)
      (fields
        (field (name Reference) U)
        (field (name Value) Micro_HDMI_Connector))
      (pins
        (pin (num 1) (name 1) (type input))
        (pin (num 2) (name 2) (type input))
        (pin (num 3) (name 3) (type input))
        (pin (num 4) (name 4) (type input))
        (pin (num 5) (name 5) (type input))
        (pin (num 6) (name 6) (type input))
        (pin (num 7) (name 7) (type input))
        (pin (num 8) (name 8) (type input))
        (pin (num 9) (name 9) (type input))
        (pin (num 10) (name 10) (type input))
        (pin (num 11) (name 11) (type input))
        (pin (num 12) (name 12) (type input))
        (pin (num 13) (name 13) (type input))
        (pin (num 14) (name 14) (type input))
        (pin (num 15) (name 15) (type input))
        (pin (num 16) (name 16) (type input))
        (pin (num 17) (name 17) (type input))
        (pin (num 18) (name 18) (type input))
        (pin (num 19) (name 19) (type input))))
    (libpart (lib CarteMere-rescue) (part POT)
      (fields
        (field (name Reference) RV)
        (field (name Value) POT))
      (pins
        (pin (num 1) (name 1) (type passive))
        (pin (num 2) (name 2) (type passive))
        (pin (num 3) (name 3) (type passive))))
    (libpart (lib CarteMere-rescue) (part R)
      (footprints
        (fp R_*)
        (fp Resistor_*))
      (fields
        (field (name Reference) R)
        (field (name Value) R))
      (pins
        (pin (num 1) (name ~) (type passive))
        (pin (num 2) (name ~) (type passive))))
    (libpart (lib CarteMere-rescue) (part USB_A)
      (footprints
        (fp USB*))
      (fields
        (field (name Reference) P)
        (field (name Value) USB_A))
      (pins
        (pin (num 1) (name VCC) (type power_in))
        (pin (num 2) (name D-) (type passive))
        (pin (num 3) (name D+) (type passive))
        (pin (num 4) (name GND) (type power_in))
        (pin (num 5) (name shield) (type passive))
        (pin (num 6) (name ~) (type input))))
    (libpart (lib Connector_Generic) (part Conn_01x02)
      (description "Generic connector, single row, 01x02, script generated (kicad-library-utils/schlib/autogen/connector/)")
      (docs ~)
      (footprints
        (fp Connector*:*_1x??_*))
      (fields
        (field (name Reference) J)
        (field (name Value) Conn_01x02))
      (pins
        (pin (num 1) (name Pin_1) (type passive))
        (pin (num 2) (name Pin_2) (type passive))))
    (libpart (lib Connector_Generic) (part Conn_01x03)
      (description "Generic connector, single row, 01x03, script generated (kicad-library-utils/schlib/autogen/connector/)")
      (docs ~)
      (footprints
        (fp Connector*:*_1x??_*))
      (fields
        (field (name Reference) J)
        (field (name Value) Conn_01x03))
      (pins
        (pin (num 1) (name Pin_1) (type passive))
        (pin (num 2) (name Pin_2) (type passive))
        (pin (num 3) (name Pin_3) (type passive))))
    (libpart (lib Device) (part D)
      (description Diode)
      (docs ~)
      (footprints
        (fp TO-???*)
        (fp *_Diode_*)
        (fp *SingleDiode*)
        (fp D_*))
      (fields
        (field (name Reference) D)
        (field (name Value) D))
      (pins
        (pin (num 1) (name K) (type passive))
        (pin (num 2) (name A) (type passive))))
    (libpart (lib Graphic) (part Logo_Open_Hardware_Large)
      (description "Open Hardware logo, large")
      (docs ~)
      (fields
        (field (name Reference) "#LOGO")
        (field (name Value) Logo_Open_Hardware_Large)))
    (libpart (lib LIB_CARTE_MERE_DISKIOPI) (part INDUCTOR)
      (fields
        (field (name Reference) L)
        (field (name Value) INDUCTOR))
      (pins
        (pin (num 1) (name 1) (type passive))
        (pin (num 2) (name 2) (type passive))))
    (libpart (lib LIB_CARTE_MERE_DISKIOPI) (part IP4220CZ6)
      (fields
        (field (name Reference) U)
        (field (name Value) IP4220CZ6))
      (pins
        (pin (num 1) (name _I/O_1) (type input))
        (pin (num 2) (name _GND) (type input))
        (pin (num 3) (name _I/O_2) (type input))
        (pin (num 4) (name _I/O_3) (type BiDi))
        (pin (num 5) (name VP) (type input))
        (pin (num 6) (name _I/O_4) (type BiDi)))))
  (libraries
    (library (logical CarteMere-rescue)
      (uri "/home/guillaume/DiskioPi/Git/diskio-pi-embedded-electronics/Carte Fille/Kicad/CarteMere-rescue.lib"))
    (library (logical Connector_Generic)
      (uri /usr/share/kicad/library/Connector_Generic.lib))
    (library (logical Device)
      (uri /usr/share/kicad/library/Device.lib))
    (library (logical Graphic)
      (uri /usr/share/kicad/library/Graphic.lib))
    (library (logical LIB_CARTE_MERE_DISKIOPI)
      (uri "/home/guillaume/DiskioPi/Git/diskio-pi-embedded-electronics/Carte Fille/Kicad/Lib/LIB_CARTE_MERE_DISKIOPI.lib")))
  (nets
    (net (code 1) (name GND)
      (node (ref Q6) (pin 2))
      (node (ref P11) (pin 4))
      (node (ref D4) (pin 1))
      (node (ref RV2) (pin 3))
      (node (ref U5) (pin 4))
      (node (ref U5) (pin 1))
      (node (ref C14) (pin 2))
      (node (ref C24) (pin 2))
      (node (ref R10) (pin 2))
      (node (ref Q1) (pin 2))
      (node (ref P18) (pin 2))
      (node (ref C33) (pin 2))
      (node (ref C35) (pin 2))
      (node (ref C1) (pin 2))
      (node (ref C3) (pin 2))
      (node (ref C30) (pin 1))
      (node (ref U3) (pin 14))
      (node (ref U3) (pin 15))
      (node (ref U3) (pin 5))
      (node (ref R22) (pin 1))
      (node (ref C25) (pin 2))
      (node (ref C36) (pin 2))
      (node (ref R28) (pin 2))
      (node (ref P19) (pin 2))
      (node (ref P20) (pin 2))
      (node (ref C19) (pin 2))
      (node (ref C20) (pin 2))
      (node (ref C21) (pin 2))
      (node (ref C23) (pin 2))
      (node (ref R9) (pin 2))
      (node (ref C8) (pin 2))
      (node (ref P13) (pin 5))
      (node (ref P13) (pin 4))
      (node (ref C5) (pin 2))
      (node (ref C6) (pin 2))
      (node (ref C15) (pin 2))
      (node (ref R6) (pin 2))
      (node (ref C22) (pin 2))
      (node (ref P9) (pin 6))
      (node (ref P9) (pin 5))
      (node (ref P9) (pin 4))
      (node (ref P10) (pin 4))
      (node (ref P10) (pin 5))
      (node (ref P10) (pin 6))
      (node (ref GL850G1) (pin 14))
      (node (ref GL850G1) (pin 15))
      (node (ref C17) (pin 2))
      (node (ref C18) (pin 2))
      (node (ref P14) (pin 5))
      (node (ref R12) (pin 2))
      (node (ref U2) (pin 2))
      (node (ref P15) (pin 3))
      (node (ref Q2) (pin 2))
      (node (ref C4) (pin 2))
      (node (ref C16) (pin 2))
      (node (ref C11) (pin 2))
      (node (ref P12) (pin 5))
      (node (ref C7) (pin 2))
      (node (ref C12) (pin 2))
      (node (ref P12) (pin 4))
      (node (ref R17) (pin 2))
      (node (ref R1) (pin 2))
      (node (ref J1) (pin 2))
      (node (ref P17) (pin 1))
      (node (ref CON1) (pin 3))
      (node (ref C27) (pin 2))
      (node (ref U1) (pin 1))
      (node (ref R20) (pin 2))
      (node (ref C28) (pin 1))
      (node (ref C13) (pin 2))
      (node (ref P7) (pin 1))
      (node (ref P6) (pin 1))
      (node (ref P5) (pin 1))
      (node (ref P4) (pin 1))
      (node (ref P3) (pin 1))
      (node (ref Q4) (pin 3))
      (node (ref Q4) (pin 2))
      (node (ref Q4) (pin 1))
      (node (ref P1) (pin 1))
      (node (ref C2) (pin 2))
      (node (ref U3) (pin 9))
      (node (ref P2) (pin 1))
      (node (ref C32) (pin 1))
      (node (ref C10) (pin 2))
      (node (ref C37) (pin 2))
      (node (ref CON1) (pin 2))
      (node (ref C9) (pin 2))
      (node (ref P8) (pin 1)))
    (net (code 2) (name "Net-(Q3-Pad4)")
      (node (ref R4) (pin 1))
      (node (ref Q3) (pin 4)))
    (net (code 3) (name "Net-(R4-Pad2)")
      (node (ref U3) (pin 11))
      (node (ref R4) (pin 2)))
    (net (code 4) (name "Net-(C31-Pad2)")
      (node (ref R19) (pin 2))
      (node (ref C31) (pin 2))
      (node (ref R20) (pin 1))
      (node (ref U3) (pin 4)))
    (net (code 5) (name U_POSITION3)
      (node (ref P17) (pin 3))
      (node (ref D5) (pin 1))
      (node (ref R8) (pin 1)))
    (net (code 6) (name U_POSITION1)
      (node (ref D1) (pin 1))
      (node (ref P17) (pin 4)))
    (net (code 7) (name ENABLE_STEP_DOWN)
      (node (ref U3) (pin 3))
      (node (ref R13) (pin 2))
      (node (ref R28) (pin 1)))
    (net (code 8) (name "Net-(CON1-Pad1)")
      (node (ref CON1) (pin 1))
      (node (ref D6) (pin 2)))
    (net (code 9) (name +12V)
      (node (ref C1) (pin 1))
      (node (ref R29) (pin 1))
      (node (ref D3) (pin 1))
      (node (ref C37) (pin 1))
      (node (ref C35) (pin 1))
      (node (ref P17) (pin 2))
      (node (ref R3) (pin 2))
      (node (ref C2) (pin 1))
      (node (ref P20) (pin 1))
      (node (ref J1) (pin 3))
      (node (ref Q3) (pin 7))
      (node (ref J2) (pin 1))
      (node (ref C10) (pin 1))
      (node (ref U3) (pin 2))
      (node (ref Q3) (pin 5))
      (node (ref L1) (pin 2))
      (node (ref Q3) (pin 6))
      (node (ref C36) (pin 1))
      (node (ref Q3) (pin 8)))
    (net (code 10) (name +BATT_OR_+9V)
      (node (ref J1) (pin 1))
      (node (ref D3) (pin 2)))
    (net (code 11) (name "Net-(C9-Pad1)")
      (node (ref L1) (pin 1))
      (node (ref C9) (pin 1))
      (node (ref D6) (pin 1)))
    (net (code 12) (name "Net-(R18-Pad2)")
      (node (ref U3) (pin 8))
      (node (ref R18) (pin 2)))
    (net (code 13) (name "Net-(R3-Pad1)")
      (node (ref U3) (pin 7))
      (node (ref R3) (pin 1)))
    (net (code 14) (name "Net-(Q4-Pad4)")
      (node (ref U3) (pin 13))
      (node (ref Q4) (pin 4)))
    (net (code 15) (name "Net-(C29-Pad1)")
      (node (ref Q3) (pin 3))
      (node (ref Q3) (pin 2))
      (node (ref Q3) (pin 1))
      (node (ref R18) (pin 1))
      (node (ref U3) (pin 10))
      (node (ref Q4) (pin 7))
      (node (ref Q4) (pin 8))
      (node (ref C29) (pin 1))
      (node (ref Q4) (pin 6))
      (node (ref Q4) (pin 5))
      (node (ref L7) (pin 1))
      (node (ref C32) (pin 2)))
    (net (code 16) (name "Net-(C29-Pad2)")
      (node (ref U3) (pin 12))
      (node (ref C29) (pin 2)))
    (net (code 17) (name "Net-(C30-Pad2)")
      (node (ref U3) (pin 1))
      (node (ref C30) (pin 2)))
    (net (code 18) (name "Net-(C3-Pad1)")
      (node (ref U3) (pin 6))
      (node (ref C3) (pin 1)))
    (net (code 19) (name GL_OVCUR)
      (node (ref R12) (pin 1))
      (node (ref R11) (pin 2))
      (node (ref GL850G1) (pin 21)))
    (net (code 20) (name "Net-(GL850G1-Pad17)")
      (node (ref GL850G1) (pin 17))
      (node (ref R2) (pin 2)))
    (net (code 21) (name GL_RESET)
      (node (ref R5) (pin 2))
      (node (ref R6) (pin 1))
      (node (ref GL850G1) (pin 13))
      (node (ref C15) (pin 1)))
    (net (code 22) (name "Net-(C5-Pad1)")
      (node (ref GL850G1) (pin 6))
      (node (ref Y1) (pin 1))
      (node (ref C5) (pin 1)))
    (net (code 23) (name "Net-(C6-Pad1)")
      (node (ref GL850G1) (pin 7))
      (node (ref Y1) (pin 2))
      (node (ref C6) (pin 1)))
    (net (code 24) (name VDD)
      (node (ref GL850G1) (pin 16))
      (node (ref R2) (pin 1))
      (node (ref C16) (pin 1))
      (node (ref R7) (pin 1))
      (node (ref C17) (pin 1))
      (node (ref L6) (pin 1))
      (node (ref R14) (pin 1))
      (node (ref C18) (pin 1))
      (node (ref GL850G1) (pin 24)))
    (net (code 25) (name "Net-(GL850G1-Pad18)")
      (node (ref R7) (pin 2))
      (node (ref GL850G1) (pin 18)))
    (net (code 26) (name "Net-(GL850G1-Pad4)")
      (node (ref R9) (pin 1))
      (node (ref GL850G1) (pin 4)))
    (net (code 27) (name +5V_USB_1)
      (node (ref P11) (pin 1))
      (node (ref D2) (pin 1))
      (node (ref R5) (pin 1))
      (node (ref C11) (pin 1))
      (node (ref L3) (pin 2))
      (node (ref U1) (pin 8))
      (node (ref R11) (pin 1))
      (node (ref U5) (pin 8))
      (node (ref C27) (pin 1))
      (node (ref R16) (pin 1))
      (node (ref C25) (pin 1))
      (node (ref R15) (pin 1))
      (node (ref L4) (pin 1))
      (node (ref C14) (pin 1))
      (node (ref D8) (pin 2))
      (node (ref P15) (pin 2))
      (node (ref C4) (pin 1))
      (node (ref GL850G1) (pin 23))
      (node (ref P19) (pin 1))
      (node (ref C12) (pin 1))
      (node (ref C31) (pin 1))
      (node (ref R19) (pin 1))
      (node (ref C22) (pin 1))
      (node (ref C13) (pin 1))
      (node (ref L7) (pin 2))
      (node (ref L2) (pin 2))
      (node (ref C26) (pin 2))
      (node (ref C33) (pin 1)))
    (net (code 28) (name DM4)
      (node (ref P13) (pin 2))
      (node (ref GL850G1) (pin 11))
      (node (ref U2) (pin 3))
      (node (ref U2) (pin 6)))
    (net (code 29) (name DM0)
      (node (ref P12) (pin 2))
      (node (ref GL850G1) (pin 25))
      (node (ref P14) (pin 2)))
    (net (code 30) (name DP4)
      (node (ref P13) (pin 3))
      (node (ref GL850G1) (pin 12))
      (node (ref U2) (pin 4))
      (node (ref U2) (pin 1)))
    (net (code 31) (name "Net-(C24-Pad1)")
      (node (ref C24) (pin 1))
      (node (ref U2) (pin 5))
      (node (ref L4) (pin 2))
      (node (ref P13) (pin 1)))
    (net (code 32) (name D2_-)
      (node (ref P10) (pin 2))
      (node (ref GL850G1) (pin 2)))
    (net (code 33) (name "Net-(P12-Pad6)")
      (node (ref P12) (pin 6)))
    (net (code 34) (name "Net-(P12-Pad1)")
      (node (ref P12) (pin 1)))
    (net (code 35) (name DP1)
      (node (ref P9) (pin 3))
      (node (ref GL850G1) (pin 28)))
    (net (code 36) (name D2_+)
      (node (ref P10) (pin 3))
      (node (ref GL850G1) (pin 3)))
    (net (code 37) (name DP0)
      (node (ref GL850G1) (pin 26))
      (node (ref P12) (pin 3))
      (node (ref P14) (pin 3)))
    (net (code 38) (name "Net-(GL850G1-Pad22)")
      (node (ref GL850G1) (pin 22)))
    (net (code 39) (name "Net-(GL850G1-Pad20)")
      (node (ref GL850G1) (pin 20)))
    (net (code 40) (name "Net-(GL850G1-Pad19)")
      (node (ref GL850G1) (pin 19)))
    (net (code 41) (name AVDD)
      (node (ref C23) (pin 1))
      (node (ref C21) (pin 1))
      (node (ref C20) (pin 1))
      (node (ref L6) (pin 2))
      (node (ref C19) (pin 1))
      (node (ref GL850G1) (pin 5))
      (node (ref GL850G1) (pin 10))
      (node (ref GL850G1) (pin 1)))
    (net (code 42) (name DM1)
      (node (ref GL850G1) (pin 27))
      (node (ref P9) (pin 2)))
    (net (code 43) (name "Net-(C8-Pad1)")
      (node (ref L3) (pin 1))
      (node (ref C8) (pin 1))
      (node (ref P10) (pin 1)))
    (net (code 44) (name "Net-(C7-Pad1)")
      (node (ref P9) (pin 1))
      (node (ref C7) (pin 1))
      (node (ref L2) (pin 1)))
    (net (code 45) (name DP3)
      (node (ref GL850G1) (pin 9)))
    (net (code 46) (name DM3)
      (node (ref GL850G1) (pin 8)))
    (net (code 47) (name "Net-(P14-Pad1)")
      (node (ref P14) (pin 1)))
    (net (code 48) (name "Net-(P13-Pad6)")
      (node (ref P13) (pin 6)))
    (net (code 49) (name "Net-(P14-Pad4)")
      (node (ref P14) (pin 4)))
    (net (code 50) (name "Net-(P14-Pad6)")
      (node (ref P14) (pin 6)))
    (net (code 51) (name JST_1_VENTILO)
      (node (ref Q2) (pin 3))
      (node (ref D2) (pin 2))
      (node (ref P15) (pin 1)))
    (net (code 52) (name JST_1_TEMP)
      (node (ref U5) (pin 3))
      (node (ref R15) (pin 2))
      (node (ref P15) (pin 4)))
    (net (code 53) (name "Net-(R16-Pad2)")
      (node (ref RV2) (pin 2))
      (node (ref U5) (pin 2))
      (node (ref R16) (pin 2)))
    (net (code 54) (name "Net-(Q2-Pad1)")
      (node (ref U5) (pin 7))
      (node (ref R14) (pin 2))
      (node (ref Q2) (pin 1)))
    (net (code 55) (name "Net-(U5-Pad5)")
      (node (ref U5) (pin 6))
      (node (ref U5) (pin 5)))
    (net (code 56) (name "Net-(RV2-Pad1)")
      (node (ref RV2) (pin 1)))
    (net (code 57) (name ENABLE_POWER_RPi)
      (node (ref U1) (pin 4))
      (node (ref R29) (pin 2))
      (node (ref Q1) (pin 3)))
    (net (code 58) (name "Net-(Q6-Pad1)")
      (node (ref R21) (pin 1))
      (node (ref R22) (pin 2))
      (node (ref Q6) (pin 1)))
    (net (code 59) (name "Net-(Q1-Pad1)")
      (node (ref R8) (pin 2))
      (node (ref R10) (pin 1))
      (node (ref Q1) (pin 1)))
    (net (code 60) (name "Net-(Q5-Pad1)")
      (node (ref R23) (pin 2))
      (node (ref Q5) (pin 1))
      (node (ref R24) (pin 1)))
    (net (code 61) (name "Net-(Q6-Pad3)")
      (node (ref R24) (pin 2))
      (node (ref Q6) (pin 3)))
    (net (code 62) (name "Net-(P11-Pad3)")
      (node (ref P11) (pin 3)))
    (net (code 63) (name "Net-(P11-Pad2)")
      (node (ref P11) (pin 2)))
    (net (code 64) (name "Net-(D1-Pad3)")
      (node (ref D1) (pin 3))
      (node (ref R13) (pin 1))
      (node (ref D5) (pin 3)))
    (net (code 65) (name CMD_INTER_ON)
      (node (ref U1) (pin 3))
      (node (ref R1) (pin 1))
      (node (ref R21) (pin 2)))
    (net (code 66) (name "Net-(D4-Pad2)")
      (node (ref R25) (pin 2))
      (node (ref D4) (pin 2)))
    (net (code 67) (name V_PI)
      (node (ref R25) (pin 1))
      (node (ref P18) (pin 1))
      (node (ref Q5) (pin 2)))
    (net (code 68) (name "Net-(D8-Pad1)")
      (node (ref R23) (pin 1))
      (node (ref J2) (pin 2))
      (node (ref D8) (pin 1))
      (node (ref Q5) (pin 3)))
    (net (code 69) (name "Net-(C28-Pad2)")
      (node (ref C28) (pin 2))
      (node (ref U1) (pin 5)))
    (net (code 70) (name "Net-(C26-Pad1)")
      (node (ref R17) (pin 1))
      (node (ref C26) (pin 1))
      (node (ref U1) (pin 2))
      (node (ref U1) (pin 6)))
    (net (code 71) (name "Net-(U1-Pad7)")
      (node (ref U1) (pin 7)))
    (net (code 72) (name TMDS_CL_N)
      (node (ref U6) (pin 12))
      (node (ref MOLEX-5051) (pin 12)))
    (net (code 73) (name TMDS_CL_GND)
      (node (ref MOLEX-5051) (pin 11))
      (node (ref U6) (pin 11)))
    (net (code 74) (name TMDS_CL_P)
      (node (ref MOLEX-5051) (pin 10))
      (node (ref U6) (pin 10)))
    (net (code 75) (name TDMS_Ch0_N)
      (node (ref MOLEX-5051) (pin 9))
      (node (ref U6) (pin 9)))
    (net (code 76) (name +5V_HDMI)
      (node (ref MOLEX-5051) (pin 18))
      (node (ref U6) (pin 18)))
    (net (code 77) (name CEC)
      (node (ref MOLEX-5051) (pin 13))
      (node (ref U6) (pin 13)))
    (net (code 78) (name HEAC-)
      (node (ref MOLEX-5051) (pin 14))
      (node (ref U6) (pin 14)))
    (net (code 79) (name SCL)
      (node (ref U6) (pin 15))
      (node (ref MOLEX-5051) (pin 15)))
    (net (code 80) (name SDA)
      (node (ref MOLEX-5051) (pin 16))
      (node (ref U6) (pin 16)))
    (net (code 81) (name DDC_EEC_G)
      (node (ref MOLEX-5051) (pin 17))
      (node (ref U6) (pin 17)))
    (net (code 82) (name HEAC)
      (node (ref MOLEX-5051) (pin 20))
      (node (ref U6) (pin 19))
      (node (ref MOLEX-5051) (pin 19)))
    (net (code 83) (name TDMS_Ch0_GND)
      (node (ref U6) (pin 8))
      (node (ref MOLEX-5051) (pin 8)))
    (net (code 84) (name TDMS_Ch0_P)
      (node (ref U6) (pin 7))
      (node (ref MOLEX-5051) (pin 7)))
    (net (code 85) (name TDMS_Ch1_N)
      (node (ref U6) (pin 6))
      (node (ref MOLEX-5051) (pin 6)))
    (net (code 86) (name TDMS_Ch1_GND)
      (node (ref MOLEX-5051) (pin 5))
      (node (ref U6) (pin 5)))
    (net (code 87) (name TDMS_Ch1_P)
      (node (ref MOLEX-5051) (pin 4))
      (node (ref U6) (pin 4)))
    (net (code 88) (name TDMS_Ch2_N)
      (node (ref U6) (pin 3))
      (node (ref MOLEX-5051) (pin 3)))
    (net (code 89) (name TDMS_Ch2_GND)
      (node (ref MOLEX-5051) (pin 2))
      (node (ref U6) (pin 2)))
    (net (code 90) (name TDMS_Ch2_P)
      (node (ref MOLEX-5051) (pin 1))
      (node (ref U6) (pin 1)))))