EESchema Schematic File Version 4
EELAYER 30 0
EELAYER END
$Descr A4 11693 8268
encoding utf-8
Sheet 3 7
Title "Carte mere Diskio Pi"
Date "09/05/2018"
Rev "0.1"
Comp ""
Comment1 ""
Comment2 ""
Comment3 ""
Comment4 ""
$EndDescr
$Comp
L CarteMere-rescue:GL850G-SSOP-28 GL850G1
U 1 1 5AC723C4
P 5100 2450
F 0 "GL850G1" H 5550 2650 60  0000 C CNN
F 1 "GL850G-SSOP-28" H 5550 950 60  0000 C CNN
F 2 "diskioPi:GL850G" H 5550 2650 60  0001 C CNN
F 3 "" H 5550 2650 60  0001 C CNN
F 4 "GL850G" H 5100 2450 60  0001 C CNN "Réf fab"
F 5 "Value" H 5100 2450 60  0001 C CNN "Code commande"
F 6 "Aliexpress" H 5100 2450 60  0001 C CNN "Distributeur"
F 7 "0,237" H 5100 2450 60  0001 C CNN "Prix"
	1    5100 2450
	1    0    0    -1  
$EndComp
$Comp
L CarteMere-rescue:USB_A P9
U 1 1 5AD44DBB
P 9500 1600
F 0 "P9" H 9700 1400 50  0000 C CNN
F 1 "USB_A" H 9450 1800 50  0000 C CNN
F 2 "lib_CarteFille:USB-A-S-RA-TSMT" V 9450 1500 50  0001 C CNN
F 3 "" V 9450 1500 50  0000 C CNN
F 4 "USB-A-S-RA-TSMT " H 9500 1600 60  0001 C CNN "Réf fab"
F 5 "2112370" H 9500 1600 60  0001 C CNN "Code commande"
F 6 "Farnell" H 9500 1600 60  0001 C CNN "Distributeur"
F 7 "0,527" H 9500 1600 60  0001 C CNN "Prix"
	1    9500 1600
	0    1    1    0   
$EndComp
$Comp
L CarteMere-rescue:GND #PWR020
U 1 1 5AD44ED9
P 9150 1800
F 0 "#PWR020" H 9150 1550 50  0001 C CNN
F 1 "GND" H 9150 1650 50  0000 C CNN
F 2 "" H 9150 1800 50  0000 C CNN
F 3 "" H 9150 1800 50  0000 C CNN
	1    9150 1800
	1    0    0    -1  
$EndComp
Text GLabel 6250 2450 2    39   Input ~ 8
DP1
Text GLabel 6250 2550 2    39   Input ~ 8
DM1
Text GLabel 9100 1600 0    39   Input ~ 8
DP1
Text GLabel 9100 1500 0    39   Input ~ 8
DM1
$Comp
L CarteMere-rescue:USB_A P10
U 1 1 5AD4666A
P 9500 3450
F 0 "P10" H 9700 3250 50  0000 C CNN
F 1 "USB_A" H 9450 3650 50  0000 C CNN
F 2 "lib_CarteFille:USB-A-S-RA-TSMT" V 9450 3350 50  0001 C CNN
F 3 "" V 9450 3350 50  0000 C CNN
F 4 "USB-A-S-RA-TSMT " H 9500 3450 60  0001 C CNN "Réf fab"
F 5 "2112370" H 9500 3450 60  0001 C CNN "Code commande"
F 6 "Farnell" H 9500 3450 60  0001 C CNN "Distributeur"
F 7 "0,527" H 9500 3450 60  0001 C CNN "Prix"
	1    9500 3450
	0    1    1    0   
$EndComp
$Comp
L CarteMere-rescue:GND #PWR021
U 1 1 5AD4667A
P 9150 3650
F 0 "#PWR021" H 9150 3400 50  0001 C CNN
F 1 "GND" H 9150 3500 50  0000 C CNN
F 2 "" H 9150 3650 50  0000 C CNN
F 3 "" H 9150 3650 50  0000 C CNN
	1    9150 3650
	1    0    0    -1  
$EndComp
Text GLabel 9050 3450 0    39   Input ~ 8
D2_+
Text GLabel 4800 2550 0    39   Input ~ 8
D2_-
Text GLabel 4800 2650 0    39   Input ~ 8
D2_+
Text GLabel 4800 3150 0    39   Input ~ 8
DM3
Text GLabel 4800 3250 0    39   Input ~ 8
DP3
$Comp
L CarteMere-rescue:Crystal Y1
U 1 1 5AD4809E
P 3950 3300
F 0 "Y1" H 3950 3450 50  0000 C CNN
F 1 "Crystal" H 3950 3150 50  0000 C CNN
F 2 "diskioPi:QCL12.0000F18B23B" H 3950 3300 50  0001 C CNN
F 3 "" H 3950 3300 50  0000 C CNN
F 4 "QCL12.0000F18B23B " H 3950 3300 60  0001 C CNN "Réf fab"
F 5 "2508453" H 3950 3300 60  0001 C CNN "Code commande"
F 6 "Farnell" H 3950 3300 60  0001 C CNN "Distributeur"
F 7 "0,185" H 3950 3300 60  0001 C CNN "Prix"
	1    3950 3300
	1    0    0    -1  
$EndComp
$Comp
L CarteMere-rescue:C C5
U 1 1 5AD48563
P 3800 3650
F 0 "C5" H 3825 3750 50  0000 L CNN
F 1 "33pF" H 3825 3550 50  0000 L CNN
F 2 "Capacitors_SMD:C_0805_HandSoldering" H 3838 3500 50  0001 C CNN
F 3 "" H 3800 3650 50  0000 C CNN
F 4 "0805N330J500CT" H 3800 3650 60  0001 C CNN "Réf fab"
F 5 "2497030" H 3800 3650 60  0001 C CNN "Code commande"
F 6 "Farnell" H 3800 3650 60  0001 C CNN "Distributeur"
F 7 "0,0912" H 3800 3650 60  0001 C CNN "Prix"
	1    3800 3650
	1    0    0    -1  
$EndComp
$Comp
L CarteMere-rescue:C C6
U 1 1 5AD485EB
P 4100 3650
F 0 "C6" H 4125 3750 50  0000 L CNN
F 1 "33pF" H 4125 3550 50  0000 L CNN
F 2 "Capacitors_SMD:C_0805_HandSoldering" H 4138 3500 50  0001 C CNN
F 3 "" H 4100 3650 50  0000 C CNN
F 4 "0805N330J500CT" H 4100 3650 60  0001 C CNN "Réf fab"
F 5 "2497030" H 4100 3650 60  0001 C CNN "Code commande"
F 6 "Farnell" H 4100 3650 60  0001 C CNN "Distributeur"
F 7 "0,0912" H 4100 3650 60  0001 C CNN "Prix"
	1    4100 3650
	1    0    0    -1  
$EndComp
$Comp
L CarteMere-rescue:GND #PWR026
U 1 1 5AD48824
P 3800 3950
F 0 "#PWR026" H 3800 3700 50  0001 C CNN
F 1 "GND" H 3800 3800 50  0000 C CNN
F 2 "" H 3800 3950 50  0000 C CNN
F 3 "" H 3800 3950 50  0000 C CNN
	1    3800 3950
	1    0    0    -1  
$EndComp
Text GLabel 4450 2300 0    39   Input ~ 8
AVDD
$Comp
L CarteMere-rescue:R R5
U 1 1 5AD49482
P 4700 4750
F 0 "R5" V 4780 4750 50  0000 C CNN
F 1 "10k" V 4700 4750 50  0000 C CNN
F 2 "Resistors_SMD:R_0805_HandSoldering" V 4630 4750 50  0001 C CNN
F 3 "" H 4700 4750 50  0000 C CNN
F 4 "MCWR08X1002FTL" H 4700 4750 60  0001 C CNN "Réf fab"
F 5 "2447553" H 4700 4750 60  0001 C CNN "Code commande"
F 6 "Farnell" H 4700 4750 60  0001 C CNN "Distributeur"
F 7 "0,0101" H 4700 4750 60  0001 C CNN "Prix"
	1    4700 4750
	1    0    0    -1  
$EndComp
$Comp
L CarteMere-rescue:C C15
U 1 1 5AD496C5
P 4700 5150
F 0 "C15" H 4725 5250 50  0000 L CNN
F 1 "1uF" H 4725 5050 50  0000 L CNN
F 2 "Capacitors_SMD:C_0805_HandSoldering" H 4738 5000 50  0001 C CNN
F 3 "" H 4700 5150 50  0000 C CNN
F 4 "MC0805F105Z500CT" H 4700 5150 60  0001 C CNN "Réf fab"
F 5 "1759432" H 4700 5150 60  0001 C CNN "Code commande"
F 6 "Farnell" H 4700 5150 60  0001 C CNN "Distributeur"
F 7 "0,0828" H 4700 5150 60  0001 C CNN "Prix"
	1    4700 5150
	1    0    0    -1  
$EndComp
$Comp
L CarteMere-rescue:R R6
U 1 1 5AD4988A
P 5050 5150
F 0 "R6" V 5130 5150 50  0000 C CNN
F 1 "47k" V 5050 5150 50  0000 C CNN
F 2 "Resistors_SMD:R_0805_HandSoldering" V 4980 5150 50  0001 C CNN
F 3 "" H 5050 5150 50  0000 C CNN
F 4 "MCWR08X4702FTL" H 5050 5150 60  0001 C CNN "Réf fab"
F 5 "2447664" H 5050 5150 60  0001 C CNN "Code commande"
F 6 "Farnell" H 5050 5150 60  0001 C CNN "Distributeur"
F 7 "0,0097" H 5050 5150 60  0001 C CNN "Prix"
	1    5050 5150
	1    0    0    -1  
$EndComp
$Comp
L CarteMere-rescue:GND #PWR027
U 1 1 5AD49A0F
P 4700 5400
F 0 "#PWR027" H 4700 5150 50  0001 C CNN
F 1 "GND" H 4700 5250 50  0000 C CNN
F 2 "" H 4700 5400 50  0000 C CNN
F 3 "" H 4700 5400 50  0000 C CNN
	1    4700 5400
	1    0    0    -1  
$EndComp
Text GLabel 4800 3650 0    39   Input ~ 8
GL_RESET
Text GLabel 4550 4950 0    39   Input ~ 8
GL_RESET
$Comp
L CarteMere-rescue:R R7
U 1 1 5AD4B174
P 7150 3100
F 0 "R7" V 7230 3100 50  0000 C CNN
F 1 "47K" V 7150 3100 50  0000 C CNN
F 2 "Resistors_SMD:R_0805_HandSoldering" V 7080 3100 50  0001 C CNN
F 3 "" H 7150 3100 50  0000 C CNN
F 4 "MCWR08X4702FTL" H 7150 3100 60  0001 C CNN "Réf fab"
F 5 "2447664" H 7150 3100 60  0001 C CNN "Code commande"
F 6 "Farnell" H 7150 3100 60  0001 C CNN "Distributeur"
F 7 "0,0097" H 7150 3100 60  0001 C CNN "Prix"
	1    7150 3100
	1    0    0    -1  
$EndComp
$Comp
L CarteMere-rescue:CP C16
U 1 1 5AD4C24E
P 4400 1350
F 0 "C16" H 4425 1450 50  0000 L CNN
F 1 "10uF" H 4425 1250 50  0000 L CNN
F 2 "Capacitors_SMD:C_0805_HandSoldering" H 4438 1200 50  0001 C CNN
F 3 "" H 4400 1350 50  0000 C CNN
F 4 "C2012X5R1C106K085AC" H 4400 1350 60  0001 C CNN "Réf fab"
F 5 "2346924" H 4400 1350 60  0001 C CNN "Code commande"
F 6 "Farnell" H 4400 1350 60  0001 C CNN "Distributeur"
F 7 "0,199" H 4400 1350 60  0001 C CNN "Prix"
	1    4400 1350
	1    0    0    -1  
$EndComp
$Comp
L CarteMere-rescue:C C17
U 1 1 5AD4C55A
P 4750 1350
F 0 "C17" H 4775 1450 50  0000 L CNN
F 1 "100nF" H 4775 1250 50  0000 L CNN
F 2 "Capacitors_SMD:C_0805_HandSoldering" H 4788 1200 50  0001 C CNN
F 3 "" H 4750 1350 50  0000 C CNN
F 4 "C0805C104Z3VACTU" H 4750 1350 60  0001 C CNN "Réf fab"
F 5 "2522443" H 4750 1350 60  0001 C CNN "Code commande"
F 6 "Farnell" H 4750 1350 60  0001 C CNN "Distributeur"
F 7 "0,0464" H 4750 1350 60  0001 C CNN "Prix"
	1    4750 1350
	1    0    0    -1  
$EndComp
$Comp
L CarteMere-rescue:C C18
U 1 1 5AD4C93B
P 5000 1350
F 0 "C18" H 5025 1450 50  0000 L CNN
F 1 "100nF" H 5025 1250 50  0000 L CNN
F 2 "Capacitors_SMD:C_0805_HandSoldering" H 5038 1200 50  0001 C CNN
F 3 "" H 5000 1350 50  0000 C CNN
F 4 "C0805C104Z3VACTU" H 5000 1350 60  0001 C CNN "Réf fab"
F 5 "2522443" H 5000 1350 60  0001 C CNN "Code commande"
F 6 "Farnell" H 5000 1350 60  0001 C CNN "Distributeur"
F 7 "0,0464" H 5000 1350 60  0001 C CNN "Prix"
	1    5000 1350
	1    0    0    -1  
$EndComp
$Comp
L CarteMere-rescue:GND #PWR028
U 1 1 5AD4CB4B
P 4400 1600
F 0 "#PWR028" H 4400 1350 50  0001 C CNN
F 1 "GND" H 4400 1450 50  0000 C CNN
F 2 "" H 4400 1600 50  0000 C CNN
F 3 "" H 4400 1600 50  0000 C CNN
	1    4400 1600
	1    0    0    -1  
$EndComp
$Comp
L CarteMere-rescue:C C19
U 1 1 5AD4D255
P 5500 1350
F 0 "C19" H 5525 1450 50  0000 L CNN
F 1 "100nF" H 5525 1250 50  0000 L CNN
F 2 "Capacitor_SMD:C_0805_2012Metric" H 5538 1200 50  0001 C CNN
F 3 "" H 5500 1350 50  0000 C CNN
F 4 "C0805C104Z3VACTU" H 5500 1350 60  0001 C CNN "Réf fab"
F 5 "2522443" H 5500 1350 60  0001 C CNN "Code commande"
F 6 "Farnell" H 5500 1350 60  0001 C CNN "Distributeur"
F 7 "0,0464" H 5500 1350 60  0001 C CNN "Prix"
	1    5500 1350
	1    0    0    -1  
$EndComp
$Comp
L CarteMere-rescue:C C20
U 1 1 5AD4D2D8
P 5750 1350
F 0 "C20" H 5775 1450 50  0000 L CNN
F 1 "100nF" H 5775 1250 50  0000 L CNN
F 2 "Capacitor_SMD:C_0805_2012Metric" H 5788 1200 50  0001 C CNN
F 3 "" H 5750 1350 50  0000 C CNN
F 4 "C0805C104Z3VACTU" H 5750 1350 60  0001 C CNN "Réf fab"
F 5 "2522443" H 5750 1350 60  0001 C CNN "Code commande"
F 6 "Farnell" H 5750 1350 60  0001 C CNN "Distributeur"
F 7 "0,0464" H 5750 1350 60  0001 C CNN "Prix"
	1    5750 1350
	1    0    0    -1  
$EndComp
$Comp
L CarteMere-rescue:C C21
U 1 1 5AD4D346
P 6000 1350
F 0 "C21" H 6025 1450 50  0000 L CNN
F 1 "100nF" H 6025 1250 50  0000 L CNN
F 2 "Capacitor_SMD:C_0805_2012Metric" H 6038 1200 50  0001 C CNN
F 3 "" H 6000 1350 50  0000 C CNN
F 4 "C0805C104Z3VACTU" H 6000 1350 60  0001 C CNN "Réf fab"
F 5 "2522443" H 6000 1350 60  0001 C CNN "Code commande"
F 6 "Farnell" H 6000 1350 60  0001 C CNN "Distributeur"
F 7 "0,0464" H 6000 1350 60  0001 C CNN "Prix"
	1    6000 1350
	1    0    0    -1  
$EndComp
$Comp
L CarteMere-rescue:GND #PWR029
U 1 1 5AD4D61D
P 5500 1600
F 0 "#PWR029" H 5500 1350 50  0001 C CNN
F 1 "GND" H 5500 1450 50  0000 C CNN
F 2 "" H 5500 1600 50  0000 C CNN
F 3 "" H 5500 1600 50  0000 C CNN
	1    5500 1600
	1    0    0    -1  
$EndComp
$Comp
L CarteMere-rescue:CP C23
U 1 1 5AD4D7E5
P 6600 1350
F 0 "C23" H 6625 1450 50  0000 L CNN
F 1 "10uF" H 6625 1250 50  0000 L CNN
F 2 "Capacitors_SMD:C_0805_HandSoldering" H 6638 1200 50  0001 C CNN
F 3 "" H 6600 1350 50  0000 C CNN
F 4 "C2012X5R1C106K085AC" H 6600 1350 60  0001 C CNN "Réf fab"
F 5 "2346924" H 6600 1350 60  0001 C CNN "Code commande"
F 6 "Farnell" H 6600 1350 60  0001 C CNN "Distributeur"
F 7 "0,199" H 6600 1350 60  0001 C CNN "Prix"
	1    6600 1350
	1    0    0    -1  
$EndComp
Text GLabel 6300 1000 2    39   Input ~ 8
AVDD
$Comp
L CarteMere-rescue:GND #PWR030
U 1 1 5AD4E86D
P 6200 3800
F 0 "#PWR030" H 6200 3550 50  0001 C CNN
F 1 "GND" H 6200 3650 50  0000 C CNN
F 2 "" H 6200 3800 50  0000 C CNN
F 3 "" H 6200 3800 50  0000 C CNN
	1    6200 3800
	1    0    0    -1  
$EndComp
$Comp
L CarteMere-rescue:R R9
U 1 1 5AD4EDD8
P 4700 2750
F 0 "R9" V 4780 2750 50  0000 C CNN
F 1 "680" V 4700 2750 50  0000 C CNN
F 2 "Resistors_SMD:R_0805_HandSoldering" V 4630 2750 50  0001 C CNN
F 3 "" H 4700 2750 50  0000 C CNN
F 4 "MCWR08X6800FTL" H 4700 2750 60  0001 C CNN "Réf fab"
F 5 "2447705" H 4700 2750 60  0001 C CNN "Code commande"
F 6 "Farnell" H 4700 2750 60  0001 C CNN "Distributeur"
F 7 "0,0097" H 4700 2750 60  0001 C CNN "Prix"
	1    4700 2750
	0    1    1    0   
$EndComp
$Comp
L CarteMere-rescue:GND #PWR031
U 1 1 5AD4F12D
P 4250 2750
F 0 "#PWR031" H 4250 2500 50  0001 C CNN
F 1 "GND" H 4250 2600 50  0000 C CNN
F 2 "" H 4250 2750 50  0000 C CNN
F 3 "" H 4250 2750 50  0000 C CNN
	1    4250 2750
	0    1    1    0   
$EndComp
$Comp
L CarteMere-rescue:C C8
U 1 1 5AD5824F
P 9500 2800
F 0 "C8" H 9525 2900 50  0000 L CNN
F 1 "100nF" H 9525 2700 50  0000 L CNN
F 2 "Capacitors_SMD:C_0805_HandSoldering" H 9538 2650 50  0001 C CNN
F 3 "" H 9500 2800 50  0000 C CNN
F 4 "C0805C104Z3VACTU" H 9500 2800 60  0001 C CNN "Réf fab"
F 5 "2522443" H 9500 2800 60  0001 C CNN "Code commande"
F 6 "Farnell" H 9500 2800 60  0001 C CNN "Distributeur"
F 7 "0,0464" H 9500 2800 60  0001 C CNN "Prix"
	1    9500 2800
	1    0    0    -1  
$EndComp
$Comp
L CarteMere-rescue:GND #PWR032
U 1 1 5AD58255
P 9500 2950
F 0 "#PWR032" H 9500 2700 50  0001 C CNN
F 1 "GND" H 9500 2800 50  0000 C CNN
F 2 "" H 9500 2950 50  0000 C CNN
F 3 "" H 9500 2950 50  0000 C CNN
	1    9500 2950
	1    0    0    -1  
$EndComp
$Comp
L CarteMere-rescue:CP C12
U 1 1 5AD5825F
P 9950 2800
F 0 "C12" H 9975 2900 50  0000 L CNN
F 1 "10uF" H 9975 2700 50  0000 L CNN
F 2 "Capacitors_SMD:C_0805_HandSoldering" H 9988 2650 50  0001 C CNN
F 3 "" H 9950 2800 50  0000 C CNN
F 4 "C2012X5R1C106K085AC" H 9950 2800 60  0001 C CNN "Réf fab"
F 5 "2346924" H 9950 2800 60  0001 C CNN "Code commande"
F 6 "Farnell" H 9950 2800 60  0001 C CNN "Distributeur"
F 7 "0,199" H 9950 2800 60  0001 C CNN "Prix"
	1    9950 2800
	1    0    0    -1  
$EndComp
$Comp
L CarteMere-rescue:GND #PWR033
U 1 1 5AD58265
P 9950 2950
F 0 "#PWR033" H 9950 2700 50  0001 C CNN
F 1 "GND" H 9950 2800 50  0000 C CNN
F 2 "" H 9950 2950 50  0000 C CNN
F 3 "" H 9950 2950 50  0000 C CNN
	1    9950 2950
	1    0    0    -1  
$EndComp
$Comp
L CarteMere-rescue:C C7
U 1 1 5AD587A6
P 9500 950
F 0 "C7" H 9525 1050 50  0000 L CNN
F 1 "100nF" H 9525 850 50  0000 L CNN
F 2 "Capacitors_SMD:C_0805_HandSoldering" H 9538 800 50  0001 C CNN
F 3 "" H 9500 950 50  0000 C CNN
F 4 "C0805C104Z3VACTU" H 9500 950 60  0001 C CNN "Réf fab"
F 5 "2522443" H 9500 950 60  0001 C CNN "Code commande"
F 6 "Farnell" H 9500 950 60  0001 C CNN "Distributeur"
F 7 "0,0464" H 9500 950 60  0001 C CNN "Prix"
	1    9500 950 
	1    0    0    -1  
$EndComp
$Comp
L CarteMere-rescue:GND #PWR034
U 1 1 5AD587AC
P 9500 1100
F 0 "#PWR034" H 9500 850 50  0001 C CNN
F 1 "GND" H 9500 950 50  0000 C CNN
F 2 "" H 9500 1100 50  0000 C CNN
F 3 "" H 9500 1100 50  0000 C CNN
	1    9500 1100
	1    0    0    -1  
$EndComp
$Comp
L CarteMere-rescue:CP C11
U 1 1 5AD587B6
P 9950 950
F 0 "C11" H 9975 1050 50  0000 L CNN
F 1 "10uF" H 9975 850 50  0000 L CNN
F 2 "Capacitors_SMD:C_0805_HandSoldering" H 9988 800 50  0001 C CNN
F 3 "" H 9950 950 50  0000 C CNN
F 4 "C2012X5R1C106K085AC" H 9950 950 60  0001 C CNN "Réf fab"
F 5 "2346924" H 9950 950 60  0001 C CNN "Code commande"
F 6 "Farnell" H 9950 950 60  0001 C CNN "Distributeur"
F 7 "0,199" H 9950 950 60  0001 C CNN "Prix"
	1    9950 950 
	1    0    0    -1  
$EndComp
$Comp
L CarteMere-rescue:GND #PWR035
U 1 1 5AD587BC
P 9950 1100
F 0 "#PWR035" H 9950 850 50  0001 C CNN
F 1 "GND" H 9950 950 50  0000 C CNN
F 2 "" H 9950 1100 50  0000 C CNN
F 3 "" H 9950 1100 50  0000 C CNN
	1    9950 1100
	1    0    0    -1  
$EndComp
$Comp
L CarteMere-rescue:L_Small L2
U 1 1 5AD587C2
P 9750 800
F 0 "L2" H 9780 840 50  0000 L CNN
F 1 "L_Small" H 9780 760 50  0000 L CNN
F 2 "Resistors_SMD:R_0805_HandSoldering" H 9750 800 50  0001 C CNN
F 3 "" H 9750 800 50  0000 C CNN
F 4 "2508056017Y2" H 9750 800 60  0001 C CNN "Réf fab"
F 5 "1838838" H 9750 800 60  0001 C CNN "Code commande"
F 6 "Farnell" H 9750 800 60  0001 C CNN "Distributeur"
F 7 "0,138" H 9750 800 60  0001 C CNN "Prix"
	1    9750 800 
	0    -1   -1   0   
$EndComp
Text GLabel 10250 800  2    39   Input ~ 8
+5V_USB_1
$Comp
L CarteMere-rescue:USB_A P13
U 1 1 5AD5A7F9
P 10250 5350
F 0 "P13" H 10450 5150 50  0000 C CNN
F 1 "USB_A" H 10200 5550 50  0000 C CNN
F 2 "diskioPi:B4B-PH-SM4-TB(LF)(SN)" V 10200 5250 50  0001 C CNN
F 3 "" V 10200 5250 50  0000 C CNN
F 4 "B4B-PH-SM4-TB(LF)(SN)" H 10250 5350 60  0001 C CNN "Réf fab"
F 5 "9491929" H 10250 5350 60  0001 C CNN "Code commande"
F 6 "Farnell" H 10250 5350 60  0001 C CNN "Distributeur"
F 7 "0,689" H 10250 5350 60  0001 C CNN "Prix"
	1    10250 5350
	0    1    1    0   
$EndComp
$Comp
L CarteMere-rescue:GND #PWR038
U 1 1 5AD5A7FF
P 9900 5550
F 0 "#PWR038" H 9900 5300 50  0001 C CNN
F 1 "GND" H 9900 5400 50  0000 C CNN
F 2 "" H 9900 5550 50  0000 C CNN
F 3 "" H 9900 5550 50  0000 C CNN
	1    9900 5550
	1    0    0    -1  
$EndComp
Text GLabel 1300 1450 0    39   Input ~ 8
DP0
$Comp
L CarteMere-rescue:USB_A P14
U 1 1 5AD5AFEE
P 1850 2900
F 0 "P14" H 2050 2700 50  0000 C CNN
F 1 "USB_A" H 1800 3100 50  0000 C CNN
F 2 "lib_CarteFille:10033526-N3212LF" V 1800 2800 50  0001 C CNN
F 3 "" V 1800 2800 50  0000 C CNN
F 4 "10033526-N3212LF" H 1850 2900 60  0001 C CNN "Réf fab"
F 5 "2886145" H 1850 2900 60  0001 C CNN "Code commande"
F 6 "Farnell" H 1850 2900 60  0001 C CNN "Distributeur"
F 7 "0,459" H 1850 2900 60  0001 C CNN "Prix"
	1    1850 2900
	0    1    1    0   
$EndComp
$Comp
L CarteMere-rescue:R R11
U 1 1 5AD5BE5D
P 6250 5550
F 0 "R11" V 6330 5550 50  0000 C CNN
F 1 "30k" V 6250 5550 50  0000 C CNN
F 2 "Resistors_SMD:R_0805_HandSoldering" V 6180 5550 50  0001 C CNN
F 3 "" H 6250 5550 50  0000 C CNN
F 4 "MCMR08X303 JTL " H 6250 5550 60  0001 C CNN "Réf fab"
F 5 "2073736" H 6250 5550 60  0001 C CNN "Code commande"
F 6 "Farnell" H 6250 5550 60  0001 C CNN "Distributeur"
F 7 "0,0105" H 6250 5550 60  0001 C CNN "Prix"
	1    6250 5550
	1    0    0    -1  
$EndComp
$Comp
L CarteMere-rescue:R R12
U 1 1 5AD5C16E
P 6250 5950
F 0 "R12" V 6330 5950 50  0000 C CNN
F 1 "30k" V 6250 5950 50  0000 C CNN
F 2 "Resistors_SMD:R_0805_HandSoldering" V 6180 5950 50  0001 C CNN
F 3 "" H 6250 5950 50  0000 C CNN
F 4 "MCMR08X303 JTL " H 6250 5950 60  0001 C CNN "Réf fab"
F 5 "2073736" H 6250 5950 60  0001 C CNN "Code commande"
F 6 "Farnell" H 6250 5950 60  0001 C CNN "Distributeur"
F 7 "0,0105" H 6250 5950 60  0001 C CNN "Prix"
	1    6250 5950
	1    0    0    -1  
$EndComp
$Comp
L CarteMere-rescue:GND #PWR040
U 1 1 5AD5C3B2
P 6250 6150
F 0 "#PWR040" H 6250 5900 50  0001 C CNN
F 1 "GND" H 6250 6000 50  0000 C CNN
F 2 "" H 6250 6150 50  0000 C CNN
F 3 "" H 6250 6150 50  0000 C CNN
	1    6250 6150
	1    0    0    -1  
$EndComp
Text GLabel 6150 5750 0    39   Input ~ 8
GL_OVCUR
Text GLabel 6250 3150 2    39   Input ~ 8
GL_OVCUR
$Comp
L CarteMere-rescue:DVDD-LIB_CARTE_MERE_DISKIOPI #PWR041
U 1 1 5AD624C6
P 4400 1000
F 0 "#PWR041" H 4400 850 50  0001 C CNN
F 1 "DVDD" H 4400 1150 50  0000 C CNN
F 2 "" H 4400 1000 50  0000 C CNN
F 3 "" H 4400 1000 50  0000 C CNN
	1    4400 1000
	1    0    0    -1  
$EndComp
$Comp
L CarteMere-rescue:DVDD #PWR042
U 1 1 5AD62B5D
P 6650 2850
F 0 "#PWR042" H 6650 2700 50  0001 C CNN
F 1 "DVDD" H 6650 3000 50  0000 C CNN
F 2 "" H 6650 2850 50  0000 C CNN
F 3 "" H 6650 2850 50  0000 C CNN
	1    6650 2850
	1    0    0    -1  
$EndComp
$Comp
L CarteMere-rescue:DVDD #PWR043
U 1 1 5AD63588
P 7150 2900
F 0 "#PWR043" H 7150 2750 50  0001 C CNN
F 1 "DVDD" H 7150 3050 50  0000 C CNN
F 2 "" H 7150 2900 50  0000 C CNN
F 3 "" H 7150 2900 50  0000 C CNN
	1    7150 2900
	1    0    0    -1  
$EndComp
Text Notes 1250 1050 0    79   ~ 16
 USB IN (JST venant du PI)
Text Notes 6200 3250 0    39   ~ 8
NC
Text Notes 6200 3350 0    39   ~ 8
NC
Text Notes 6250 900  0    79   ~ 16
+3.3V
Text Notes 3850 900  0    79   ~ 16
+3.3V
Text Notes 10000 1600 0    79   ~ 16
USB out 3
Text Notes 9900 3500 0    79   ~ 16
USB out 2
$Comp
L CarteMere-rescue:GND #PWR044
U 1 1 5AE03A07
P 9600 1950
F 0 "#PWR044" H 9600 1700 50  0001 C CNN
F 1 "GND" H 9600 1800 50  0000 C CNN
F 2 "" H 9600 1950 50  0000 C CNN
F 3 "" H 9600 1950 50  0000 C CNN
	1    9600 1950
	1    0    0    -1  
$EndComp
$Comp
L CarteMere-rescue:GND #PWR045
U 1 1 5AE03AAB
P 9600 3800
F 0 "#PWR045" H 9600 3550 50  0001 C CNN
F 1 "GND" H 9600 3650 50  0000 C CNN
F 2 "" H 9600 3800 50  0000 C CNN
F 3 "" H 9600 3800 50  0000 C CNN
	1    9600 3800
	1    0    0    -1  
$EndComp
$Comp
L CarteMere-rescue:L_Small L3
U 1 1 5AE05F0C
P 9750 2650
F 0 "L3" H 9780 2690 50  0000 L CNN
F 1 "L_Small" H 9780 2610 50  0000 L CNN
F 2 "Resistors_SMD:R_0805_HandSoldering" H 9750 2650 50  0001 C CNN
F 3 "" H 9750 2650 50  0000 C CNN
F 4 "2508056017Y2" H 9750 2650 60  0001 C CNN "Réf fab"
F 5 "1838838" H 9750 2650 60  0001 C CNN "Code commande"
F 6 "Farnell" H 9750 2650 60  0001 C CNN "Distributeur"
F 7 "0,138" H 9750 2650 60  0001 C CNN "Prix"
	1    9750 2650
	0    -1   -1   0   
$EndComp
$Comp
L CarteMere-rescue:L_Small L6
U 1 1 5AE07659
P 5300 1150
F 0 "L6" H 5330 1190 50  0000 L CNN
F 1 "L_Small" H 5330 1110 50  0000 L CNN
F 2 "Resistors_SMD:R_0805_HandSoldering" H 5300 1150 50  0001 C CNN
F 3 "" H 5300 1150 50  0000 C CNN
F 4 "2508056017Y2" H 5300 1150 60  0001 C CNN "Réf fab"
F 5 "1838838" H 5300 1150 60  0001 C CNN "Code commande"
F 6 "Farnell" H 5300 1150 60  0001 C CNN "Distributeur"
F 7 "0,138" H 5300 1150 60  0001 C CNN "Prix"
	1    5300 1150
	0    -1   -1   0   
$EndComp
$Comp
L CarteMere-rescue:GND #PWR048
U 1 1 5AE0EF85
P 1950 3200
F 0 "#PWR048" H 1950 2950 50  0001 C CNN
F 1 "GND" H 1950 3050 50  0000 C CNN
F 2 "" H 1950 3200 50  0000 C CNN
F 3 "" H 1950 3200 50  0000 C CNN
	1    1950 3200
	1    0    0    -1  
$EndComp
$Comp
L CarteMere-rescue:GND #PWR049
U 1 1 5AE0F026
P 10350 5650
F 0 "#PWR049" H 10350 5400 50  0001 C CNN
F 1 "GND" H 10350 5500 50  0000 C CNN
F 2 "" H 10350 5650 50  0000 C CNN
F 3 "" H 10350 5650 50  0000 C CNN
	1    10350 5650
	1    0    0    -1  
$EndComp
Text GLabel 10250 2650 2    39   Input ~ 8
+5V_USB_2
$Comp
L CarteMere-rescue:+5V #PWR050
U 1 1 5AE168A4
P 6750 2950
F 0 "#PWR050" H 6750 2800 50  0001 C CNN
F 1 "+5V" H 6750 3090 50  0000 C CNN
F 2 "" H 6750 2950 50  0000 C CNN
F 3 "" H 6750 2950 50  0000 C CNN
	1    6750 2950
	1    0    0    -1  
$EndComp
$Comp
L CarteMere-rescue:+5V #PWR053
U 1 1 5AE1B2C1
P 5400 6750
F 0 "#PWR053" H 5400 6600 50  0001 C CNN
F 1 "+5V" H 5400 6890 50  0000 C CNN
F 2 "" H 5400 6750 50  0000 C CNN
F 3 "" H 5400 6750 50  0000 C CNN
	1    5400 6750
	1    0    0    -1  
$EndComp
Text GLabel 5800 6750 2    39   Input ~ 8
+5V_USB_1
Text GLabel 5800 6900 2    39   Input ~ 8
+5V_USB_2
Text GLabel 5800 7050 2    39   Input ~ 8
+5V_USB_3
Text GLabel 5800 7200 2    39   Input ~ 8
+5V_USB_4
$Comp
L CarteMere-rescue:C C22
U 1 1 5AE1FD9D
P 6750 3100
F 0 "C22" H 6775 3200 50  0000 L CNN
F 1 "100nF" H 6775 3000 50  0000 L CNN
F 2 "Capacitors_SMD:C_0805_HandSoldering" H 6788 2950 50  0001 C CNN
F 3 "" H 6750 3100 50  0000 C CNN
F 4 "C0805C104Z3VACTU" H 6750 3100 60  0001 C CNN "Réf fab"
F 5 "2522443" H 6750 3100 60  0001 C CNN "Code commande"
F 6 "Farnell" H 6750 3100 60  0001 C CNN "Distributeur"
F 7 "0,0464" H 6750 3100 60  0001 C CNN "Prix"
	1    6750 3100
	1    0    0    -1  
$EndComp
$Comp
L CarteMere-rescue:GND #PWR054
U 1 1 5AE20052
P 6750 3250
F 0 "#PWR054" H 6750 3000 50  0001 C CNN
F 1 "GND" H 6750 3100 50  0000 C CNN
F 2 "" H 6750 3250 50  0000 C CNN
F 3 "" H 6750 3250 50  0000 C CNN
	1    6750 3250
	1    0    0    -1  
$EndComp
Text Notes 5550 7450 0    79   ~ 16
1000mA
$Comp
L CarteMere-rescue:R R2
U 1 1 5AE250D3
P 7450 3100
F 0 "R2" V 7530 3100 50  0000 C CNN
F 1 "10k" V 7450 3100 50  0000 C CNN
F 2 "Resistors_SMD:R_0805_HandSoldering" V 7380 3100 50  0001 C CNN
F 3 "" H 7450 3100 50  0000 C CNN
F 4 "MCWR08X1002FTL" H 7450 3100 60  0001 C CNN "Réf fab"
F 5 "2447553" H 7450 3100 60  0001 C CNN "Code commande"
F 6 "Farnell" H 7450 3100 60  0001 C CNN "Distributeur"
F 7 "0,0101" H 7450 3100 60  0001 C CNN "Prix"
	1    7450 3100
	1    0    0    -1  
$EndComp
$Comp
L CarteMere-rescue:DVDD #PWR055
U 1 1 5AE25438
P 7450 2900
F 0 "#PWR055" H 7450 2750 50  0001 C CNN
F 1 "DVDD" H 7450 3050 50  0000 C CNN
F 2 "" H 7450 2900 50  0000 C CNN
F 3 "" H 7450 2900 50  0000 C CNN
	1    7450 2900
	1    0    0    -1  
$EndComp
$Comp
L CarteMere-rescue:+5V #PWR056
U 1 1 5AE31510
P 4700 4550
F 0 "#PWR056" H 4700 4400 50  0001 C CNN
F 1 "+5V" H 4700 4690 50  0000 C CNN
F 2 "" H 4700 4550 50  0000 C CNN
F 3 "" H 4700 4550 50  0000 C CNN
	1    4700 4550
	1    0    0    -1  
$EndComp
$Comp
L CarteMere-rescue:GND #PWR057
U 1 1 5AE32713
P 4800 3750
F 0 "#PWR057" H 4800 3500 50  0001 C CNN
F 1 "GND" H 4800 3600 50  0000 C CNN
F 2 "" H 4800 3750 50  0000 C CNN
F 3 "" H 4800 3750 50  0000 C CNN
	1    4800 3750
	1    0    0    -1  
$EndComp
Wire Wire Line
	9200 1400 9150 1400
Wire Wire Line
	9200 1700 9150 1700
Wire Wire Line
	9150 1700 9150 1800
Wire Wire Line
	6150 2450 6250 2450
Wire Wire Line
	6250 2550 6150 2550
Wire Wire Line
	6150 2650 6250 2650
Wire Wire Line
	6250 2750 6150 2750
Wire Wire Line
	9200 3250 9150 3250
Wire Wire Line
	9200 3550 9150 3550
Wire Wire Line
	9150 3550 9150 3650
Wire Wire Line
	4900 2550 4800 2550
Wire Wire Line
	4800 2650 4900 2650
Wire Wire Line
	4900 3150 4800 3150
Wire Wire Line
	4800 3250 4900 3250
Wire Wire Line
	4900 3050 4100 3050
Wire Wire Line
	4100 3050 4100 3300
Wire Wire Line
	4900 2950 3800 2950
Wire Wire Line
	3800 2950 3800 3300
Connection ~ 4100 3300
Connection ~ 3800 3300
Wire Wire Line
	3800 3800 3800 3850
Wire Wire Line
	3800 3850 4100 3850
Wire Wire Line
	4100 3850 4100 3800
Connection ~ 3800 3850
Wire Wire Line
	4900 2450 4450 2450
Wire Wire Line
	4450 2300 4450 2450
Wire Wire Line
	4450 2850 4900 2850
Wire Wire Line
	4450 3350 4900 3350
Connection ~ 4450 2850
Connection ~ 4450 2450
Wire Wire Line
	4700 4900 4700 4950
Wire Wire Line
	4700 5300 4700 5350
Wire Wire Line
	4700 5350 5050 5350
Wire Wire Line
	5050 5350 5050 5300
Wire Wire Line
	5050 4950 5050 5000
Wire Wire Line
	4550 4950 4700 4950
Connection ~ 4700 4950
Wire Wire Line
	4700 4600 4700 4550
Connection ~ 4700 5350
Wire Wire Line
	4900 3650 4800 3650
Wire Wire Line
	6150 3450 7150 3450
Wire Wire Line
	7150 3450 7150 3250
Wire Wire Line
	4400 1000 4400 1150
Wire Wire Line
	4400 1150 4750 1150
Wire Wire Line
	4750 1150 4750 1200
Wire Wire Line
	4750 1500 4750 1550
Wire Wire Line
	4400 1550 4750 1550
Wire Wire Line
	4400 1500 4400 1550
Wire Wire Line
	5000 1550 5000 1500
Connection ~ 4750 1550
Wire Wire Line
	5000 1150 5000 1200
Connection ~ 4750 1150
Connection ~ 4400 1150
Connection ~ 4400 1550
Connection ~ 5000 1150
Wire Wire Line
	5400 1150 5500 1150
Wire Wire Line
	5500 1150 5500 1200
Wire Wire Line
	6000 1150 6000 1200
Connection ~ 5500 1150
Wire Wire Line
	5750 1200 5750 1150
Connection ~ 5750 1150
Wire Wire Line
	5500 1500 5500 1550
Wire Wire Line
	5500 1550 5750 1550
Wire Wire Line
	6000 1550 6000 1500
Connection ~ 5500 1550
Wire Wire Line
	6600 1550 6600 1500
Connection ~ 6000 1550
Wire Wire Line
	6600 1150 6600 1200
Connection ~ 6000 1150
Wire Wire Line
	5750 1500 5750 1550
Connection ~ 5750 1550
Wire Wire Line
	6250 1000 6300 1000
Wire Wire Line
	6150 3650 6500 3650
Wire Wire Line
	6150 3750 6200 3750
Wire Wire Line
	6200 3750 6200 3800
Wire Wire Line
	4900 2750 4850 2750
Wire Wire Line
	4550 2750 4250 2750
Wire Wire Line
	4900 3750 4800 3750
Wire Wire Line
	9150 2650 9500 2650
Connection ~ 9500 2650
Wire Wire Line
	9850 2650 9950 2650
Connection ~ 9950 2650
Wire Wire Line
	9150 800  9500 800 
Connection ~ 9500 800 
Wire Wire Line
	9850 800  9950 800 
Connection ~ 9950 800 
Wire Wire Line
	9950 5450 9900 5450
Wire Wire Line
	9900 5450 9900 5550
Wire Wire Line
	6250 5700 6250 5750
Wire Wire Line
	6250 6100 6250 6150
Wire Wire Line
	6250 5750 6150 5750
Connection ~ 6250 5750
Wire Wire Line
	6250 3150 6150 3150
Wire Wire Line
	6150 2850 6650 2850
Wire Wire Line
	6150 2950 6750 2950
Wire Wire Line
	6150 3550 7450 3550
Wire Wire Line
	6250 1000 6250 1150
Connection ~ 6250 1150
Wire Wire Line
	5650 7200 5800 7200
Wire Wire Line
	5650 5350 5650 6750
Connection ~ 5650 6750
Wire Wire Line
	5800 6900 5650 6900
Connection ~ 5650 6900
Wire Wire Line
	5800 7050 5650 7050
Connection ~ 5650 7050
Connection ~ 6750 2950
Wire Wire Line
	7150 2950 7150 2900
Wire Wire Line
	6250 5350 6250 5400
Wire Wire Line
	7450 3550 7450 3250
Wire Wire Line
	7450 2950 7450 2900
Wire Notes Line
	8000 600  8000 5200
Wire Notes Line
	8000 5200 5600 5200
Wire Notes Line
	5600 5200 5600 5600
Wire Notes Line
	5600 5600 3350 5600
Wire Notes Line
	3350 5600 3350 600 
Wire Wire Line
	6250 5350 5650 5350
$Comp
L CarteMere-rescue:DVDD #PWR059
U 1 1 5AF2CBB4
P 6800 3850
F 0 "#PWR059" H 6800 3700 50  0001 C CNN
F 1 "DVDD" H 6800 4000 50  0000 C CNN
F 2 "" H 6800 3850 50  0000 C CNN
F 3 "" H 6800 3850 50  0000 C CNN
	1    6800 3850
	1    0    0    -1  
$EndComp
Wire Wire Line
	6800 3850 6500 3850
Wire Wire Line
	6500 3850 6500 3650
Wire Wire Line
	4100 3300 4100 3500
Wire Wire Line
	3800 3300 3800 3500
Wire Wire Line
	3800 3850 3800 3950
Wire Wire Line
	4450 2850 4450 3350
Wire Wire Line
	4450 2450 4450 2850
Wire Wire Line
	4700 4950 4700 5000
Wire Wire Line
	4700 4950 5050 4950
Wire Wire Line
	4700 5350 4700 5400
Wire Wire Line
	4750 1550 5000 1550
Wire Wire Line
	4750 1150 5000 1150
Wire Wire Line
	4400 1150 4400 1200
Wire Wire Line
	4400 1550 4400 1600
Wire Wire Line
	5000 1150 5200 1150
Wire Wire Line
	5500 1150 5750 1150
Wire Wire Line
	5750 1150 6000 1150
Wire Wire Line
	5500 1550 5500 1600
Wire Wire Line
	6000 1550 6600 1550
Wire Wire Line
	6000 1150 6250 1150
Wire Wire Line
	5750 1550 6000 1550
Wire Wire Line
	9500 2650 9650 2650
Wire Wire Line
	9950 2650 10250 2650
Wire Wire Line
	9500 800  9650 800 
Wire Wire Line
	9950 800  10250 800 
Wire Wire Line
	6250 5750 6250 5800
Wire Wire Line
	6250 1150 6600 1150
Wire Wire Line
	5650 6750 5800 6750
Wire Wire Line
	5650 6750 5650 6900
Wire Wire Line
	5650 6900 5650 7050
Wire Wire Line
	5650 7050 5650 7200
Wire Notes Line
	3350 600  8000 600 
Text GLabel 9050 3350 0    39   Input ~ 8
D2_-
Wire Notes Line
	3300 600  550  600 
Wire Wire Line
	5400 6750 5650 6750
Text GLabel 1400 2800 0    39   Input ~ 8
DM0
Text GLabel 1400 2900 0    39   Input ~ 8
DP0
Wire Wire Line
	1400 2800 1550 2800
Wire Wire Line
	1400 2900 1550 2900
Text GLabel 6250 2650 2    39   Input ~ 8
DP0
Text GLabel 6250 2750 2    39   Input ~ 8
DM0
Wire Notes Line
	3300 4400 550  4400
Wire Notes Line
	3300 600  3300 4400
Wire Notes Line
	550  600  550  4400
Wire Wire Line
	9150 800  9150 1400
Wire Wire Line
	9150 2650 9150 3250
Wire Wire Line
	9050 3350 9200 3350
Wire Wire Line
	9050 3450 9200 3450
Wire Wire Line
	9100 1500 9200 1500
Wire Wire Line
	9100 1600 9200 1600
Wire Wire Line
	9600 1950 9600 1900
Wire Wire Line
	9600 1950 9500 1950
Wire Wire Line
	9500 1950 9500 1850
Connection ~ 9600 1950
Wire Wire Line
	9600 3800 9600 3750
Wire Wire Line
	9600 3750 9500 3750
Wire Wire Line
	9500 3750 9500 3700
Connection ~ 9600 3750
$Comp
L CarteMere-rescue:USB_A P12
U 1 1 5DC26277
P 1800 1450
F 0 "P12" H 2000 1250 50  0000 C CNN
F 1 "USB_A" H 1750 1650 50  0000 C CNN
F 2 "lib_robot:B4B-PH-SM4-TB(LF)(SN)" V 1750 1350 50  0001 C CNN
F 3 "" V 1750 1350 50  0000 C CNN
F 4 "B4B-PH-SM4-TB(LF)(SN)" H 1800 1450 60  0001 C CNN "Réf fab"
F 5 "9491929" H 1800 1450 60  0001 C CNN "Code commande"
F 6 "Farnell" H 1800 1450 60  0001 C CNN "Distributeur"
F 7 "0,689" H 1800 1450 60  0001 C CNN "Prix"
	1    1800 1450
	0    1    1    0   
$EndComp
$Comp
L CarteMere-rescue:GND #PWR0102
U 1 1 5DC2627D
P 1450 1650
F 0 "#PWR0102" H 1450 1400 50  0001 C CNN
F 1 "GND" H 1450 1500 50  0000 C CNN
F 2 "" H 1450 1650 50  0000 C CNN
F 3 "" H 1450 1650 50  0000 C CNN
	1    1450 1650
	1    0    0    -1  
$EndComp
$Comp
L CarteMere-rescue:GND #PWR0103
U 1 1 5DC26285
P 1900 1750
F 0 "#PWR0103" H 1900 1500 50  0001 C CNN
F 1 "GND" H 1900 1600 50  0000 C CNN
F 2 "" H 1900 1750 50  0000 C CNN
F 3 "" H 1900 1750 50  0000 C CNN
	1    1900 1750
	1    0    0    -1  
$EndComp
Wire Wire Line
	1500 1550 1450 1550
Wire Wire Line
	1450 1550 1450 1650
Wire Wire Line
	4900 3450 4800 3450
Wire Wire Line
	4800 3550 4900 3550
Text GLabel 4800 3450 0    39   Input ~ 8
DM4
Text GLabel 4800 3550 0    39   Input ~ 8
DP4
Text Notes 1300 2600 0    79   ~ 16
 USB IN 2 (micro-USB)
Text Notes 9150 4450 0    79   ~ 16
USB TouchS (USB JST TACTILE)
Text GLabel 1300 1350 0    39   Input ~ 8
DM0
Text Notes 6150 4500 0    79   ~ 16
V5 : tension +5V (entrée)\nV33 : tension +3.3V (sortie)
Wire Wire Line
	1300 1350 1500 1350
Wire Wire Line
	1300 1450 1500 1450
Text Notes 600  3900 0    59   ~ 12
ATTENTION :\nLA PI DOIT ETRE RELIER AU SIGNAUX DM0 et DP0 DU HUB.\n\nDM0 et DP0 => USPORT (voir datasheet GL85)
$Comp
L CarteMere-rescue:L_Small L4
U 1 1 5E6402B9
P 9000 4600
F 0 "L4" H 9030 4640 50  0000 L CNN
F 1 "L_Small" H 9030 4560 50  0000 L CNN
F 2 "Resistor_SMD:R_0805_2012Metric_Pad1.15x1.40mm_HandSolder" H 9000 4600 50  0001 C CNN
F 3 "" H 9000 4600 50  0000 C CNN
F 4 "2508056017Y2" H 9000 4600 60  0001 C CNN "Réf fab"
F 5 "1838838" H 9000 4600 60  0001 C CNN "Code commande"
F 6 "Farnell" H 9000 4600 60  0001 C CNN "Distributeur"
F 7 "0,138" H 9000 4600 60  0001 C CNN "Prix"
	1    9000 4600
	0    -1   -1   0   
$EndComp
$Comp
L CarteMere-rescue:CP C14
U 1 1 5E641613
P 8800 4750
F 0 "C14" H 8825 4850 50  0000 L CNN
F 1 "10uF" H 8825 4650 50  0000 L CNN
F 2 "Capacitor_SMD:C_0805_2012Metric_Pad1.15x1.40mm_HandSolder" H 8838 4600 50  0001 C CNN
F 3 "" H 8800 4750 50  0000 C CNN
F 4 "C2012X5R1C106K085AC" H 8800 4750 60  0001 C CNN "Réf fab"
F 5 "2346924" H 8800 4750 60  0001 C CNN "Code commande"
F 6 "Farnell" H 8800 4750 60  0001 C CNN "Distributeur"
F 7 "0,199" H 8800 4750 60  0001 C CNN "Prix"
	1    8800 4750
	1    0    0    -1  
$EndComp
Wire Wire Line
	8800 4900 8800 4950
Wire Wire Line
	8800 4950 9100 4950
Wire Wire Line
	9100 4950 9100 4900
$Comp
L CarteMere-rescue:GND #PWR0106
U 1 1 5E647E38
P 9100 4950
F 0 "#PWR0106" H 9100 4700 50  0001 C CNN
F 1 "GND" H 9100 4800 50  0000 C CNN
F 2 "" H 9100 4950 50  0000 C CNN
F 3 "" H 9100 4950 50  0000 C CNN
	1    9100 4950
	1    0    0    -1  
$EndComp
Connection ~ 9100 4950
Wire Wire Line
	8900 4600 8800 4600
Wire Wire Line
	8800 4600 8700 4600
Wire Wire Line
	8700 4600 8700 4450
Connection ~ 8800 4600
Text GLabel 8700 4450 0    39   Input ~ 8
+5V_USB_4
$Comp
L CarteMere-rescue:C C24
U 1 1 5E63F841
P 9100 4750
F 0 "C24" H 9125 4850 50  0000 L CNN
F 1 "100nF" H 9125 4650 50  0000 L CNN
F 2 "Capacitor_SMD:C_0805_2012Metric_Pad1.15x1.40mm_HandSolder" H 9138 4600 50  0001 C CNN
F 3 "" H 9100 4750 50  0000 C CNN
F 4 "C0805C104Z3VACTU" H 9100 4750 60  0001 C CNN "Réf fab"
F 5 "2522443" H 9100 4750 60  0001 C CNN "Code commande"
F 6 "Farnell" H 9100 4750 60  0001 C CNN "Distributeur"
F 7 "0,0464" H 9100 4750 60  0001 C CNN "Prix"
	1    9100 4750
	1    0    0    -1  
$EndComp
Wire Wire Line
	9100 4600 9350 4600
Wire Wire Line
	9950 4600 9950 5150
Connection ~ 9100 4600
Wire Wire Line
	9350 4600 9350 5550
Connection ~ 9350 4600
Wire Wire Line
	9350 4600 9950 4600
Wire Wire Line
	9600 5250 9950 5250
$Comp
L CarteMere-rescue:IP4220CZ6-LIB_CARTE_MERE_DISKIOPI U2
U 1 1 5E743E5C
P 8300 6200
F 0 "U2" H 8300 6737 60  0000 C CNN
F 1 "IP4220CZ6" H 8300 6631 60  0000 C CNN
F 2 "lib_CarteFille:TSOP_6-IP4220CZ6" H 8150 6175 60  0001 C CNN
F 3 "" H 8150 6175 60  0000 C CNN
F 4 "2319344" H 0   0   50  0001 C CNN "Code commande"
F 5 "Farnell" H 0   0   50  0001 C CNN "Distributeur"
F 6 "0,104" H 0   0   50  0001 C CNN "Prix"
F 7 "IP4220CZ6,125" H 0   0   50  0001 C CNN "Réf fab"
	1    8300 6200
	1    0    0    -1  
$EndComp
$Comp
L CarteMere-rescue:GND #PWR017
U 1 1 5E744C77
P 7650 6300
F 0 "#PWR017" H 7650 6050 50  0001 C CNN
F 1 "GND" H 7650 6150 50  0000 C CNN
F 2 "" H 7650 6300 50  0000 C CNN
F 3 "" H 7650 6300 50  0000 C CNN
	1    7650 6300
	1    0    0    -1  
$EndComp
Wire Wire Line
	7750 6100 7650 6100
Wire Wire Line
	7650 6100 7650 6300
Wire Wire Line
	8850 6100 9050 6100
Text GLabel 7600 6000 0    39   Input ~ 8
DP4
Wire Wire Line
	7750 6000 7600 6000
Text GLabel 9200 6000 2    39   Input ~ 8
DM4
Wire Wire Line
	8850 6000 9200 6000
Text GLabel 7600 6200 0    39   Input ~ 8
DM4
Wire Wire Line
	7750 6200 7600 6200
Text GLabel 9200 6200 2    39   Input ~ 8
DP4
Wire Wire Line
	8850 6200 9200 6200
Wire Wire Line
	9050 5550 9350 5550
Wire Wire Line
	9050 5550 9050 6100
Text GLabel 9600 5250 0    39   Input ~ 8
DM4
Text GLabel 9600 5350 0    39   Input ~ 8
DP4
Wire Wire Line
	9600 5350 9950 5350
$EndSCHEMATC
