EESchema Schematic File Version 4
EELAYER 30 0
EELAYER END
$Descr A4 11693 8268
encoding utf-8
Sheet 5 7
Title "Carte mere Diskio Pi"
Date "09/05/2018"
Rev "0.1"
Comp ""
Comment1 ""
Comment2 ""
Comment3 ""
Comment4 ""
$EndDescr
Wire Wire Line
	8050 2650 8350 2650
Wire Wire Line
	7850 2950 7850 3250
Wire Wire Line
	7850 3700 7850 3800
$Comp
L CarteMere-rescue:R R21
U 1 1 5AD7F320
P 7300 4000
F 0 "R21" V 7380 4000 50  0000 C CNN
F 1 "10k" V 7300 4000 50  0000 C CNN
F 2 "Resistors_SMD:R_0805_HandSoldering" V 7230 4000 50  0001 C CNN
F 3 "" H 7300 4000 50  0000 C CNN
F 4 "MCWR08X1002FTL" H 7300 4000 60  0001 C CNN "Réf fab"
F 5 "2447553" H 7300 4000 60  0001 C CNN "Code commande"
F 6 "Farnell" H 7300 4000 60  0001 C CNN "Distributeur"
F 7 "0,0101" H 7300 4000 60  0001 C CNN "Prix"
	1    7300 4000
	0    1    1    0   
$EndComp
$Comp
L CarteMere-rescue:R R22
U 1 1 5AD7F3B9
P 7500 4250
F 0 "R22" V 7580 4250 50  0000 C CNN
F 1 "10k" V 7500 4250 50  0000 C CNN
F 2 "Resistors_SMD:R_0805_HandSoldering" V 7430 4250 50  0001 C CNN
F 3 "" H 7500 4250 50  0000 C CNN
F 4 "MCWR08X1002FTL" H 7500 4250 60  0001 C CNN "Réf fab"
F 5 "2447553" H 7500 4250 60  0001 C CNN "Code commande"
F 6 "Farnell" H 7500 4250 60  0001 C CNN "Distributeur"
F 7 "0,0101" H 7500 4250 60  0001 C CNN "Prix"
	1    7500 4250
	-1   0    0    1   
$EndComp
Wire Wire Line
	7450 4000 7500 4000
Wire Wire Line
	7500 4100 7500 4000
Connection ~ 7500 4000
Wire Wire Line
	7850 4400 7500 4400
Wire Wire Line
	7850 4200 7850 4400
$Comp
L CarteMere-rescue:GND #PWR071
U 1 1 5AD7F485
P 7850 4500
F 0 "#PWR071" H 7850 4250 50  0001 C CNN
F 1 "GND" H 7850 4350 50  0000 C CNN
F 2 "" H 7850 4500 50  0000 C CNN
F 3 "" H 7850 4500 50  0000 C CNN
	1    7850 4500
	1    0    0    -1  
$EndComp
Connection ~ 7850 4400
Wire Wire Line
	7150 4000 7000 4000
Text GLabel 6350 2650 0    60   Input ~ 12
5V_4A
Text GLabel 8600 2650 2    60   Input ~ 12
V_PI
Text GLabel 7000 4000 0    60   Input ~ 12
CMD_INTER_ON
$Comp
L CarteMere-rescue:R R25
U 1 1 5AD803AF
P 8350 2900
F 0 "R25" V 8430 2900 50  0000 C CNN
F 1 "220" V 8350 2900 50  0000 C CNN
F 2 "Resistors_SMD:R_0805_HandSoldering" V 8280 2900 50  0001 C CNN
F 3 "" H 8350 2900 50  0000 C CNN
F 4 "MCWR08X2200FTL" H 8350 2900 60  0001 C CNN "Réf fab"
F 5 "2447606" H 8350 2900 60  0001 C CNN "Code commande"
F 6 "Farnell" H 8350 2900 60  0001 C CNN "Distributeur"
F 7 "0,0096" H 8350 2900 60  0001 C CNN "Prix"
	1    8350 2900
	1    0    0    -1  
$EndComp
$Comp
L CarteMere-rescue:LED D4
U 1 1 5AD80474
P 8350 3300
F 0 "D4" H 8350 3400 50  0000 C CNN
F 1 "LED" H 8350 3200 50  0000 C CNN
F 2 "lib_CarteFille:0805_KPT-2012" H 8350 3300 50  0001 C CNN
F 3 "" H 8350 3300 50  0000 C CNN
F 4 "KPT-2012SGC" H 8350 3300 60  0001 C CNN "Réf fab"
F 5 "2099239" H 8350 3300 60  0001 C CNN "Code commande"
F 6 "Farnell" H 8350 3300 60  0001 C CNN "Distributeur"
F 7 "0,154 " H 8350 3300 60  0001 C CNN "Prix"
	1    8350 3300
	0    -1   -1   0   
$EndComp
Wire Wire Line
	8350 2750 8350 2650
Connection ~ 8350 2650
Wire Wire Line
	8350 3050 8350 3100
Wire Wire Line
	8350 3500 8350 3550
$Comp
L CarteMere-rescue:GND #PWR072
U 1 1 5AD80597
P 8350 3550
F 0 "#PWR072" H 8350 3300 50  0001 C CNN
F 1 "GND" H 8350 3400 50  0000 C CNN
F 2 "" H 8350 3550 50  0000 C CNN
F 3 "" H 8350 3550 50  0000 C CNN
	1    8350 3550
	1    0    0    -1  
$EndComp
Wire Notes Line
	5750 1300 10850 1300
Wire Notes Line
	10850 1300 10850 5650
Wire Notes Line
	10850 5650 5750 5650
Wire Notes Line
	5750 5650 5750 1300
Text Notes 7300 1900 0    118  ~ 24
Interrupteur MOFSET
$Comp
L CarteMere-rescue:IPB80P04P4L04ATMA1 Q5
U 1 1 5AD7ECF5
P 7850 2750
F 0 "Q5" H 8200 2800 50  0000 R CNN
F 1 "IPB80P04P4L04ATMA1" H 7925 2625 39  0001 R CNN
F 2 "lib_CarteFille:IPB80P04P4L04ATMA1" H 8050 2850 50  0001 C CNN
F 3 "" H 7850 2750 50  0000 C CNN
F 4 "IPB80P04P4L04ATMA1" H 7850 2750 60  0001 C CNN "Réf fab"
F 5 "2839456" H 7850 2750 60  0001 C CNN "Code commande"
F 6 "Farnell" H 7850 2750 60  0001 C CNN "Distributeur"
F 7 "1,34" H 7850 2750 60  0001 C CNN "Prix"
	1    7850 2750
	0    1    -1   0   
$EndComp
$Comp
L CarteMere-rescue:R R24
U 1 1 5AD82AD1
P 7850 3550
F 0 "R24" V 7930 3550 50  0000 C CNN
F 1 "100k" V 7850 3550 50  0000 C CNN
F 2 "Resistors_SMD:R_0805_HandSoldering" V 7780 3550 50  0001 C CNN
F 3 "" H 7850 3550 50  0000 C CNN
F 4 "MCWR08X1003FTL" H 7850 3550 60  0001 C CNN "Réf fab"
F 5 "2446868" H 7850 3550 60  0001 C CNN "Code commande"
F 6 "Farnell" H 7850 3550 60  0001 C CNN "Distributeur"
F 7 "0,0019" H 7850 3550 60  0001 C CNN "Prix"
	1    7850 3550
	1    0    0    -1  
$EndComp
$Comp
L CarteMere-rescue:R R23
U 1 1 5AD82B45
P 7500 2950
F 0 "R23" V 7580 2950 50  0000 C CNN
F 1 "100k" V 7500 2950 50  0000 C CNN
F 2 "Resistors_SMD:R_0805_HandSoldering" V 7430 2950 50  0001 C CNN
F 3 "" H 7500 2950 50  0000 C CNN
F 4 "MCWR08X1003FTL" H 7500 2950 60  0001 C CNN "Réf fab"
F 5 "2446868" H 7500 2950 60  0001 C CNN "Code commande"
F 6 "Farnell" H 7500 2950 60  0001 C CNN "Distributeur"
F 7 "0,0019" H 7500 2950 60  0001 C CNN "Prix"
	1    7500 2950
	1    0    0    -1  
$EndComp
Wire Wire Line
	7850 3250 7500 3250
Wire Wire Line
	7500 3250 7500 3100
Connection ~ 7850 3250
Wire Wire Line
	7500 2800 7500 2650
Connection ~ 7500 2650
Text Notes 9300 3450 2    39   ~ 8
LED POWER RASPBERRY PI\nLED VERTE
$Comp
L CarteMere-rescue:CONN_01X02 P18
U 1 1 5ADA0BDF
P 10300 2700
F 0 "P18" H 10300 2850 50  0000 C CNN
F 1 "CONN_01X02" V 10400 2700 50  0000 C CNN
F 2 "diskioPi:S2B-PH-SM4-TB(LF)(SN)" H 10300 2700 50  0001 C CNN
F 3 "" H 10300 2700 50  0000 C CNN
F 4 "S2B-PH-SM4-TB(LF)(SN)" H 10300 2700 60  0001 C CNN "Réf fab"
F 5 "9492615" H 10300 2700 60  0001 C CNN "Code commande"
F 6 "Farnell" H 10300 2700 60  0001 C CNN "Distributeur"
F 7 "0,504" H 10300 2700 60  0001 C CNN "Prix"
	1    10300 2700
	1    0    0    -1  
$EndComp
Wire Wire Line
	10100 2750 10050 2750
Wire Wire Line
	10050 2750 10050 2850
$Comp
L CarteMere-rescue:GND #PWR073
U 1 1 5ADA0C55
P 10050 2850
F 0 "#PWR073" H 10050 2600 50  0001 C CNN
F 1 "GND" H 10050 2700 50  0000 C CNN
F 2 "" H 10050 2850 50  0000 C CNN
F 3 "" H 10050 2850 50  0000 C CNN
	1    10050 2850
	1    0    0    -1  
$EndComp
Text GLabel 10000 2650 0    60   Input ~ 12
V_PI
Wire Wire Line
	10100 2650 10000 2650
Text Notes 10600 2400 2    79   ~ 16
SBC POWER
$Comp
L CarteMere-rescue:R R13
U 1 1 5AF581AC
P 2000 2300
F 0 "R13" V 2080 2300 50  0000 C CNN
F 1 "10k" V 2000 2300 50  0000 C CNN
F 2 "Resistors_SMD:R_0805_HandSoldering" V 1930 2300 50  0001 C CNN
F 3 "" H 2000 2300 50  0000 C CNN
F 4 "MCWR08X1002FTL" H 2000 2300 60  0001 C CNN "Réf fab"
F 5 "2447553" H 2000 2300 60  0001 C CNN "Code commande"
F 6 "Farnell" H 2000 2300 60  0001 C CNN "Distributeur"
F 7 "0,0101" H 2000 2300 60  0001 C CNN "Prix"
	1    2000 2300
	1    0    0    -1  
$EndComp
$Comp
L CarteMere-rescue:R R28
U 1 1 5AF582B0
P 2000 2650
F 0 "R28" V 2080 2650 50  0000 C CNN
F 1 "10k" V 2000 2650 50  0000 C CNN
F 2 "Resistors_SMD:R_0805_HandSoldering" V 1930 2650 50  0001 C CNN
F 3 "" H 2000 2650 50  0000 C CNN
F 4 "MCWR08X1002FTL" H 2000 2650 60  0001 C CNN "Réf fab"
F 5 "2447553" H 2000 2650 60  0001 C CNN "Code commande"
F 6 "Farnell" H 2000 2650 60  0001 C CNN "Distributeur"
F 7 "0,0101" H 2000 2650 60  0001 C CNN "Prix"
	1    2000 2650
	1    0    0    -1  
$EndComp
Wire Wire Line
	1700 1650 2000 1650
Wire Wire Line
	2000 1650 2000 2000
Wire Wire Line
	1700 2000 2000 2000
Connection ~ 2000 2000
Wire Wire Line
	2000 2450 2000 2500
Wire Wire Line
	2000 2800 2000 2850
$Comp
L CarteMere-rescue:GND #PWR074
U 1 1 5AF58538
P 2000 2850
F 0 "#PWR074" H 2000 2600 50  0001 C CNN
F 1 "GND" H 2000 2700 50  0000 C CNN
F 2 "" H 2000 2850 50  0000 C CNN
F 3 "" H 2000 2850 50  0000 C CNN
	1    2000 2850
	1    0    0    -1  
$EndComp
Wire Wire Line
	2000 2500 2350 2500
Text GLabel 2350 2500 2    39   Input ~ 8
ENABLE_STEP_DOWN
Connection ~ 2000 2500
Wire Wire Line
	1400 1650 1300 1650
Wire Wire Line
	1400 2000 1350 2000
Text GLabel 1300 1650 0    39   Input ~ 8
U_POSITION1
Text GLabel 1300 2000 0    39   Input ~ 8
U_POSITION3
$Comp
L CarteMere-rescue:R R8
U 1 1 5AF58E79
P 1350 3850
F 0 "R8" V 1430 3850 50  0000 C CNN
F 1 "10k" V 1350 3850 50  0000 C CNN
F 2 "Resistors_SMD:R_0805_HandSoldering" V 1280 3850 50  0001 C CNN
F 3 "" H 1350 3850 50  0000 C CNN
F 4 "MCWR08X1002FTL" H 1350 3850 60  0001 C CNN "Réf fab"
F 5 "2447553" H 1350 3850 60  0001 C CNN "Code commande"
F 6 "Farnell" H 1350 3850 60  0001 C CNN "Distributeur"
F 7 "0,0101" H 1350 3850 60  0001 C CNN "Prix"
	1    1350 3850
	1    0    0    -1  
$EndComp
$Comp
L CarteMere-rescue:R R10
U 1 1 5AF58E7F
P 1350 4200
F 0 "R10" V 1430 4200 50  0000 C CNN
F 1 "10k" V 1350 4200 50  0000 C CNN
F 2 "Resistors_SMD:R_0805_HandSoldering" V 1280 4200 50  0001 C CNN
F 3 "" H 1350 4200 50  0000 C CNN
F 4 "MCWR08X1002FTL" H 1350 4200 60  0001 C CNN "Réf fab"
F 5 "2447553" H 1350 4200 60  0001 C CNN "Code commande"
F 6 "Farnell" H 1350 4200 60  0001 C CNN "Distributeur"
F 7 "0,0101" H 1350 4200 60  0001 C CNN "Prix"
	1    1350 4200
	1    0    0    -1  
$EndComp
Wire Wire Line
	1350 4000 1350 4050
Wire Wire Line
	1350 4350 1350 4400
$Comp
L CarteMere-rescue:GND #PWR075
U 1 1 5AF58E87
P 1350 4400
F 0 "#PWR075" H 1350 4150 50  0001 C CNN
F 1 "GND" H 1350 4250 50  0000 C CNN
F 2 "" H 1350 4400 50  0000 C CNN
F 3 "" H 1350 4400 50  0000 C CNN
	1    1350 4400
	1    0    0    -1  
$EndComp
Wire Wire Line
	1350 4050 1700 4050
Connection ~ 1350 4050
Wire Wire Line
	1350 2000 1350 3700
Connection ~ 1350 2000
$Comp
L CarteMere-rescue:BSS138 Q1
U 1 1 5AF590C0
P 1900 4000
F 0 "Q1" H 2100 4075 50  0000 L CNN
F 1 "BSS138" H 2100 4000 50  0000 L CNN
F 2 "TO_SOT_Packages_SMD:SOT-23" H 2100 3925 50  0001 L CIN
F 3 "" H 1900 4000 50  0000 L CNN
F 4 "BSS138P,215 " H 1900 4000 60  0001 C CNN "Réf fab"
F 5 "1859849" H 1900 4000 60  0001 C CNN "Code commande"
F 6 "Farnell" H 1900 4000 60  0001 C CNN "Distributeur"
F 7 "0,171" H 1900 4000 60  0001 C CNN "Prix"
	1    1900 4000
	1    0    0    -1  
$EndComp
$Comp
L CarteMere-rescue:GND #PWR076
U 1 1 5AF59151
P 2000 4400
F 0 "#PWR076" H 2000 4150 50  0001 C CNN
F 1 "GND" H 2000 4250 50  0000 C CNN
F 2 "" H 2000 4400 50  0000 C CNN
F 3 "" H 2000 4400 50  0000 C CNN
	1    2000 4400
	1    0    0    -1  
$EndComp
Wire Wire Line
	2000 4200 2000 4400
Wire Wire Line
	2000 3800 2000 3750
$Comp
L CarteMere-rescue:R R29
U 1 1 5AF593AE
P 2000 3600
F 0 "R29" V 2080 3600 50  0000 C CNN
F 1 "10k" V 2000 3600 50  0000 C CNN
F 2 "Resistors_SMD:R_0805_HandSoldering" V 1930 3600 50  0001 C CNN
F 3 "" H 2000 3600 50  0000 C CNN
F 4 "MCWR08X1002FTL" H 2000 3600 60  0001 C CNN "Réf fab"
F 5 "2447553" H 2000 3600 60  0001 C CNN "Code commande"
F 6 "Farnell" H 2000 3600 60  0001 C CNN "Distributeur"
F 7 "0,0101" H 2000 3600 60  0001 C CNN "Prix"
	1    2000 3600
	1    0    0    -1  
$EndComp
Wire Wire Line
	2000 3450 2000 3400
Wire Wire Line
	2000 3800 2500 3800
Connection ~ 2000 3800
Text GLabel 2500 3800 2    39   Input ~ 8
ENABLE_POWER_RPi
$Comp
L CarteMere-rescue:BAS19 D1
U 1 1 5AF5E13B
P 1550 1650
F 0 "D1" H 1550 1750 50  0000 C CNN
F 1 "BAS19" H 1550 1550 50  0000 C CNN
F 2 "lib_CarteFille:SOT-23_BAS19" H 1550 1650 50  0001 C CNN
F 3 "" H 1550 1650 50  0000 C CNN
F 4 "BAS19" H 1550 1650 60  0001 C CNN "Réf fab"
F 5 "9843833" H 1550 1650 60  0001 C CNN "Code commande"
F 6 "Farnell" H 1550 1650 60  0001 C CNN "Distributeur"
F 7 "0,095" H 1550 1650 60  0001 C CNN "Prix"
	1    1550 1650
	-1   0    0    -1  
$EndComp
$Comp
L CarteMere-rescue:BAS19 D5
U 1 1 5AF5E224
P 1550 2000
F 0 "D5" H 1550 2100 50  0000 C CNN
F 1 "BAS19" H 1550 1900 50  0000 C CNN
F 2 "lib_CarteFille:SOT-23_BAS19" H 1550 2000 50  0001 C CNN
F 3 "" H 1550 2000 50  0000 C CNN
F 4 "BAS19" H 1550 2000 60  0001 C CNN "Réf fab"
F 5 "9843833" H 1550 2000 60  0001 C CNN "Code commande"
F 6 "Farnell" H 1550 2000 60  0001 C CNN "Distributeur"
F 7 "0,095" H 1550 2000 60  0001 C CNN "Prix"
	1    1550 2000
	-1   0    0    -1  
$EndComp
Wire Wire Line
	7500 4000 7550 4000
Wire Wire Line
	7850 4400 7850 4500
Wire Wire Line
	8350 2650 8600 2650
Wire Wire Line
	7850 3250 7850 3400
Wire Wire Line
	7500 2650 7650 2650
Wire Wire Line
	2000 2000 2000 2150
Wire Wire Line
	1350 2000 1300 2000
Text Notes 650  6800 0    39   ~ 8
07/05/2019 : modifier led D4 en led verte
$Comp
L CarteMere-rescue:CONN_01X04 P11
U 1 1 5D17F0D8
P 9500 4800
F 0 "P11" H 9578 4841 50  0000 L CNN
F 1 "614004184726" H 9578 4750 50  0000 L CNN
F 2 "lib_CarteFille:614004184726" H 9500 4800 50  0001 C CNN
F 3 "" H 9500 4800 50  0000 C CNN
F 4 "2617113" H -250 -150 50  0001 C CNN "Code commande"
F 5 "Farnell" H -250 -150 50  0001 C CNN "Distributeur"
F 6 "0,975" H -250 -150 50  0001 C CNN "Prix"
F 7 "614004184726" H -250 -150 50  0001 C CNN "Réf fab"
	1    9500 4800
	1    0    0    -1  
$EndComp
$Comp
L CarteMere-rescue:GND #PWR022
U 1 1 5D181D0A
P 9250 5050
F 0 "#PWR022" H 9250 4800 50  0001 C CNN
F 1 "GND" H 9250 4900 50  0000 C CNN
F 2 "" H 9250 5050 50  0000 C CNN
F 3 "" H 9250 5050 50  0000 C CNN
	1    9250 5050
	1    0    0    -1  
$EndComp
Wire Wire Line
	9300 4950 9250 4950
Wire Wire Line
	9250 4950 9250 5050
Wire Wire Line
	9200 4650 9300 4650
Text Notes 9350 4450 0    39   ~ 8
Connecteur USB vertical
Text GLabel 9200 4650 0    60   Input ~ 12
5V_4A
$Comp
L power:+12V #PWR0110
U 1 1 5FC80017
P 2000 3400
F 0 "#PWR0110" H 2000 3250 50  0001 C CNN
F 1 "+12V" H 2015 3573 50  0000 C CNN
F 2 "" H 2000 3400 50  0001 C CNN
F 3 "" H 2000 3400 50  0001 C CNN
	1    2000 3400
	1    0    0    -1  
$EndComp
$Comp
L power:+12V #PWR02
U 1 1 5FFCC7C2
P 5950 1850
F 0 "#PWR02" H 5950 1700 50  0001 C CNN
F 1 "+12V" H 5965 2023 50  0000 C CNN
F 2 "" H 5950 1850 50  0001 C CNN
F 3 "" H 5950 1850 50  0001 C CNN
	1    5950 1850
	1    0    0    -1  
$EndComp
Wire Wire Line
	7500 2250 7500 2650
Text Notes 4100 5150 0    79   ~ 16
Jack entrée +12V
Wire Wire Line
	5950 2250 5950 1850
Wire Wire Line
	6350 2650 6900 2650
Wire Wire Line
	7200 2650 7500 2650
$Comp
L Device:D D?
U 1 1 5FFDF252
P 7050 2650
AR Path="/5AC62C5C/5FFDF252" Ref="D?"  Part="1" 
AR Path="/5AC62DB0/5FFDF252" Ref="D8"  Part="1" 
F 0 "D8" H 7050 2434 50  0000 C CNN
F 1 "MBRS410LT3G" H 7050 2525 50  0000 C CNN
F 2 "lib_CarteFille:DO_214AB_S4G" H 7050 2650 50  0001 C CNN
F 3 "~" H 7050 2650 50  0001 C CNN
F 4 "1702812" H 4350 -4650 50  0001 C CNN "Code commande"
F 5 "Farnell" H 4350 -4650 50  0001 C CNN "Distributeur"
F 6 "1,11" H 4350 -4650 50  0001 C CNN "Prix"
F 7 "S4G R7" H 4350 -4650 50  0001 C CNN "Réf fab"
	1    7050 2650
	-1   0    0    1   
$EndComp
$Comp
L Connector_Generic:Conn_01x02 J2
U 1 1 5FFDDC69
P 6300 2050
F 0 "J2" V 6264 1862 50  0000 R CNN
F 1 "Conn_01x02" V 6173 1862 50  0000 R CNN
F 2 "Connector_PinHeader_2.54mm:PinHeader_1x02_P2.54mm_Vertical" H 6300 2050 50  0001 C CNN
F 3 "~" H 6300 2050 50  0001 C CNN
	1    6300 2050
	0    -1   -1   0   
$EndComp
Wire Wire Line
	6400 2250 7500 2250
Wire Wire Line
	5950 2250 6300 2250
$Comp
L CarteMere-rescue:BSS138-MACE_LIB Q6
U 1 1 607DB386
P 7750 4000
AR Path="/607DB386" Ref="Q6"  Part="1" 
AR Path="/5AC62DB0/607DB386" Ref="Q6"  Part="1" 
F 0 "Q6" H 7940 4046 50  0000 L CNN
F 1 "BSS138" H 7940 3955 50  0000 L CNN
F 2 "TO_SOT_Packages_SMD:SOT-23" H 7940 3909 29  0001 L CNN
F 3 "" H 7750 4000 60  0000 C CNN
	1    7750 4000
	1    0    0    -1  
$EndComp
$EndSCHEMATC
