EESchema Schematic File Version 4
EELAYER 30 0
EELAYER END
$Descr A3 16535 11693
encoding utf-8
Sheet 2 7
Title "Carte mere Diskio Pi"
Date "09/05/2018"
Rev "0.1"
Comp ""
Comment1 ""
Comment2 ""
Comment3 ""
Comment4 ""
$EndDescr
$Comp
L CarteMere-rescue:LM3150MHXNOPB U3
U 1 1 5AC7431C
P 7300 4700
F 0 "U3" H 7275 5450 60  0000 C CNN
F 1 "LM3150MHXNOPB" H 7325 5350 60  0000 C CNN
F 2 "diskioPi:LM3150MHXNOPB" H 10650 6790 60  0001 C CNN
F 3 "" H 9450 6550 60  0000 C CNN
F 4 "LM3150MHX/NOPB" H 7300 4700 60  0001 C CNN "Réf fab"
F 5 "2781846" H 7300 4700 60  0001 C CNN "Code commande"
F 6 "Farnell" H 7300 4700 60  0001 C CNN "Distributeur"
F 7 "3,19" H 7300 4700 60  0001 C CNN "Prix"
	1    7300 4700
	1    0    0    -1  
$EndComp
$Comp
L CarteMere-rescue:R R3
U 1 1 5AC75709
P 5800 4350
F 0 "R3" V 5880 4350 50  0000 C CNN
F 1 "200k" V 5800 4350 50  0000 C CNN
F 2 "Resistors_SMD:R_0805_HandSoldering" V 5730 4350 50  0001 C CNN
F 3 "" H 5800 4350 50  0000 C CNN
F 4 "MCWR08X2003FTL" H 5800 4350 60  0001 C CNN "Réf fab"
F 5 "2447601" H 5800 4350 60  0001 C CNN "Code commande"
F 6 "Farnell" H 5800 4350 60  0001 C CNN "Distributeur"
F 7 "0,0308" H 5800 4350 60  0001 C CNN "Prix"
	1    5800 4350
	0    1    1    0   
$EndComp
$Comp
L CarteMere-rescue:C C2
U 1 1 5AC74059
P 5450 4400
F 0 "C2" H 5475 4500 50  0000 L CNN
F 1 "100nF" H 5475 4300 50  0000 L CNN
F 2 "Capacitors_SMD:C_0805_HandSoldering" H 5488 4250 50  0001 C CNN
F 3 "" H 5450 4400 50  0000 C CNN
F 4 "C0805C104Z3VACTU" H 5450 4400 60  0001 C CNN "Réf fab"
F 5 "2522443" H 5450 4400 60  0001 C CNN "Code commande"
F 6 "Farnell" H 5450 4400 60  0001 C CNN "Distributeur"
F 7 "0,0464" H 5450 4400 60  0001 C CNN "Prix"
	1    5450 4400
	1    0    0    -1  
$EndComp
$Comp
L CarteMere-rescue:C C1
U 1 1 5AC740C1
P 5150 4400
F 0 "C1" H 5175 4500 50  0000 L CNN
F 1 "10uF" H 5175 4300 50  0000 L CNN
F 2 "Capacitors_SMD:C_0805_HandSoldering" H 5188 4250 50  0001 C CNN
F 3 "" H 5150 4400 50  0000 C CNN
F 4 "C2012X5R1C106K085AC" H 5150 4400 60  0001 C CNN "Réf fab"
F 5 "2346924" H 5150 4400 60  0001 C CNN "Code commande"
F 6 "Farnell" H 5150 4400 60  0001 C CNN "Distributeur"
F 7 "0,199" H 5150 4400 60  0001 C CNN "Prix"
	1    5150 4400
	1    0    0    -1  
$EndComp
$Comp
L CarteMere-rescue:GND #PWR03
U 1 1 5AC74108
P 5150 4600
F 0 "#PWR03" H 5150 4350 50  0001 C CNN
F 1 "GND" H 5150 4450 50  0000 C CNN
F 2 "" H 5150 4600 50  0000 C CNN
F 3 "" H 5150 4600 50  0000 C CNN
	1    5150 4600
	1    0    0    -1  
$EndComp
$Comp
L CarteMere-rescue:C C3
U 1 1 5AC743BD
P 5650 4700
F 0 "C3" H 5675 4800 50  0000 L CNN
F 1 "15nF" H 5675 4600 50  0000 L CNN
F 2 "Capacitors_SMD:C_0805_HandSoldering" H 5688 4550 50  0001 C CNN
F 3 "" H 5650 4700 50  0000 C CNN
F 4 "MC0805F153Z500CT " H 5650 4700 60  0001 C CNN "Réf fab"
F 5 "1759250" H 5650 4700 60  0001 C CNN "Code commande"
F 6 "Farnell" H 5650 4700 60  0001 C CNN "Distributeur"
F 7 "0,0416" H 5650 4700 60  0001 C CNN "Prix"
	1    5650 4700
	1    0    0    -1  
$EndComp
$Comp
L CarteMere-rescue:GND #PWR04
U 1 1 5AC74405
P 5650 4900
F 0 "#PWR04" H 5650 4650 50  0001 C CNN
F 1 "GND" H 5650 4750 50  0000 C CNN
F 2 "" H 5650 4900 50  0000 C CNN
F 3 "" H 5650 4900 50  0000 C CNN
	1    5650 4900
	1    0    0    -1  
$EndComp
$Comp
L CarteMere-rescue:GND #PWR05
U 1 1 5AC7470C
P 6050 5000
F 0 "#PWR05" H 6050 4750 50  0001 C CNN
F 1 "GND" H 6050 4850 50  0000 C CNN
F 2 "" H 6050 5000 50  0000 C CNN
F 3 "" H 6050 5000 50  0000 C CNN
	1    6050 5000
	1    0    0    -1  
$EndComp
$Comp
L CarteMere-rescue:GND #PWR06
U 1 1 5AC749D7
P 6950 5500
F 0 "#PWR06" H 6950 5250 50  0001 C CNN
F 1 "GND" H 6950 5350 50  0000 C CNN
F 2 "" H 6950 5500 50  0000 C CNN
F 3 "" H 6950 5500 50  0000 C CNN
	1    6950 5500
	1    0    0    -1  
$EndComp
$Comp
L CarteMere-rescue:C C30
U 1 1 5AD73EFF
P 8900 4350
F 0 "C30" H 8925 4450 50  0000 L CNN
F 1 "1uF" H 8925 4250 50  0000 L CNN
F 2 "Capacitors_SMD:C_0805_HandSoldering" H 8938 4200 50  0001 C CNN
F 3 "" H 8900 4350 50  0000 C CNN
F 4 "MC0805F105Z500CT" H 8900 4350 60  0001 C CNN "Réf fab"
F 5 "1759432" H 8900 4350 60  0001 C CNN "Code commande"
F 6 "Farnell" H 8900 4350 60  0001 C CNN "Distributeur"
F 7 "0,0828" H 8900 4350 60  0001 C CNN "Prix"
	1    8900 4350
	0    1    1    0   
$EndComp
$Comp
L CarteMere-rescue:GND #PWR07
U 1 1 5AD73FF5
P 9350 4400
F 0 "#PWR07" H 9350 4150 50  0001 C CNN
F 1 "GND" H 9350 4250 50  0000 C CNN
F 2 "" H 9350 4400 50  0000 C CNN
F 3 "" H 9350 4400 50  0000 C CNN
	1    9350 4400
	1    0    0    -1  
$EndComp
$Comp
L CarteMere-rescue:C C29
U 1 1 5AD741C4
P 8700 4500
F 0 "C29" H 8725 4600 50  0000 L CNN
F 1 "680nF" H 8725 4400 50  0000 L CNN
F 2 "Capacitors_SMD:C_0805_HandSoldering" H 8738 4350 50  0001 C CNN
F 3 "" H 8700 4500 50  0000 C CNN
F 4 "MC0805F684Z160CT " H 8700 4500 60  0001 C CNN "Réf fab"
F 5 "1759158" H 8700 4500 60  0001 C CNN "Code commande"
F 6 "Farnell" H 8700 4500 60  0001 C CNN "Distributeur"
F 7 "0,076" H 8700 4500 60  0001 C CNN "Prix"
	1    8700 4500
	0    1    1    0   
$EndComp
$Comp
L CarteMere-rescue:R R18
U 1 1 5AD744D2
P 8700 4800
F 0 "R18" V 8780 4800 50  0000 C CNN
F 1 "1k" V 8700 4800 50  0000 C CNN
F 2 "Resistors_SMD:R_0805_HandSoldering" V 8630 4800 50  0001 C CNN
F 3 "" H 8700 4800 50  0000 C CNN
F 4 "MC01W080551K" H 8700 4800 60  0001 C CNN "Réf fab"
F 5 "1653004" H 8700 4800 60  0001 C CNN "Code commande"
F 6 "Farnell" H 8700 4800 60  0001 C CNN "Distributeur"
F 7 "0,0083" H 8700 4800 60  0001 C CNN "Prix"
	1    8700 4800
	0    1    1    0   
$EndComp
$Comp
L CarteMere-rescue:CSD17307Q5A Q3
U 1 1 5AD77E90
P 10050 3850
F 0 "Q3" H 9850 4150 50  0000 L CNN
F 1 "CSD17307Q5A" H 9850 3600 50  0000 L CNN
F 2 "diskioPi:CSD17307Q5A" H 10050 4050 50  0001 C CIN
F 3 "" V 10050 3850 50  0000 L CNN
F 4 "CSD17307Q5A" H 10050 3850 60  0001 C CNN "Réf fab"
F 5 "827-4833" H 10050 3850 60  0001 C CNN "Code commande"
F 6 "RS" H 10050 3850 60  0001 C CNN "Distributeur"
F 7 "0,519" H 10050 3850 60  0001 C CNN "Prix"
	1    10050 3850
	-1   0    0    -1  
$EndComp
$Comp
L CarteMere-rescue:GND #PWR08
U 1 1 5AD78EDB
P 10550 5450
F 0 "#PWR08" H 10550 5200 50  0001 C CNN
F 1 "GND" H 10550 5300 50  0000 C CNN
F 2 "" H 10550 5450 50  0000 C CNN
F 3 "" H 10550 5450 50  0000 C CNN
	1    10550 5450
	1    0    0    -1  
$EndComp
$Comp
L CarteMere-rescue:L L7
U 1 1 5AD79670
P 10900 4650
F 0 "L7" V 10850 4650 50  0000 C CNN
F 1 "2.7uH" V 10975 4650 50  0000 C CNN
F 2 "lib_CarteFille:SER1360-272KLD" H 10900 4650 50  0001 C CNN
F 3 "" H 10900 4650 50  0001 C CNN
F 4 "SER1360-272KLD" H 10900 4650 60  0001 C CNN "Réf fab"
F 5 "2288809" H 10900 4650 60  0001 C CNN "Code commande"
F 6 "farnell" H 10900 4650 60  0001 C CNN "Distributeur"
F 7 "1,67" H 10900 4650 60  0001 C CNN "Prix"
	1    10900 4650
	0    -1   1    0   
$EndComp
$Comp
L CarteMere-rescue:C C31
U 1 1 5AD79D68
P 11100 4800
F 0 "C31" H 11125 4900 50  0000 L CNN
F 1 "680pF" H 11125 4700 50  0000 L CNN
F 2 "Capacitors_SMD:C_0805_HandSoldering" H 11138 4650 50  0001 C CNN
F 3 "" H 11100 4800 50  0000 C CNN
F 4 "MC0805B681K101CT " H 11100 4800 60  0001 C CNN "Réf fab"
F 5 "1759285" H 11100 4800 60  0001 C CNN "Code commande"
F 6 "Farnell" H 11100 4800 60  0001 C CNN "Distributeur"
F 7 "0,0643" H 11100 4800 60  0001 C CNN "Prix"
	1    11100 4800
	1    0    0    -1  
$EndComp
$Comp
L CarteMere-rescue:R R19
U 1 1 5AD79E21
P 11550 4800
F 0 "R19" V 11630 4800 50  0000 C CNN
F 1 "80.6K" V 11550 4800 50  0000 C CNN
F 2 "Resistors_SMD:R_0805_HandSoldering" V 11480 4800 50  0001 C CNN
F 3 "" H 11550 4800 50  0000 C CNN
F 4 "MCMR08X8062FTL" H 11550 4800 60  0001 C CNN "Réf fab"
F 5 "2073847" H 11550 4800 60  0001 C CNN "Code commande"
F 6 "Farnell" H 11550 4800 60  0001 C CNN "Distributeur"
F 7 "0,0132" H 11550 4800 60  0001 C CNN "Prix"
	1    11550 4800
	1    0    0    -1  
$EndComp
$Comp
L CarteMere-rescue:R R20
U 1 1 5AD79E71
P 11550 5200
F 0 "R20" V 11630 5200 50  0000 C CNN
F 1 "10.2K" V 11550 5200 50  0000 C CNN
F 2 "Resistors_SMD:R_0805_HandSoldering" V 11480 5200 50  0001 C CNN
F 3 "" H 11550 5200 50  0000 C CNN
F 4 "CRCW080510K2FKEA." H 11550 5200 60  0001 C CNN "Réf fab"
F 5 "2138976" H 11550 5200 60  0001 C CNN "Code commande"
F 6 "Farnell" H 11550 5200 60  0001 C CNN "Distributeur"
F 7 "0,0308 " H 11550 5200 60  0001 C CNN "Prix"
	1    11550 5200
	1    0    0    -1  
$EndComp
$Comp
L CarteMere-rescue:GND #PWR09
U 1 1 5AD7A1B4
P 11550 5400
F 0 "#PWR09" H 11550 5150 50  0001 C CNN
F 1 "GND" H 11550 5250 50  0000 C CNN
F 2 "" H 11550 5400 50  0000 C CNN
F 3 "" H 11550 5400 50  0000 C CNN
	1    11550 5400
	1    0    0    -1  
$EndComp
Text GLabel 13100 4650 2    60   Input ~ 12
5V_4A
$Comp
L CarteMere-rescue:CSD17577Q5A Q4
U 1 1 5AD7D1C0
P 10050 5350
F 0 "Q4" H 9850 5650 50  0000 L CNN
F 1 "CSD17577Q5A" H 9850 5100 50  0000 L CNN
F 2 "diskioPi:CSD17307Q5A" H 10050 5550 50  0001 C CIN
F 3 "" V 10050 5350 50  0000 L CNN
F 4 "CSD17577Q5A" H 10050 5350 60  0001 C CNN "Réf fab"
F 5 "595-CSD17577Q5AT " H 10050 5350 60  0001 C CNN "Code commande"
F 6 "Mouser" H 10050 5350 60  0001 C CNN "Distributeur"
F 7 "0,774" H 10050 5350 60  0001 C CNN "Prix"
	1    10050 5350
	-1   0    0    -1  
$EndComp
$Comp
L CarteMere-rescue:BARREL_JACK CON1
U 1 1 5AD84497
P 2600 3200
F 0 "CON1" H 2600 3450 50  0000 C CNN
F 1 "BARREL_JACK" H 2600 3000 50  0000 C CNN
F 2 "diskioPi:FC681465" H 2600 3200 50  0001 C CNN
F 3 "" H 2600 3200 50  0000 C CNN
F 4 "FC681465" H 2600 3200 60  0001 C CNN "Réf fab"
F 5 "1854514" H 2600 3200 60  0001 C CNN "Code commande"
F 6 "Farnell" H 2600 3200 60  0001 C CNN "Distributeur"
F 7 "1,87 " H 2600 3200 60  0001 C CNN "Prix"
	1    2600 3200
	1    0    0    -1  
$EndComp
$Comp
L CarteMere-rescue:CONN_01X04 P17
U 1 1 5AD9CF72
P 6350 7900
F 0 "P17" H 6350 8150 50  0000 C CNN
F 1 "CONN_01X04" V 6450 7900 50  0000 C CNN
F 2 "diskioPi:SM04B-SRSS-TB(LF)(SN)" H 6350 7900 50  0001 C CNN
F 3 "" H 6350 7900 50  0000 C CNN
F 4 "SM04B-SRSS-TB(LF)(SN)" H 6350 7900 60  0001 C CNN "Réf fab"
F 5 "1830839" H 6350 7900 60  0001 C CNN "Code commande"
F 6 "Farnell" H 6350 7900 60  0001 C CNN "Distributeur"
F 7 "0,523" H 6350 7900 60  0001 C CNN "Prix"
	1    6350 7900
	-1   0    0    1   
$EndComp
Text Notes 5750 7450 0    79   ~ 16
Connecteur vers carte bouton
Text GLabel 6650 7750 2    39   Input ~ 8
U_POSITION1
Text GLabel 6650 7850 2    39   Input ~ 8
U_POSITION3
$Comp
L CarteMere-rescue:GND #PWR012
U 1 1 5AD9DEB1
P 6650 8150
F 0 "#PWR012" H 6650 7900 50  0001 C CNN
F 1 "GND" H 6650 8000 50  0000 C CNN
F 2 "" H 6650 8150 50  0000 C CNN
F 3 "" H 6650 8150 50  0000 C CNN
	1    6650 8150
	1    0    0    -1  
$EndComp
Text GLabel 5600 5200 0    39   Input ~ 8
ENABLE_STEP_DOWN
$Comp
L CarteMere-rescue:CONN_01X02 P19
U 1 1 5ADA16DE
P 9000 7850
F 0 "P19" H 9000 8000 50  0000 C CNN
F 1 "CONN_01X02" V 9100 7850 50  0000 C CNN
F 2 "diskioPi:SM02B-PASS-TB(LF)(SN)" H 9000 7850 50  0001 C CNN
F 3 "" H 9000 7850 50  0000 C CNN
F 4 "SM02B-PASS-TB(LF)(SN)" H 9000 7850 60  0001 C CNN "Réf fab"
F 5 "2399343" H 9000 7850 60  0001 C CNN "Code commande"
F 6 "Farnell" H 9000 7850 60  0001 C CNN "Distributeur"
F 7 "0,445" H 9000 7850 60  0001 C CNN "Prix"
	1    9000 7850
	1    0    0    -1  
$EndComp
Text GLabel 8250 7800 1    60   Input ~ 12
5V_4A
$Comp
L CarteMere-rescue:GND #PWR013
U 1 1 5ADA1D00
P 8550 8300
F 0 "#PWR013" H 8550 8050 50  0001 C CNN
F 1 "GND" H 8550 8150 50  0000 C CNN
F 2 "" H 8550 8300 50  0000 C CNN
F 3 "" H 8550 8300 50  0000 C CNN
	1    8550 8300
	1    0    0    -1  
$EndComp
Text Notes 9050 7600 2    79   ~ 16
Power écran
$Comp
L CarteMere-rescue:CONN_01X02 P20
U 1 1 5ADA3F98
P 4250 6900
F 0 "P20" H 4250 7050 50  0000 C CNN
F 1 "CONN_01X02" V 4350 6900 50  0000 C CNN
F 2 "diskioPi:BM02B-PASS-1-TFT(LF)(SN)" H 4250 6900 50  0001 C CNN
F 3 "" H 4250 6900 50  0000 C CNN
F 4 "BM02B-PASS-1-TFT(LF)(SN)" H 4250 6900 60  0001 C CNN "Réf fab"
F 5 "2399305" H 4250 6900 60  0001 C CNN "Code commande"
F 6 "Farnell" H 4250 6900 60  0001 C CNN "Distributeur"
F 7 "0,445" H 4250 6900 60  0001 C CNN "Prix"
	1    4250 6900
	-1   0    0    -1  
$EndComp
$Comp
L CarteMere-rescue:GND #PWR015
U 1 1 5ADA49C6
P 4500 7050
F 0 "#PWR015" H 4500 6800 50  0001 C CNN
F 1 "GND" H 4500 6900 50  0000 C CNN
F 2 "" H 4500 7050 50  0000 C CNN
F 3 "" H 4500 7050 50  0000 C CNN
	1    4500 7050
	1    0    0    -1  
$EndComp
Text Notes 3950 7050 2    79   ~ 16
JST POE
Text Notes 3850 7800 2    79   ~ 16
JST BATT
$Comp
L CarteMere-rescue:+5V #PWR018
U 1 1 5ADF06AC
P 12950 4500
F 0 "#PWR018" H 12950 4350 50  0001 C CNN
F 1 "+5V" H 12950 4640 50  0000 C CNN
F 2 "" H 12950 4500 50  0000 C CNN
F 3 "" H 12950 4500 50  0000 C CNN
	1    12950 4500
	1    0    0    -1  
$EndComp
$Comp
L CarteMere-rescue:CP C33
U 1 1 5AE0229F
P 12100 4850
F 0 "C33" H 12125 4950 50  0000 L CNN
F 1 "150uF" H 12125 4750 50  0000 L CNN
F 2 "lib_CarteFille:MCVVT016M151EA6L" H 12138 4700 50  0001 C CNN
F 3 "" H 12100 4850 50  0000 C CNN
F 4 "MCVVT016M151EA6L" H 12100 4850 60  0001 C CNN "Réf fab"
F 5 "2611357" H 12100 4850 60  0001 C CNN "Code commande"
F 6 "Farnell" H 12100 4850 60  0001 C CNN "Distributeur"
F 7 "0,114" H 12100 4850 60  0001 C CNN "Prix"
	1    12100 4850
	1    0    0    -1  
$EndComp
$Comp
L CarteMere-rescue:CP C35
U 1 1 5AE02EAD
P 5300 3250
F 0 "C35" H 5325 3350 50  0000 L CNN
F 1 "100uF" H 5325 3150 50  0000 L CNN
F 2 "lib_CarteFille:AVX-TAJC-0-0-0" H 5338 3100 50  0001 C CNN
F 3 "" H 5300 3250 50  0000 C CNN
F 4 "MCVVT016M101EA1L" H 5300 3250 60  0001 C CNN "Réf fab"
F 5 "2611356" H 5300 3250 60  0001 C CNN "Code commande"
F 6 "Farnell" H 5300 3250 60  0001 C CNN "Distributeur"
F 7 "0,123" H 5300 3250 60  0001 C CNN "Prix"
	1    5300 3250
	1    0    0    -1  
$EndComp
$Comp
L CarteMere-rescue:GND #PWR019
U 1 1 5AE031BF
P 5300 3400
F 0 "#PWR019" H 5300 3150 50  0001 C CNN
F 1 "GND" H 5300 3250 50  0000 C CNN
F 2 "" H 5300 3400 50  0000 C CNN
F 3 "" H 5300 3400 50  0000 C CNN
	1    5300 3400
	1    0    0    -1  
$EndComp
Text Notes 7200 2850 0    118  ~ 24
Step-down 5V-4A
$Comp
L CarteMere-rescue:R R4
U 1 1 5AEB051F
P 9250 4200
F 0 "R4" V 9330 4200 50  0000 C CNN
F 1 "10" V 9250 4200 50  0000 C CNN
F 2 "Resistors_SMD:R_0805_HandSoldering" V 9180 4200 50  0001 C CNN
F 3 "" H 9250 4200 50  0000 C CNN
F 4 "MC01W0805510R" H 9250 4200 60  0001 C CNN "Réf fab"
F 5 "9333690" H 9250 4200 60  0001 C CNN "Code commande"
F 6 "Farnell" H 9250 4200 60  0001 C CNN "Distributeur"
F 7 "0,0101" H 9250 4200 60  0001 C CNN "Prix"
	1    9250 4200
	0    1    1    0   
$EndComp
$Comp
L CarteMere-rescue:C C36
U 1 1 5AEC35BC
P 4600 6900
F 0 "C36" H 4625 7000 50  0000 L CNN
F 1 "10uF" H 4625 6800 50  0000 L CNN
F 2 "Capacitors_SMD:C_0805_HandSoldering" H 4638 6750 50  0001 C CNN
F 3 "" H 4600 6900 50  0000 C CNN
F 4 "C2012X5R1C106K085AC" H 4600 6900 60  0001 C CNN "Réf fab"
F 5 "2346924" H 4600 6900 60  0001 C CNN "Code commande"
F 6 "Farnell" H 4600 6900 60  0001 C CNN "Distributeur"
F 7 "0,199" H 4600 6900 60  0001 C CNN "Prix"
	1    4600 6900
	1    0    0    -1  
$EndComp
Wire Wire Line
	4850 4200 5150 4200
Wire Wire Line
	6100 4350 5950 4350
Connection ~ 5650 4200
Wire Wire Line
	5150 4200 5150 4250
Wire Wire Line
	5450 4250 5450 4200
Connection ~ 5450 4200
Wire Wire Line
	5450 4600 5450 4550
Wire Wire Line
	5150 4600 5150 4550
Connection ~ 5150 4600
Wire Wire Line
	6100 4500 5650 4500
Wire Wire Line
	5650 4500 5650 4550
Wire Wire Line
	5650 4850 5650 4900
Wire Wire Line
	6100 4800 6050 4800
Wire Wire Line
	6050 4800 6050 4950
Wire Wire Line
	6050 4950 6100 4950
Connection ~ 6050 4950
Wire Wire Line
	6950 5450 6950 5500
Wire Wire Line
	8500 4350 8750 4350
Wire Wire Line
	9050 4350 9350 4350
Wire Wire Line
	9350 4350 9350 4400
Wire Wire Line
	8550 4500 8500 4500
Wire Wire Line
	8500 4650 8850 4650
Wire Wire Line
	8850 4650 8850 4500
Connection ~ 8850 4650
Wire Wire Line
	8550 4800 8500 4800
Wire Wire Line
	8850 4800 8900 4800
Wire Wire Line
	8900 4800 8900 4650
Connection ~ 5650 3100
Wire Wire Line
	9600 3950 9750 3950
Wire Wire Line
	9600 3850 9750 3850
Connection ~ 9600 3850
Wire Wire Line
	10350 4000 10400 4000
Wire Wire Line
	10400 4000 10400 4200
Wire Wire Line
	9750 3650 9600 3650
Connection ~ 9600 3650
Wire Wire Line
	9600 3750 9750 3750
Connection ~ 9600 3750
Wire Wire Line
	9600 3100 9600 3650
Wire Wire Line
	10350 3650 10350 3750
Connection ~ 10350 3750
Wire Wire Line
	10350 3850 10600 3850
Wire Wire Line
	10600 3850 10600 4650
Connection ~ 8900 4650
Wire Wire Line
	10350 5500 10400 5500
Wire Wire Line
	10400 5500 10400 5650
Wire Wire Line
	8950 5650 8950 4950
Wire Wire Line
	8950 4950 8500 4950
Wire Wire Line
	9750 5150 9650 5150
Wire Wire Line
	9650 5450 9750 5450
Wire Wire Line
	9650 5350 9750 5350
Connection ~ 9650 5350
Wire Wire Line
	9650 5250 9750 5250
Connection ~ 9650 5250
Connection ~ 9650 5150
Wire Wire Line
	10350 5150 10350 5250
Connection ~ 10350 5250
Wire Wire Line
	10350 5350 10550 5350
Wire Wire Line
	10550 5350 10550 5450
Wire Wire Line
	10600 4950 9650 4950
Connection ~ 10600 4650
Wire Wire Line
	9650 4950 9650 5150
Wire Wire Line
	11100 6050 7700 6050
Wire Wire Line
	7700 6050 7700 5450
Connection ~ 11100 4650
Wire Wire Line
	11550 4950 11550 5000
Wire Wire Line
	11550 5000 11100 5000
Wire Wire Line
	11100 4950 11100 5000
Connection ~ 11550 5000
Connection ~ 11100 5000
Wire Wire Line
	11550 5350 11550 5400
Wire Wire Line
	12950 4500 12950 4650
Connection ~ 11550 4650
Connection ~ 11550 5400
Wire Wire Line
	11050 4650 11100 4650
Wire Wire Line
	7350 5450 7350 5500
Wire Wire Line
	7350 5500 6950 5500
Connection ~ 6950 5500
Wire Wire Line
	6100 4650 5950 4650
Wire Wire Line
	5950 4650 5950 5200
Wire Wire Line
	5950 5200 5600 5200
Wire Wire Line
	6550 7750 6650 7750
Wire Wire Line
	6650 7850 6550 7850
Wire Wire Line
	6550 7950 7350 7950
Wire Wire Line
	6650 8050 6550 8050
Wire Wire Line
	6650 8050 6650 8150
Wire Wire Line
	8800 7900 8550 7900
Wire Wire Line
	8550 7900 8550 8250
Wire Wire Line
	4450 6950 4500 6950
Wire Wire Line
	4500 6950 4500 7050
Wire Wire Line
	4500 6850 4450 6850
Wire Wire Line
	4500 6750 4500 6850
Wire Wire Line
	10400 5650 8950 5650
Wire Wire Line
	12100 4700 12100 4650
Connection ~ 12100 4650
Wire Wire Line
	12100 5400 12100 5000
Connection ~ 12950 4650
Wire Notes Line
	5750 7200 7950 7200
Wire Notes Line
	7950 7200 7950 8450
Wire Notes Line
	7950 8450 5750 8450
Wire Notes Line
	5750 8450 5750 7200
Wire Notes Line
	8150 7200 9200 7200
Wire Notes Line
	13450 2500 13450 6450
Wire Wire Line
	9100 4200 8500 4200
Wire Wire Line
	10400 4200 9400 4200
Wire Wire Line
	4600 6750 4500 6750
Wire Wire Line
	4500 7050 4600 7050
Connection ~ 4500 7050
$Comp
L CarteMere-rescue:C C37
U 1 1 5AFC3C87
P 4850 4400
F 0 "C37" H 4875 4500 50  0000 L CNN
F 1 "10uF" H 4875 4300 50  0000 L CNN
F 2 "Capacitors_SMD:C_0805_HandSoldering" H 4888 4250 50  0001 C CNN
F 3 "" H 4850 4400 50  0000 C CNN
F 4 "C2012X5R1C106K085AC" H 4850 4400 60  0001 C CNN "Réf fab"
F 5 "2346924" H 4850 4400 60  0001 C CNN "Code commande"
F 6 "Farnell" H 4850 4400 60  0001 C CNN "Distributeur"
F 7 "0,199" H 4850 4400 60  0001 C CNN "Prix"
	1    4850 4400
	1    0    0    -1  
$EndComp
Wire Wire Line
	4850 4550 4850 4600
Connection ~ 4850 4600
Wire Wire Line
	4850 4250 4850 4200
Connection ~ 5150 4200
Wire Wire Line
	5650 4200 6100 4200
Wire Wire Line
	5650 4200 5650 4350
Wire Wire Line
	5450 4200 5650 4200
Wire Wire Line
	5150 4600 5450 4600
Wire Wire Line
	6050 4950 6050 5000
Wire Wire Line
	8850 4650 8900 4650
Wire Wire Line
	5650 3100 5650 4200
Wire Wire Line
	9600 3850 9600 3950
Wire Wire Line
	9600 3650 9600 3750
Wire Wire Line
	9600 3750 9600 3850
Wire Wire Line
	10350 3750 10350 3850
Wire Wire Line
	8900 4650 9300 4650
Wire Wire Line
	9650 5350 9650 5450
Wire Wire Line
	9650 5250 9650 5350
Wire Wire Line
	9650 5150 9650 5250
Wire Wire Line
	10350 5250 10350 5350
Wire Wire Line
	10600 4650 10600 4950
Wire Wire Line
	10600 4650 10750 4650
Wire Wire Line
	11100 4650 11550 4650
Wire Wire Line
	11550 5000 11550 5050
Wire Wire Line
	11100 5000 11100 6050
Wire Wire Line
	5300 3100 5650 3100
Wire Wire Line
	12950 4650 13100 4650
Wire Wire Line
	4850 4600 5150 4600
Wire Wire Line
	5150 4200 5450 4200
Text Notes 6350 2150 0    118  ~ 24
R18 : résistance limitation courant de sortie\n
$Comp
L Connector_Generic:Conn_01x03 J1
U 1 1 5D67D8F6
P 4000 7750
F 0 "J1" H 3918 8067 50  0000 C CNN
F 1 "Conn_01x03" H 3918 7976 50  0000 C CNN
F 2 "lib_CarteFille:SM03B-PASS-TB" H 4000 7750 50  0001 C CNN
F 3 "~" H 4000 7750 50  0001 C CNN
F 4 "2399346" H 2350 750 50  0001 C CNN "Code commande"
F 5 "Farnell" H 2350 750 50  0001 C CNN "Distributeur"
F 6 "0,501" H 2350 750 50  0001 C CNN "Prix"
F 7 "SM03B-PASS-TB(LF)(SN) " H 2350 750 50  0001 C CNN "Réf fab"
	1    4000 7750
	-1   0    0    -1  
$EndComp
$Comp
L CarteMere-rescue:GND #PWR023
U 1 1 5D684B05
P 4450 7750
F 0 "#PWR023" H 4450 7500 50  0001 C CNN
F 1 "GND" H 4450 7600 50  0000 C CNN
F 2 "" H 4450 7750 50  0000 C CNN
F 3 "" H 4450 7750 50  0000 C CNN
	1    4450 7750
	1    0    0    -1  
$EndComp
Wire Wire Line
	4200 7750 4450 7750
Wire Wire Line
	4200 7850 4250 7850
Text GLabel 4800 7650 2    39   Input ~ 8
+BATT_OR_+9V
Wire Wire Line
	4200 7650 4750 7650
Wire Wire Line
	4900 8050 4750 8050
Wire Wire Line
	4750 8050 4750 7650
Connection ~ 4750 7650
Wire Wire Line
	4750 7650 4800 7650
Wire Wire Line
	5450 8050 5200 8050
Wire Notes Line
	3300 8350 5600 8350
Text Notes 4400 7500 0    39   ~ 8
connecteur vers carte chargeur
Wire Wire Line
	11550 4650 12100 4650
Wire Wire Line
	11550 5400 12100 5400
$Comp
L CarteMere-rescue:C C9
U 1 1 5D8186DE
P 4100 3250
F 0 "C9" H 4125 3350 50  0000 L CNN
F 1 "10uF" H 4125 3150 50  0000 L CNN
F 2 "Capacitor_SMD:C_0805_2012Metric" H 4138 3100 50  0001 C CNN
F 3 "" H 4100 3250 50  0000 C CNN
F 4 "C2012X5R1C106K085AC" H 4100 3250 60  0001 C CNN "Réf fab"
F 5 "2346924" H 4100 3250 60  0001 C CNN "Code commande"
F 6 "Farnell" H 4100 3250 60  0001 C CNN "Distributeur"
F 7 "0,0464" H 4100 3250 60  0001 C CNN "Prix"
	1    4100 3250
	1    0    0    -1  
$EndComp
$Comp
L CarteMere-rescue:INDUCTOR-LIB_CARTE_MERE_DISKIOPI L1
U 1 1 5D81923E
P 4600 3100
F 0 "L1" V 4816 3100 50  0000 C CNN
F 1 "1uH" V 4725 3100 50  0000 C CNN
F 2 "lib_robot:MP002789" V 4725 3100 50  0001 C CNN
F 3 "" H 4600 3100 50  0000 C CNN
F 4 "3370439 " H 2350 750 50  0001 C CNN "Code commande"
F 5 "MP002789 " H 2350 750 50  0001 C CNN "Réf fab"
F 6 "Farnell" H 2350 750 50  0001 C CNN "Distributeur"
F 7 "0,383" H 2350 750 50  0001 C CNN "Prix"
	1    4600 3100
	0    -1   -1   0   
$EndComp
$Comp
L CarteMere-rescue:C C10
U 1 1 5D819D07
P 5000 3250
F 0 "C10" H 5025 3350 50  0000 L CNN
F 1 "100nF" H 5025 3150 50  0000 L CNN
F 2 "Capacitor_SMD:C_0805_2012Metric" H 5038 3100 50  0001 C CNN
F 3 "" H 5000 3250 50  0000 C CNN
F 4 "C0805C104Z3VACTU" H 5000 3250 60  0001 C CNN "Réf fab"
F 5 "2522443" H 5000 3250 60  0001 C CNN "Code commande"
F 6 "Farnell" H 5000 3250 60  0001 C CNN "Distributeur"
F 7 "0,0464" H 5000 3250 60  0001 C CNN "Prix"
	1    5000 3250
	1    0    0    -1  
$EndComp
$Comp
L CarteMere-rescue:GND #PWR037
U 1 1 5D81A184
P 5000 3400
F 0 "#PWR037" H 5000 3150 50  0001 C CNN
F 1 "GND" H 5000 3250 50  0000 C CNN
F 2 "" H 5000 3400 50  0000 C CNN
F 3 "" H 5000 3400 50  0000 C CNN
	1    5000 3400
	1    0    0    -1  
$EndComp
Wire Wire Line
	5300 3100 5000 3100
Connection ~ 5300 3100
Wire Wire Line
	5000 3100 4900 3100
Connection ~ 5000 3100
Wire Wire Line
	4300 3100 4100 3100
Connection ~ 4100 3100
$Comp
L CarteMere-rescue:GND #PWR036
U 1 1 5D828D3C
P 4100 3400
F 0 "#PWR036" H 4100 3150 50  0001 C CNN
F 1 "GND" H 4100 3250 50  0000 C CNN
F 2 "" H 4100 3400 50  0000 C CNN
F 3 "" H 4100 3400 50  0000 C CNN
	1    4100 3400
	1    0    0    -1  
$EndComp
Wire Wire Line
	12100 4650 12950 4650
$Comp
L CarteMere-rescue:CP C13
U 1 1 5DB84A0B
P 8350 8050
F 0 "C13" H 8375 8150 50  0000 L CNN
F 1 "150uF" H 8375 7950 50  0000 L CNN
F 2 "lib_CarteFille:MCVVT016M151EA6L" H 8388 7900 50  0001 C CNN
F 3 "" H 8350 8050 50  0000 C CNN
F 4 "MCVVT016M151EA6L" H 8350 8050 60  0001 C CNN "Réf fab"
F 5 "2611357" H 8350 8050 60  0001 C CNN "Code commande"
F 6 "Farnell" H 8350 8050 60  0001 C CNN "Distributeur"
F 7 "0,114" H 8350 8050 60  0001 C CNN "Prix"
	1    8350 8050
	1    0    0    -1  
$EndComp
Wire Wire Line
	8350 8200 8350 8250
Wire Wire Line
	8350 7900 8350 7800
Wire Wire Line
	8350 7800 8250 7800
Connection ~ 8350 7800
Wire Wire Line
	8350 7800 8800 7800
Wire Wire Line
	8350 8250 8550 8250
Connection ~ 8550 8250
Wire Wire Line
	8550 8250 8550 8300
Wire Notes Line
	9200 8550 8150 8550
Wire Notes Line
	9200 7200 9200 8550
Wire Notes Line
	8150 7200 8150 8550
$Comp
L power:+12V #PWR0107
U 1 1 5FC6B67C
P 7350 7750
F 0 "#PWR0107" H 7350 7600 50  0001 C CNN
F 1 "+12V" H 7365 7923 50  0000 C CNN
F 2 "" H 7350 7750 50  0001 C CNN
F 3 "" H 7350 7750 50  0001 C CNN
	1    7350 7750
	1    0    0    -1  
$EndComp
Wire Wire Line
	7350 7750 7350 7950
$Comp
L power:+12V #PWR0108
U 1 1 5FC71BF4
P 4500 6750
F 0 "#PWR0108" H 4500 6600 50  0001 C CNN
F 1 "+12V" H 4515 6923 50  0000 C CNN
F 2 "" H 4500 6750 50  0001 C CNN
F 3 "" H 4500 6750 50  0001 C CNN
	1    4500 6750
	1    0    0    -1  
$EndComp
Connection ~ 4500 6750
Wire Notes Line
	5600 6500 3300 6500
Wire Notes Line
	5600 6500 5600 8350
Wire Notes Line
	3300 6500 3300 8350
$Comp
L power:+12V #PWR0109
U 1 1 5FC78A1A
P 4600 8250
F 0 "#PWR0109" H 4600 8100 50  0001 C CNN
F 1 "+12V" H 4615 8423 50  0000 C CNN
F 2 "" H 4600 8250 50  0001 C CNN
F 3 "" H 4600 8250 50  0001 C CNN
	1    4600 8250
	1    0    0    -1  
$EndComp
Wire Wire Line
	4600 8250 4250 8250
Wire Wire Line
	4250 7850 4250 8250
$Comp
L power:+12V #PWR0101
U 1 1 5FC7EF46
P 5450 8050
F 0 "#PWR0101" H 5450 7900 50  0001 C CNN
F 1 "+12V" H 5465 8223 50  0000 C CNN
F 2 "" H 5450 8050 50  0001 C CNN
F 3 "" H 5450 8050 50  0001 C CNN
	1    5450 8050
	1    0    0    -1  
$EndComp
$Comp
L Device:D D6
U 1 1 5FC936D3
P 3400 3100
F 0 "D6" H 3400 2884 50  0000 C CNN
F 1 "MBRS410LT3G" H 3400 2975 50  0000 C CNN
F 2 "lib_CarteFille:DO_214AB_S4G" H 3400 3100 50  0001 C CNN
F 3 "~" H 3400 3100 50  0001 C CNN
F 4 "1702812" H 700 -4200 50  0001 C CNN "Code commande"
F 5 "Farnell" H 700 -4200 50  0001 C CNN "Distributeur"
F 6 "1,11" H 700 -4200 50  0001 C CNN "Prix"
F 7 "S4G R7" H 700 -4200 50  0001 C CNN "Réf fab"
	1    3400 3100
	-1   0    0    1   
$EndComp
Wire Wire Line
	3250 3100 2900 3100
Connection ~ 10350 3850
Connection ~ 10350 5350
Wire Notes Line
	1850 6450 1850 2500
Wire Notes Line
	1850 6450 13450 6450
Wire Notes Line
	1850 2500 13450 2500
Wire Wire Line
	2900 4600 2900 3300
Connection ~ 2900 3300
Wire Wire Line
	2900 3300 2900 3200
Wire Wire Line
	2900 4600 4850 4600
Text Notes 3550 2700 0    79   ~ 16
Jack entrée +12V
Connection ~ 6000 3100
Wire Wire Line
	6000 3100 9600 3100
Wire Wire Line
	5650 3100 6000 3100
Wire Wire Line
	3550 3100 4100 3100
Wire Wire Line
	6000 2750 6000 3100
$Comp
L power:+12V #PWR0105
U 1 1 5FC5B3DC
P 6000 2750
F 0 "#PWR0105" H 6000 2600 50  0001 C CNN
F 1 "+12V" H 6015 2923 50  0000 C CNN
F 2 "" H 6000 2750 50  0001 C CNN
F 3 "" H 6000 2750 50  0001 C CNN
	1    6000 2750
	1    0    0    -1  
$EndComp
$Comp
L Device:D D3
U 1 1 5D6AA803
P 5050 8050
F 0 "D3" H 5050 7834 50  0000 C CNN
F 1 "MBRS410LT3G" H 5050 7925 50  0000 C CNN
F 2 "lib_CarteFille:DO_214AB_S4G" H 5050 8050 50  0001 C CNN
F 3 "~" H 5050 8050 50  0001 C CNN
F 4 "1702812" H 2350 750 50  0001 C CNN "Code commande"
F 5 "Farnell" H 2350 750 50  0001 C CNN "Distributeur"
F 6 "1,11" H 2350 750 50  0001 C CNN "Prix"
F 7 "MBRS410LT3G" H 2350 750 50  0001 C CNN "Réf fab"
	1    5050 8050
	-1   0    0    1   
$EndComp
$Comp
L CarteMere-rescue:C C32
U 1 1 607ECBC7
P 9300 4800
F 0 "C32" H 9325 4900 50  0000 L CNN
F 1 "20pF" H 9325 4700 50  0000 L CNN
F 2 "Capacitor_SMD:C_0805_2012Metric" H 9338 4650 50  0001 C CNN
F 3 "" H 9300 4800 50  0000 C CNN
F 4 "CL21C200JBANNNC" H 9300 4800 60  0001 C CNN "Réf fab"
F 5 "2497030" H 9300 4800 60  0001 C CNN "Code commande"
F 6 "Farnell" H 9300 4800 60  0001 C CNN "Distributeur"
F 7 "0,0828" H 9300 4800 60  0001 C CNN "Prix"
	1    9300 4800
	-1   0    0    1   
$EndComp
Connection ~ 9300 4650
Wire Wire Line
	9300 4650 10600 4650
$Comp
L CarteMere-rescue:GND #PWR011
U 1 1 607ED83D
P 9300 4950
F 0 "#PWR011" H 9300 4700 50  0001 C CNN
F 1 "GND" H 9300 4800 50  0000 C CNN
F 2 "" H 9300 4950 50  0000 C CNN
F 3 "" H 9300 4950 50  0000 C CNN
	1    9300 4950
	1    0    0    -1  
$EndComp
$Comp
L CarteMere-rescue:+5V #PWR0111
U 1 1 608B52C0
P 11750 4050
F 0 "#PWR0111" H 11750 3900 50  0001 C CNN
F 1 "+5V" H 11750 4190 50  0000 C CNN
F 2 "" H 11750 4050 50  0000 C CNN
F 3 "" H 11750 4050 50  0000 C CNN
	1    11750 4050
	0    -1   -1   0   
$EndComp
Wire Wire Line
	11750 4050 11900 4050
$Comp
L CarteMere-rescue:GND #PWR0112
U 1 1 608CBE48
P 11900 3800
F 0 "#PWR0112" H 11900 3550 50  0001 C CNN
F 1 "GND" H 11900 3650 50  0000 C CNN
F 2 "" H 11900 3800 50  0000 C CNN
F 3 "" H 11900 3800 50  0000 C CNN
	1    11900 3800
	-1   0    0    1   
$EndComp
Wire Wire Line
	11900 3800 11900 3950
$Comp
L CarteMere-rescue:CONN_01X02 P16
U 1 1 608FC656
P 12100 4000
F 0 "P16" H 12178 4041 50  0000 L CNN
F 1 "CONN_01X02" H 12178 3950 50  0000 L CNN
F 2 "Pin_Headers:Pin_Header_Angled_1x02_Pitch2.54mm" H 12100 4000 50  0001 C CNN
F 3 "" H 12100 4000 50  0000 C CNN
	1    12100 4000
	1    0    0    -1  
$EndComp
$EndSCHEMATC
