EESchema Schematic File Version 4
EELAYER 30 0
EELAYER END
$Descr A4 11693 8268
encoding utf-8
Sheet 6 7
Title "Carte mere Diskio Pi"
Date "09/05/2018"
Rev "0.1"
Comp ""
Comment1 ""
Comment2 ""
Comment3 ""
Comment4 ""
$EndDescr
$Comp
L CarteMere-rescue:LMC555CMX U1
U 1 1 5AC62E49
P 5200 3500
F 0 "U1" H 4800 3850 50  0000 L CNN
F 1 "LMC555CMX" H 4700 3150 50  0000 L CNN
F 2 "lib_CarteFille:SOIC-8_LMC555CMX" H 5200 3500 50  0001 C CNN
F 3 "" H 5200 3500 50  0000 C CNN
F 4 "LMC555CMX" H 5200 3500 60  0001 C CNN "Réf fab"
F 5 "3006903" H 5200 3500 60  0001 C CNN "Code commande"
F 6 "Farnell" H 5200 3500 60  0001 C CNN "Distributeur"
F 7 "0,936" H 5200 3500 60  0001 C CNN "Prix"
	1    5200 3500
	1    0    0    -1  
$EndComp
Wire Wire Line
	5200 3900 5200 3950
$Comp
L CarteMere-rescue:GND #PWR078
U 1 1 5AC62F06
P 5200 3950
F 0 "#PWR078" H 5200 3700 50  0001 C CNN
F 1 "GND" H 5200 3800 50  0000 C CNN
F 2 "" H 5200 3950 50  0000 C CNN
F 3 "" H 5200 3950 50  0000 C CNN
	1    5200 3950
	1    0    0    -1  
$EndComp
Wire Wire Line
	5200 3100 5200 3050
$Comp
L CarteMere-rescue:+5V #PWR079
U 1 1 5AD723C8
P 5200 3050
AR Path="/5AD723C8" Ref="#PWR079"  Part="1" 
AR Path="/5AC62DCE/5AD723C8" Ref="#PWR079"  Part="1" 
F 0 "#PWR079" H 5200 2900 50  0001 C CNN
F 1 "+5V" H 5200 3190 50  0000 C CNN
F 2 "" H 5200 3050 50  0000 C CNN
F 3 "" H 5200 3050 50  0000 C CNN
	1    5200 3050
	1    0    0    -1  
$EndComp
Wire Wire Line
	5700 3300 6400 3300
Text GLabel 6550 3300 2    39   Input ~ 8
CMD_INTER_ON
$Comp
L CarteMere-rescue:C C27
U 1 1 5AD725BB
P 5550 2650
F 0 "C27" H 5575 2750 50  0000 L CNN
F 1 "100nF" H 5575 2550 50  0000 L CNN
F 2 "Capacitors_SMD:C_0805_HandSoldering" H 5588 2500 50  0001 C CNN
F 3 "" H 5550 2650 50  0000 C CNN
F 4 "C0805C104Z3VACTU" H 5550 2650 60  0001 C CNN "Réf fab"
F 5 "2522443" H 5550 2650 60  0001 C CNN "Code commande"
F 6 "Farnell" H 5550 2650 60  0001 C CNN "Distributeur"
F 7 "0,0464" H 5550 2650 60  0001 C CNN "Prix"
	1    5550 2650
	1    0    0    -1  
$EndComp
$Comp
L CarteMere-rescue:GND #PWR080
U 1 1 5AD72602
P 5550 2800
F 0 "#PWR080" H 5550 2550 50  0001 C CNN
F 1 "GND" H 5550 2650 50  0000 C CNN
F 2 "" H 5550 2800 50  0000 C CNN
F 3 "" H 5550 2800 50  0000 C CNN
	1    5550 2800
	1    0    0    -1  
$EndComp
$Comp
L CarteMere-rescue:+5V #PWR081
U 1 1 5AD72613
P 5550 2500
AR Path="/5AD72613" Ref="#PWR081"  Part="1" 
AR Path="/5AC62DCE/5AD72613" Ref="#PWR081"  Part="1" 
F 0 "#PWR081" H 5550 2350 50  0001 C CNN
F 1 "+5V" H 5550 2640 50  0000 C CNN
F 2 "" H 5550 2500 50  0000 C CNN
F 3 "" H 5550 2500 50  0000 C CNN
	1    5550 2500
	1    0    0    -1  
$EndComp
Wire Wire Line
	3800 3400 3800 3500
Connection ~ 3800 3500
$Comp
L CarteMere-rescue:R R17
U 1 1 5AD72882
P 3800 3750
F 0 "R17" V 3880 3750 50  0000 C CNN
F 1 "1M" V 3800 3750 50  0000 C CNN
F 2 "Resistors_SMD:R_0805_HandSoldering" V 3730 3750 50  0001 C CNN
F 3 "" H 3800 3750 50  0000 C CNN
F 4 "MC01W080551M" H 3800 3750 60  0001 C CNN "Réf fab"
F 5 "9333746" H 3800 3750 60  0001 C CNN "Code commande"
F 6 "Farnell" H 3800 3750 60  0001 C CNN "Distributeur"
F 7 "0,0111" H 3800 3750 60  0001 C CNN "Prix"
	1    3800 3750
	1    0    0    -1  
$EndComp
Wire Wire Line
	3800 3100 3800 3050
$Comp
L CarteMere-rescue:+5V #PWR082
U 1 1 5AD72910
P 3800 3050
AR Path="/5AD72910" Ref="#PWR082"  Part="1" 
AR Path="/5AC62DCE/5AD72910" Ref="#PWR082"  Part="1" 
F 0 "#PWR082" H 3800 2900 50  0001 C CNN
F 1 "+5V" H 3800 3190 50  0000 C CNN
F 2 "" H 3800 3050 50  0000 C CNN
F 3 "" H 3800 3050 50  0000 C CNN
	1    3800 3050
	1    0    0    -1  
$EndComp
Wire Wire Line
	5700 3700 5800 3700
Wire Wire Line
	5800 3700 5800 4300
Wire Wire Line
	5800 4300 4050 4300
Wire Wire Line
	4050 4300 4050 3500
Wire Wire Line
	4050 3500 3800 3500
Wire Wire Line
	3800 3900 3800 3950
$Comp
L CarteMere-rescue:GND #PWR083
U 1 1 5AD72B4D
P 3800 3950
F 0 "#PWR083" H 3800 3700 50  0001 C CNN
F 1 "GND" H 3800 3800 50  0000 C CNN
F 2 "" H 3800 3950 50  0000 C CNN
F 3 "" H 3800 3950 50  0000 C CNN
	1    3800 3950
	1    0    0    -1  
$EndComp
Wire Wire Line
	4600 3500 4400 3500
Wire Wire Line
	4400 3500 4400 3550
$Comp
L CarteMere-rescue:C C28
U 1 1 5AD72D4E
P 4400 3700
F 0 "C28" H 4425 3800 50  0000 L CNN
F 1 "10nF" H 4425 3600 50  0000 L CNN
F 2 "Capacitors_SMD:C_0805_HandSoldering" H 4438 3550 50  0001 C CNN
F 3 "" H 4400 3700 50  0000 C CNN
F 4 "C0805C103M5RACTU" H 4400 3700 60  0001 C CNN "Réf fab"
F 5 "2581081" H 4400 3700 60  0001 C CNN "Code commande"
F 6 "Farnell" H 4400 3700 60  0001 C CNN "Distributeur"
F 7 "0,119" H 4400 3700 60  0001 C CNN "Prix"
	1    4400 3700
	1    0    0    1   
$EndComp
$Comp
L CarteMere-rescue:GND #PWR084
U 1 1 5AD72D83
P 4400 3850
F 0 "#PWR084" H 4400 3600 50  0001 C CNN
F 1 "GND" H 4400 3700 50  0000 C CNN
F 2 "" H 4400 3850 50  0000 C CNN
F 3 "" H 4400 3850 50  0000 C CNN
	1    4400 3850
	1    0    0    -1  
$EndComp
Wire Wire Line
	4050 3300 4600 3300
Connection ~ 4050 3500
Text Notes 5800 3500 0    39   ~ 8
NC
Wire Wire Line
	4550 3700 4600 3700
Wire Wire Line
	4550 2650 4550 3700
$Comp
L CarteMere-rescue:C C26
U 1 1 5AD734C5
P 3800 3250
F 0 "C26" H 3825 3350 50  0000 L CNN
F 1 "10uF" H 3825 3150 50  0000 L CNN
F 2 "Capacitors_SMD:C_0805_HandSoldering" H 3838 3100 50  0001 C CNN
F 3 "" H 3800 3250 50  0000 C CNN
F 4 "C2012X5R1C106K085AC" H 3800 3250 60  0001 C CNN "Réf fab"
F 5 "2346924" H 3800 3250 60  0001 C CNN "Code commande"
F 6 "Farnell" H 3800 3250 60  0001 C CNN "Distributeur"
F 7 "0,199" H 3800 3250 60  0001 C CNN "Prix"
	1    3800 3250
	1    0    0    1   
$EndComp
Text Notes 3400 5350 0    59   ~ 12
Commande MOSFET après 3 secondes\npour ne pas démarrer l'ecran et le PI en meme temps.
Wire Wire Line
	4550 2650 4500 2650
Text GLabel 4500 2650 0    39   Input ~ 8
ENABLE_POWER_RPi
Wire Notes Line
	7850 2050 7850 5800
Wire Notes Line
	7850 5800 3300 5800
Wire Notes Line
	3300 5800 3300 2050
Text Notes 4150 4600 0    118  ~ 24
T = 1.1 * R * C
Wire Wire Line
	3800 3500 3800 3600
Wire Wire Line
	4050 3500 4050 3300
Wire Notes Line
	3300 2050 7850 2050
$Comp
L CarteMere-rescue:R R1
U 1 1 607E4D4B
P 6400 3450
F 0 "R1" V 6480 3450 50  0000 C CNN
F 1 "10k" V 6400 3450 50  0000 C CNN
F 2 "Resistor_SMD:R_0805_2012Metric_Pad1.15x1.40mm_HandSolder" V 6330 3450 50  0001 C CNN
F 3 "" H 6400 3450 50  0000 C CNN
F 4 "MCWR08X1002FTL" H 6400 3450 60  0001 C CNN "Réf fab"
F 5 "2447553" H 6400 3450 60  0001 C CNN "Code commande"
F 6 "Farnell" H 6400 3450 60  0001 C CNN "Distributeur"
F 7 "0,0111" H 6400 3450 60  0001 C CNN "Prix"
	1    6400 3450
	1    0    0    -1  
$EndComp
Connection ~ 6400 3300
Wire Wire Line
	6400 3300 6550 3300
$Comp
L CarteMere-rescue:GND #PWR010
U 1 1 607E56FE
P 6400 3600
F 0 "#PWR010" H 6400 3350 50  0001 C CNN
F 1 "GND" H 6400 3450 50  0000 C CNN
F 2 "" H 6400 3600 50  0000 C CNN
F 3 "" H 6400 3600 50  0000 C CNN
	1    6400 3600
	1    0    0    -1  
$EndComp
$EndSCHEMATC
