EESchema Schematic File Version 4
EELAYER 30 0
EELAYER END
$Descr A4 11693 8268
encoding utf-8
Sheet 4 7
Title "Carte mere Diskio Pi"
Date "09/05/2018"
Rev "0.1"
Comp ""
Comment1 ""
Comment2 ""
Comment3 ""
Comment4 ""
$EndDescr
$Comp
L CarteMere-rescue:LM311DT U5
U 1 1 5AD6EB44
P 5250 3800
F 0 "U5" H 5250 4050 50  0000 L CNN
F 1 "LM311DT" H 5250 3950 50  0000 L CNN
F 2 "lib_CarteFille:LM311DT" H 5250 3800 50  0001 C CNN
F 3 "" H 5250 3800 50  0000 C CNN
F 4 "LM311DT" H 5250 3800 60  0001 C CNN "Réf fab"
F 5 "2382617" H 5250 3800 60  0001 C CNN "Code commande"
F 6 "Farnell" H 5250 3800 60  0001 C CNN "Distributeur"
F 7 "0,359" H 5250 3800 60  0001 C CNN "Prix"
	1    5250 3800
	1    0    0    -1  
$EndComp
Wire Wire Line
	5550 3800 5650 3800
$Comp
L CarteMere-rescue:R R14
U 1 1 5AD6EEE7
P 6300 2900
F 0 "R14" V 6380 2900 50  0000 C CNN
F 1 "10k" V 6300 2900 50  0000 C CNN
F 2 "Resistors_SMD:R_0805_HandSoldering" V 6230 2900 50  0001 C CNN
F 3 "" H 6300 2900 50  0000 C CNN
F 4 "MCWR08X1002FTL" H 6300 2900 60  0001 C CNN "Réf fab"
F 5 "2447553" H 6300 2900 60  0001 C CNN "Code commande"
F 6 "Farnell" H 6300 2900 60  0001 C CNN "Distributeur"
F 7 "0,0101" H 6300 2900 60  0001 C CNN "Prix"
	1    6300 2900
	1    0    0    -1  
$EndComp
Wire Wire Line
	6300 3100 6300 3050
Wire Wire Line
	6300 2750 6300 2700
Wire Wire Line
	6900 2900 6900 2850
Wire Wire Line
	6900 3300 6900 3350
$Comp
L CarteMere-rescue:GND #PWR061
U 1 1 5AD6F3F5
P 6900 3350
F 0 "#PWR061" H 6900 3100 50  0001 C CNN
F 1 "GND" H 6900 3200 50  0000 C CNN
F 2 "" H 6900 3350 50  0000 C CNN
F 3 "" H 6900 3350 50  0000 C CNN
	1    6900 3350
	1    0    0    -1  
$EndComp
Text GLabel 6900 2850 2    39   Input ~ 8
JST_1_VENTILO
$Comp
L CarteMere-rescue:C C25
U 1 1 5AD6F7E1
P 5650 4700
F 0 "C25" H 5675 4800 50  0000 L CNN
F 1 "100nF" H 5675 4600 50  0000 L CNN
F 2 "Capacitors_SMD:C_0805_HandSoldering" H 5688 4550 50  0001 C CNN
F 3 "" H 5650 4700 50  0000 C CNN
F 4 "C0805C104Z3VACTU" H 5650 4700 60  0001 C CNN "Réf fab"
F 5 "2522443" H 5650 4700 60  0001 C CNN "Code commande"
F 6 "Farnell" H 5650 4700 60  0001 C CNN "Distributeur"
F 7 "0,0464" H 5650 4700 60  0001 C CNN "Prix"
	1    5650 4700
	1    0    0    -1  
$EndComp
$Comp
L CarteMere-rescue:GND #PWR062
U 1 1 5AD6F875
P 5650 4850
F 0 "#PWR062" H 5650 4600 50  0001 C CNN
F 1 "GND" H 5650 4700 50  0000 C CNN
F 2 "" H 5650 4850 50  0000 C CNN
F 3 "" H 5650 4850 50  0000 C CNN
	1    5650 4850
	1    0    0    -1  
$EndComp
$Comp
L CarteMere-rescue:+5V #PWR063
U 1 1 5AD6F8A1
P 5650 4550
F 0 "#PWR063" H 5650 4400 50  0001 C CNN
F 1 "+5V" H 5650 4690 50  0000 C CNN
F 2 "" H 5650 4550 50  0000 C CNN
F 3 "" H 5650 4550 50  0000 C CNN
	1    5650 4550
	1    0    0    -1  
$EndComp
Wire Wire Line
	5350 4100 5350 4150
Wire Wire Line
	5350 4150 5600 4150
Wire Wire Line
	5600 4150 5600 3900
Wire Wire Line
	5600 3900 5550 3900
Wire Wire Line
	5250 4100 5250 4200
Wire Wire Line
	5150 4100 5150 4200
Wire Wire Line
	5250 4200 5150 4200
$Comp
L CarteMere-rescue:GND #PWR064
U 1 1 5AD6FD65
P 5150 4300
F 0 "#PWR064" H 5150 4050 50  0001 C CNN
F 1 "GND" H 5150 4150 50  0000 C CNN
F 2 "" H 5150 4300 50  0000 C CNN
F 3 "" H 5150 4300 50  0000 C CNN
	1    5150 4300
	1    0    0    -1  
$EndComp
Connection ~ 5150 4200
Wire Wire Line
	4150 3700 4500 3700
Text GLabel 4150 3700 0    39   Input ~ 8
JST_1_TEMP
$Comp
L CarteMere-rescue:R R15
U 1 1 5AD7019C
P 4500 3450
F 0 "R15" V 4580 3450 50  0000 C CNN
F 1 "1K" V 4500 3450 50  0000 C CNN
F 2 "Resistors_SMD:R_0805_HandSoldering" V 4430 3450 50  0001 C CNN
F 3 "" H 4500 3450 50  0000 C CNN
F 4 "MC01W080551K" H 4500 3450 60  0001 C CNN "Réf fab"
F 5 "9333711" H 4500 3450 60  0001 C CNN "Code commande"
F 6 "Farnell" H 4500 3450 60  0001 C CNN "Distributeur"
F 7 "0,0083" H 4500 3450 60  0001 C CNN "Prix"
	1    4500 3450
	1    0    0    -1  
$EndComp
Wire Wire Line
	4500 3600 4500 3700
$Comp
L CarteMere-rescue:+5V #PWR065
U 1 1 5AD7032B
P 4500 3250
F 0 "#PWR065" H 4500 3100 50  0001 C CNN
F 1 "+5V" H 4500 3390 50  0000 C CNN
F 2 "" H 4500 3250 50  0000 C CNN
F 3 "" H 4500 3250 50  0000 C CNN
	1    4500 3250
	1    0    0    -1  
$EndComp
Wire Wire Line
	4500 3300 4500 3250
$Comp
L CarteMere-rescue:R R16
U 1 1 5AD70404
P 4800 3450
F 0 "R16" V 4880 3450 50  0000 C CNN
F 1 "499" V 4800 3450 50  0000 C CNN
F 2 "Resistors_SMD:R_0805_HandSoldering" V 4730 3450 50  0001 C CNN
F 3 "" H 4800 3450 50  0000 C CNN
F 4 "MCMR08X4990FTL" H 4800 3450 60  0001 C CNN "Réf fab"
F 5 "2073789" H 4800 3450 60  0001 C CNN "Code commande"
F 6 "Farnell" H 4800 3450 60  0001 C CNN "Distributeur"
F 7 "0,0135" H 4800 3450 60  0001 C CNN "Prix"
	1    4800 3450
	1    0    0    -1  
$EndComp
Wire Wire Line
	4800 3300 4800 3250
$Comp
L CarteMere-rescue:+5V #PWR066
U 1 1 5AD7050E
P 4800 3250
F 0 "#PWR066" H 4800 3100 50  0001 C CNN
F 1 "+5V" H 4800 3390 50  0000 C CNN
F 2 "" H 4800 3250 50  0000 C CNN
F 3 "" H 4800 3250 50  0000 C CNN
	1    4800 3250
	1    0    0    -1  
$EndComp
$Comp
L CarteMere-rescue:POT RV2
U 1 1 5AD70566
P 4600 4400
F 0 "RV2" H 4600 4300 50  0000 C CNN
F 1 "82PR1KLF" H 4600 4400 50  0000 C CNN
F 2 "lib_CarteFille:82PR1KLF" H 4600 4400 50  0001 C CNN
F 3 "" H 4600 4400 50  0000 C CNN
F 4 "82PR1KLF " H 4600 4400 60  0001 C CNN "Réf fab"
F 5 "858-82PR1KLF " H 4600 4400 60  0001 C CNN "Code commande"
F 6 "Farnell" H 4600 4400 60  0001 C CNN "Distributeur"
F 7 "0,271" H 4600 4400 60  0001 C CNN "Prix"
	1    4600 4400
	0    1    1    0   
$EndComp
Wire Wire Line
	4800 4400 4750 4400
Wire Wire Line
	4600 4650 4600 4700
$Comp
L CarteMere-rescue:GND #PWR067
U 1 1 5AD70758
P 4600 4700
F 0 "#PWR067" H 4600 4450 50  0001 C CNN
F 1 "GND" H 4600 4550 50  0000 C CNN
F 2 "" H 4600 4700 50  0000 C CNN
F 3 "" H 4600 4700 50  0000 C CNN
	1    4600 4700
	1    0    0    -1  
$EndComp
$Comp
L CarteMere-rescue:+5V #PWR068
U 1 1 5AD70A3D
P 5150 3500
F 0 "#PWR068" H 5150 3350 50  0001 C CNN
F 1 "+5V" H 5150 3640 50  0000 C CNN
F 2 "" H 5150 3500 50  0000 C CNN
F 3 "" H 5150 3500 50  0000 C CNN
	1    5150 3500
	1    0    0    -1  
$EndComp
Wire Wire Line
	8150 2300 8350 2300
Wire Wire Line
	8350 2300 8350 2800
$Comp
L CarteMere-rescue:GND #PWR069
U 1 1 5AD70FB3
P 8350 2800
F 0 "#PWR069" H 8350 2550 50  0001 C CNN
F 1 "GND" H 8350 2650 50  0000 C CNN
F 2 "" H 8350 2800 50  0000 C CNN
F 3 "" H 8350 2800 50  0000 C CNN
	1    8350 2800
	1    0    0    -1  
$EndComp
Text GLabel 8450 2200 2    39   Input ~ 8
JST_1_TEMP
Wire Wire Line
	8150 2200 8450 2200
$Comp
L CarteMere-rescue:D D2
U 1 1 5AD71521
P 8700 2550
F 0 "D2" H 8700 2650 50  0000 C CNN
F 1 "D" H 8700 2450 50  0000 C CNN
F 2 "lib_CarteFille:MURA240T3G" H 8700 2550 50  0001 C CNN
F 3 "" H 8700 2550 50  0000 C CNN
F 4 "MURA240T3G" H 8700 2550 60  0001 C CNN "Réf fab"
F 5 "2463414" H 8700 2550 60  0001 C CNN "Code commande"
F 6 "Farnell" H 8700 2550 60  0001 C CNN "Distributeur"
F 7 "0,306" H 8700 2550 60  0001 C CNN "Prix"
	1    8700 2550
	0    1    1    0   
$EndComp
Wire Wire Line
	8450 2700 8700 2700
Wire Wire Line
	8150 2400 8700 2400
Text GLabel 8850 2700 2    39   Input ~ 8
JST_1_VENTILO
Connection ~ 8700 2700
Connection ~ 8700 2400
Text GLabel 8850 2400 2    39   Input ~ 8
+5V_USB_1
Wire Wire Line
	8150 2500 8450 2500
Wire Wire Line
	8450 2500 8450 2700
Wire Notes Line
	9450 1900 9450 5400
Wire Notes Line
	9450 5400 3250 5400
Wire Notes Line
	3250 5400 3250 1900
Text Notes 3350 4000 0    39   ~ 8
NTCLE100E3102JB0 (Réf Farnell)\nCTN\n25°C : 1000 Ohm
Text Notes 4750 4800 0    39   ~ 8
1Kohm
Wire Wire Line
	5150 4200 5150 4300
Wire Wire Line
	8700 2700 8850 2700
Wire Wire Line
	8700 2400 8850 2400
Wire Notes Line
	3250 1900 9450 1900
Connection ~ 6300 3100
$Comp
L CarteMere-rescue:C C4
U 1 1 5D23DEAF
P 4450 2550
F 0 "C4" H 4475 2650 50  0000 L CNN
F 1 "100nF" H 4475 2450 50  0000 L CNN
F 2 "Capacitor_SMD:C_0805_2012Metric" H 4488 2400 50  0001 C CNN
F 3 "" H 4450 2550 50  0000 C CNN
F 4 "C0805C104Z3VACTU" H 4450 2550 60  0001 C CNN "Réf fab"
F 5 "2522443" H 4450 2550 60  0001 C CNN "Code commande"
F 6 "Farnell" H 4450 2550 60  0001 C CNN "Distributeur"
F 7 "0,0464" H 4450 2550 60  0001 C CNN "Prix"
	1    4450 2550
	1    0    0    -1  
$EndComp
$Comp
L CarteMere-rescue:GND #PWR025
U 1 1 5D23E877
P 4450 2700
F 0 "#PWR025" H 4450 2450 50  0001 C CNN
F 1 "GND" H 4450 2550 50  0000 C CNN
F 2 "" H 4450 2700 50  0000 C CNN
F 3 "" H 4450 2700 50  0000 C CNN
	1    4450 2700
	1    0    0    -1  
$EndComp
$Comp
L CarteMere-rescue:+5V #PWR024
U 1 1 5D23ECA3
P 4450 2400
F 0 "#PWR024" H 4450 2250 50  0001 C CNN
F 1 "+5V" H 4450 2540 50  0000 C CNN
F 2 "" H 4450 2400 50  0000 C CNN
F 3 "" H 4450 2400 50  0000 C CNN
	1    4450 2400
	1    0    0    -1  
$EndComp
$Comp
L CarteMere-rescue:IRFML8244 Q2
U 1 1 5AD6F28C
P 6800 3100
F 0 "Q2" H 7100 3150 50  0000 R CNN
F 1 "IRFML8244" H 7450 3050 50  0000 R CNN
F 2 "lib_CarteFille:SOT-23_IRFML8244" H 7000 3200 50  0001 C CNN
F 3 "" H 6800 3100 50  0000 C CNN
F 4 "IRFML8244" H 6800 3100 60  0001 C CNN "Réf fab"
F 5 "1857298" H 6800 3100 60  0001 C CNN "Code commande"
F 6 "Farnell" H 6800 3100 60  0001 C CNN "Distributeur"
F 7 "0,28" H 6800 3100 60  0001 C CNN "Prix"
	1    6800 3100
	1    0    0    -1  
$EndComp
Wire Wire Line
	6300 3100 6600 3100
Text Notes 7150 2000 0    39   ~ 8
+5V USB de la PI, pour éteindre le ventillateur lorsque la Pi et éteinte.
$Comp
L CarteMere-rescue:CONN_01X04 P15
U 1 1 5ADEE898
P 7950 2350
F 0 "P15" H 7950 2600 50  0000 C CNN
F 1 "CONN_01X04" V 8050 2350 50  0000 C CNN
F 2 "lib_CarteFille:22-05-3041_MOLEX" H 7950 2350 50  0001 C CNN
F 3 "" H 7950 2350 50  0000 C CNN
F 4 "22-05-3041 " H 7950 2350 60  0001 C CNN "Réf fab"
F 5 "1756798" H 7950 2350 60  0001 C CNN "Code commande"
F 6 "Farnell" H 7950 2350 60  0001 C CNN "Distributeur"
F 7 "0,396" H 7950 2350 60  0001 C CNN "Prix"
	1    7950 2350
	-1   0    0    1   
$EndComp
$Comp
L CarteMere-rescue:DVDD-LIB_CARTE_MERE_DISKIOPI #PWR0104
U 1 1 5DCBA82A
P 6300 2700
F 0 "#PWR0104" H 6300 2550 50  0001 C CNN
F 1 "DVDD" H 6317 2873 50  0000 C CNN
F 2 "" H 6300 2700 50  0000 C CNN
F 3 "" H 6300 2700 50  0000 C CNN
	1    6300 2700
	1    0    0    -1  
$EndComp
Wire Wire Line
	5650 3100 6300 3100
Wire Wire Line
	5650 3100 5650 3800
Wire Wire Line
	4800 3600 4800 3700
Wire Wire Line
	4950 3700 4800 3700
Connection ~ 4800 3700
Wire Wire Line
	4800 3700 4800 4400
Wire Wire Line
	4950 3900 4500 3900
Wire Wire Line
	4500 3900 4500 3700
Connection ~ 4500 3700
$EndSCHEMATC
